{
  "language": "en",
  "shortname": "ils",
  "institute": "Institute of Aircraft Systems",
  "pages": [
    {
      "id": "level-0",
      "language": "en",
      "route": "institute",
      "navigationTitle": "Institute",
      "url": "https://www.ils.uni-stuttgart.de/en/institute/",
      "name": "Institute",
      "subpages": [
        {
          "id": "level-1-0",
          "url": "https://www.ils.uni-stuttgart.de/en/institute/news/",
          "name": "News",
          "subpages": []
        },
        {},
        {
          "id": "level-1-2",
          "url": "https://www.ils.uni-stuttgart.de/en/institute/contact/",
          "name": "Contact",
          "subpages": []
        },
        {
          "id": "level-1-3",
          "url": "https://www.ils.uni-stuttgart.de/en/institute/geschichte/",
          "name": "History",
          "subpages": []
        },
        {
          "id": "level-1-4",
          "url": "https://www.ils.uni-stuttgart.de/en/institute/alumni/",
          "name": "Alumni",
          "subpages": []
        },
        {
          "id": "level-1-5",
          "url": "https://www.ils.uni-stuttgart.de/en/institute/labore/",
          "name": "Laboratories",
          "subpages": []
        }
      ]
    },
    {
      "id": "level-0",
      "language": "en",
      "route": "team",
      "navigationTitle": "Team / Floorplan",
      "url": ""
    },
    {
      "id": "level-0",
      "language": "en",
      "route": "news",
      "navigationTitle": "News",
      "url": ""
    },
    {
      "id": "level-0",
      "language": "en",
      "route": "media",
      "navigationTitle": "Media",
      "url": ""
    },
    {
      "id": "level-0",
      "language": "en",
      "route": "research",
      "navigationTitle": "Research",
      "url": "https://www.ils.uni-stuttgart.de/en/forschung/",
      "name": "Research",
      "subpages": [
        {
          "id": "level-1-0",
          "url": "https://www.ils.uni-stuttgart.de/en/forschung/advanced-certification-methods-acm/",
          "name": "Advanced Methods of Certification (AMC)",
          "subpages": []
        },
        {
          "id": "level-1-1",
          "url": "https://www.ils.uni-stuttgart.de/en/forschung/publikationen/",
          "name": "Publications",
          "subpages": []
        },
        {
          "id": "level-1-2",
          "url": "https://www.ils.uni-stuttgart.de/en/forschung/adaptive_plattform/",
          "name": "Adaptive Avionics Platform",
          "subpages": [
            {
              "id": "level-2-0",
              "url": "https://www.ils.uni-stuttgart.de/en/forschung/adaptive_plattform/resistant/",
              "name": "RESISTANT"
            }
          ]
        }
      ]
    },
    {
      "id": "level-0",
      "language": "en",
      "route": "media",
      "navigationTitle": "Thesis",
      "url": ""
    }
  ]
}