{
  "language": "de",
  "shortname": "isd",
  "institute": "Institut für Statik und Dynamik",
  "pages": [
    {
      "id": "level-0",
      "language": "de",
      "route": "institut",
      "navigationTitle": "Institut",
      "url": "https://www.isd.uni-stuttgart.de/de/institut/",
      "name": "Institut",
      "subpages": [
        {},
        {
          "id": "level-1-1",
          "url": "https://www.isd.uni-stuttgart.de/de/institut/kontakt/",
          "name": "Kontakt",
          "subpages": []
        },
        {
          "id": "level-1-2",
          "url": "https://www.isd.uni-stuttgart.de/de/institut/girls-day/",
          "name": "Girls' Day",
          "subpages": []
        },
        {
          "id": "level-1-3",
          "url": "https://www.isd.uni-stuttgart.de/de/institut/labore/",
          "name": "Labore",
          "subpages": [
            {
              "id": "level-2-0",
              "url": "https://www.isd.uni-stuttgart.de/de/institut/labore/biomechanik/",
              "name": "Biomechanik"
            }
          ]
        }
      ]
    },
    {
      "id": "level-0",
      "language": "de",
      "route": "team",
      "navigationTitle": "Team / Raumplan",
      "url": ""
    },
    {
      "id": "level-0",
      "language": "de",
      "route": "news",
      "navigationTitle": "News",
      "url": ""
    },
    {
      "id": "level-0",
      "language": "de",
      "route": "media",
      "navigationTitle": "Mediathek",
      "url": ""
    },
    {
      "id": "level-0",
      "language": "de",
      "route": "forschung",
      "navigationTitle": "Forschung",
      "url": "https://www.isd.uni-stuttgart.de/de/forschung/",
      "name": "Forschung",
      "subpages": null
    },
    {
      "id": "level-0",
      "language": "de",
      "route": "media",
      "navigationTitle": "Abschlussarbeiten",
      "url": ""
    }
  ]
}