[
  {
    "name": "Tim Ricken",
    "title": "Univ.-Prof. Dr.-Ing.",
    "image": "https://www.isd.uni-stuttgart.de/img/Ricken_245.jpg?__scale=w:220,h:220,cx:313,cy:157,cw:1174,ch:1174",
    "role": "Institutsleiter",
    "address": "Pfaffenwaldring 27",
    "room": "0.048",
    "floor": "0"
  },
  {
    "name": "Nicola Oster",
    "title": "M.A.",
    "image": "https://www.isd.uni-stuttgart.de/img/Nicola-Oster.JPG?__scale=w:220,h:220,cx:860,cy:235,cw:2325,ch:2325",
    "role": "Sekretariat",
    "address": "Pfaffenwaldring 27",
    "room": "0.047",
    "floor": "0"
  },
  {
    "name": "Seyed Morteza Seyedpour",
    "title": "Dr.-Ing.",
    "image": "https://www.isd.uni-stuttgart.de/img/Morteza.jpg?__scale=w:220,h:220,cx:281,cy:0,cw:1331,ch:1331",
    "role": "Laborleiter",
    "address": "Pfaffenwaldring 27",
    "room": "0.053",
    "floor": "0"
  },
  {
    "name": "Michael Mellinger",
    "title": "Dipl.-Ing. (FH), Dipl.-Ing. (TH)",
    "image": "https://www.isd.uni-stuttgart.de/img/Mellinger_101.jpg?__scale=w:220,h:220,cx:339,cy:0,cw:1331,ch:1331",
    "role": "Technischer Mitarbeiter",
    "address": "Pfaffenwaldring 27",
    "room": "0.053",
    "floor": "0"
  },
  {
    "name": "Firat Araz",
    "title": "M.Sc.",
    "image": "https://www.isd.uni-stuttgart.de/img/Firat-Araz.JPG?__scale=w:220,h:220,cx:565,cy:0,cw:2560,ch:2560",
    "role": "Wissenschaftlicher Mitarbeiter",
    "address": "Pfaffenwaldring 27",
    "room": "0.053",
    "floor": "0"
  },
  {
    "name": "Alaa Armiti-Juber",
    "title": "Dr. rer. nat.",
    "image": "https://www.isd.uni-stuttgart.de/img/Alaa-Armiti.jpg?__scale=w:220,h:220,cx:0,cy:0,cw:1023,ch:1023",
    "role": "Wissenschaftliche Mitarbeiterin",
    "address": "Pfaffenwaldring 27",
    "room": "0.045",
    "floor": "0"
  },
  {
    "name": "Mahmoud Ashour",
    "title": "M.Sc.",
    "image": "https://www.isd.uni-stuttgart.de/img/Mahmoud-Ashour.JPG?__scale=w:220,h:220,cx:0,cy:376,cw:2614,ch:2614",
    "role": "Wissenschaftlicher Mitarbeiter",
    "address": "Pfaffenwaldring 27",
    "room": "0.051",
    "floor": "0"
  },
  {
    "name": "Filiz Ates",
    "title": "Dr.",
    "image": "https://www.isd.uni-stuttgart.de/img/Ates_328.jpg?__scale=w:220,h:220,cx:461,cy:140,cw:1164,ch:1164",
    "role": "Leiterin Arbeitsgruppe Experimentelle Biomechanik",
    "address": "Pfaffenwaldring 27",
    "room": "0.043",
    "floor": "0"
  },
  {
    "name": "Maximilian Brodbeck",
    "image": "https://www.isd.uni-stuttgart.de/img/Brodbeck_113.jpg?__scale=w:220,h:220,cx:447,cy:45,cw:1103,ch:1103",
    "role": "Wissenschaftlicher Mitarbeiter",
    "address": "Pfaffenwaldring 27",
    "room": "0.050",
    "floor": "0"
  },
  {
    "name": "Paolo Carlo Danesini",
    "title": "M.Sc.",
    "image": "https://www.isd.uni-stuttgart.de/img/Paolo_Danesini.JPG?__scale=w:220,h:220,cx:585,cy:0,cw:2560,ch:2560",
    "role": "Wissenschaftlicher Mitarbeiter",
    "address": "Pfaffenwaldring 27",
    "room": "0.047",
    "floor": "0"
  },
  {
    "name": "Ioannis Doltsinis",
    "title": "PD Dr.-Ing.",
    "image": "https://www.isd.uni-stuttgart.de/img/IMG_6136.JPG?__scale=w:220,h:220,cx:0,cy:76,cw:1333,ch:1333",
    "role": "Dozent",
    "address": "Pfaffenwaldring 27",
    "room": "0.052",
    "floor": "0"
  },
  {
    "name": "Franziska Egli",
    "title": "M.Sc.",
    "image": "https://www.isd.uni-stuttgart.de/img/Egli_136.jpg?__scale=w:220,h:220,cx:485,cy:67,cw:1056,ch:1056",
    "role": "Wissenschaftliche Mitarbeiterin",
    "address": "Pfaffenwaldring 27",
    "room": "1.002",
    "floor": "1"
  },
  {
    "name": "Jürgen Ertelt",
    "title": "Dr.-Ing.",
    "image": "https://www.isd.uni-stuttgart.de/img/max_mustermann.jpg?__scale=w:220,h:220,cx:0,cy:24,cw:162,ch:162",
    "role": "Wissenschaftlicher Mitarbeiter",
    "address": "Pfaffenwaldring 27",
    "room": "0.043",
    "floor": "0"
  },
  {
    "name": "Steffen Gerhäusser",
    "image": "https://www.isd.uni-stuttgart.de/img/Gerhaeusser_094.jpg?__scale=w:220,h:220,cx:126,cy:421,cw:1825,ch:1825",
    "role": "Wissenschaftlicher Mitarbeiter",
    "address": "Pfaffenwaldring 27",
    "room": "1.001",
    "floor": "1"
  },
  {
    "name": "Cemre Su Kaya Keles",
    "title": "Dr.",
    "image": "https://www.isd.uni-stuttgart.de/img/CemreSu_KayaKeles.JPG?__scale=w:220,h:220,cx:0,cy:744,cw:2560,ch:2560",
    "role": "Forscherin",
    "address": "Pfaffenwaldring 27",
    "room": "0.044",
    "floor": "0"
  },
  {
    "name": "Karsten Keller",
    "title": "Dr.-Ing.",
    "image": "https://www.isd.uni-stuttgart.de/img/Keller_183.jpg?__scale=w:220,h:220,cx:0,cy:258,cw:2000,ch:2000",
    "role": "Wissenschaftler, Stellvertretender Institutsleiter",
    "address": "Pfaffenwaldring 27",
    "room": "0.054",
    "floor": "0"
  },
  {
    "name": "Lena Lambers",
    "title": "Dr.-Ing.",
    "image": "https://www.isd.uni-stuttgart.de/img/Lambers_199.jpg?__scale=w:220,h:220,cx:441,cy:47,cw:1063,ch:1063",
    "role": "Wissenschaftliche Mitarbeiterin",
    "address": "Pfaffenwaldring 27",
    "room": "1.002",
    "floor": "1"
  },
  {
    "name": "Luis Mandl",
    "title": "M.Sc.",
    "image": "https://www.isd.uni-stuttgart.de/img/Mandl.jpg?__scale=w:220,h:220,cx:546,cy:34,cw:990,ch:990",
    "role": "Wissenschaftlicher Mitarbeiter",
    "address": "Pfaffenwaldring 27",
    "room": "1.001",
    "floor": "1"
  },
  {
    "name": "André Mielke",
    "title": "Dipl.-Phys.",
    "image": "https://www.isd.uni-stuttgart.de/img/Mielke_013.jpg?__scale=w:220,h:220,cx:425,cy:118,cw:1005,ch:1005",
    "role": "Wissenschaftlicher Mitarbeiter",
    "address": "Pfaffenwaldring 27",
    "room": "1.002",
    "floor": "1"
  },
  {
    "name": "Manmit Padhy",
    "title": "M.Sc.",
    "image": "https://www.isd.uni-stuttgart.de/img/Padhy.JPG?__scale=w:220,h:220,cx:694,cy:0,cw:2560,ch:2560",
    "role": "Wissenschaftlicher Mitarbeiter",
    "address": "Pfaffenwaldring 27",
    "room": "0.045",
    "floor": "0"
  },
  {
    "name": "Raghav Pathak",
    "title": "M.Sc.",
    "image": "https://www.isd.uni-stuttgart.de/img/Raghav_Pathak.JPG?__scale=w:220,h:220,cx:289,cy:0,cw:2759,ch:2759",
    "role": "Wissenschaftlicher Mitarbeiter",
    "address": "Pfaffenwaldring 27",
    "room": "0.051",
    "floor": "0"
  },
  {
    "name": "Berta Pi Savall",
    "title": "M.Sc.",
    "image": "https://www.isd.uni-stuttgart.de/img/PiSavall_382.jpg?__scale=w:220,h:220,cx:0,cy:314,cw:2000,ch:2000",
    "role": "Wissenschaftliche Mitarbeiterin",
    "address": "Pfaffenwaldring 27",
    "room": "0.050",
    "floor": "0"
  },
  {
    "name": "Marlon Suditsch",
    "title": "M.Sc.",
    "image": "https://www.isd.uni-stuttgart.de/img/Suditsch.jpg?__scale=w:220,h:220,cx:164,cy:577,cw:1833,ch:1833",
    "role": "Wissenschaftlicher Mitarbeiter",
    "address": "Pfaffenwaldring 27",
    "room": "0.052",
    "floor": "0"
  },
  {
    "name": "Andrea Thom",
    "title": "Dr.-Ing.",
    "image": "https://www.isd.uni-stuttgart.de/img/Thom_273.jpg?__scale=w:220,h:220,cx:161,cy:247,cw:1498,ch:1498",
    "role": "Wissenschaftliche Mitarbeiterin",
    "address": "Pfaffenwaldring 27",
    "room": "0.045",
    "floor": "0"
  },
  {
    "name": "Zubin  Trivedi",
    "image": "https://www.isd.uni-stuttgart.de/img/Zubin_Trivedi.jpg?__scale=w:220,h:220,cx:0,cy:0,cw:3402,ch:3402",
    "role": "Wissenschaftlicher Mitarbeiter",
    "address": "Pfaffenwaldring 27",
    "room": "0.051",
    "floor": "0"
  },
  {
    "name": "Navina Waschinsky",
    "title": "Dr.-Ing.",
    "image": "https://www.isd.uni-stuttgart.de/img/Waschinsky_Self.jpeg?__scale=w:220,h:220,cx:118,cy:0,cw:1426,ch:1426",
    "role": "Wissenschaftliche Mitarbeiterin",
    "address": "Pfaffenwaldring 27",
    "room": "0.045",
    "floor": "0"
  },
  {
    "name": "Manuela Zimmer",
    "title": "M.Sc.",
    "image": "https://www.isd.uni-stuttgart.de/img/Zimmer_151.jpg?__scale=w:220,h:220,cx:496,cy:43,cw:1020,ch:1020",
    "role": "Wissenschaftliche Mitarbeiterin",
    "address": "Pfaffenwaldring 27",
    "room": "1.001",
    "floor": "1"
  },
  {
    "name": "Andrea Kurz",
    "title": "Frau",
    "image": "https://www.isd.uni-stuttgart.de/img/Berghammer.jpg?__scale=w:220,h:220,cx:254,cy:0,cw:1331,ch:1331",
    "role": "Technische Mitarbeiterin",
    "address": "Pfaffenwaldring 27",
    "room": "0.054",
    "floor": "0"
  },
  {
    "name": "Christian Lamparter",
    "title": "Herr",
    "image": "https://www.isd.uni-stuttgart.de/img/Lamparter.jpg?__scale=w:220,h:220,cx:521,cy:178,cw:1123,ch:1123",
    "role": "Technischer Mitarbeiter",
    "address": "Pfaffenwaldring 27",
    "room": "0.044",
    "floor": "0"
  },
  {
    "name": "Harald Schmelzer",
    "image": "https://www.isd.uni-stuttgart.de/img/Schmelzer_347.jpg?__scale=w:220,h:220,cx:0,cy:146,cw:2000,ch:2000",
    "role": "Technischer Mitarbeiter",
    "address": "Pfaffenwaldring 27A",
    "room": "0.047",
    "floor": "0"
  }
]