{
  "newsItems": [
    {
      "headline": "Tag der Wissenschaft",
      "subtitle": "Tag der Wissenschaft 2023 am Institut für Luftfahrtsysteme",
      "date": "2023-05-12T22:00:00.000Z",
      "content": "\n\t\t\t\t\t\t\t\t\t\t<div>\n\t\t\t\t\t\t\t\t\t\t\t\t</div>\n\t\t\t\t\t\t\t\t\t\t<div class=\"image \">\n\t\t\t\t\t\t\t\t\t\t\t\t<div class=\"overflow-hidden\">\n\t\t\t\t\t\t\t\t\t\t\t\t\t<a data-fancybox=\"flexblockfotos\" href=\"https://www.ils.uni-stuttgart.de/img/news/TdW/quadoino_2.jpg?__scale=w:1000,h:1000,q:100,t:3\" aria-label=\"JPEG\" data-caption=\"<br />\">\n\t\t\t\t\t\t\t\t\t\t\t\t\t\t<img src=\"https://www.ils.uni-stuttgart.de/img/news/TdW/quadoino_2.jpg?__scale=w:720,h:540,c:transparent\" width=\"720\" height=\"540\" alt=\"\" class=\"img-responsive\"></a>\n\t\t\t\t\t\t\t\t\t\t\t\t\t</div>\n\t\t\t\t\t\t\t\t\t\t\t</div>\n\t\t\t\t\t\t\t\t\t\t"
    },
    {
      "headline": "AIAA 2022 Science and Technology Forum and Exposition",
      "subtitle": "Software Best Paper Award auf der AIAA SciTech 2022 für Christian Block",
      "date": "2022-12-18T23:00:00.000Z",
      "image": "https://www.ils.uni-stuttgart.de/img/scitech_forum_white_500.png?__scale=w:220,h:220,cx:14,cy:0,cw:150,ch:150",
      "content": "\n\t\t\t\t\t\t\t\t\t\t<div>\n\t\t\t\t\t\t\t\t\t\t\t\t<p>In diesem Jahr fand die AIAA 2022 Science and Technology Forum and Exposition (AIAA SciTech 2022), 03.-07.01.2022, in San Diego und Online statt. Das Institut für Luftfahrtsysteme wurde online von Christian Block repräsentiert.</p>\n<p>Sein Paper \"Automated Test Case Generation for the Verification of System and High-Level Software Requirements for Fly-by-Wire Platforms\" mit den Co-Autoren Serkan Dikmen und Reinhard Reichel wurde mit dem Software Best Paper Award ausgezeichnet.</p>\n<p>Wir gratulieren den Ausgezeichneten herzlich.</p>\n<p>Wir danken den Veranstaltern für die gelungene Konferenz.</p></div>\n\t\t\t\t\t\t\t\t\t\t<p><a class=\"btn btn-default linkbutton __btn __btn-u __u-small\" href=\"https://www.aiaa.org/SciTech\">AIAA SciTech 2022</a></p>\n\t\t\t\t\t\t\t\t\t\t\t"
    },
    {
      "headline": "Ankündigung des LRT-Kolloquium mit Prof. Dr.-Ing. Andreas Huber",
      "subtitle": "Antrittsvorlesung von Prof. Dr.-Ing. Andreas Huber / Institut für Verbrennungstechnik der Luft- und Raumfahrt (IVLR)",
      "date": "2022-10-18T22:00:00.000Z",
      "content": "\n\t\t\t\t\t\t\t\t\t\t<div>\n\t\t\t\t\t\t\t\t\t\t\t\t<p>Der tiefgreifende Umbau des Energiesystems, aber auch der Umbruch in der Mobilität erfordern große Anstrengungen in der Umrüstung und Neuentwicklung von Flugtriebwerken, Gasturbinen und Gasturbinenbrennersystemen.</p>\n<p>In der Mobilität werden Fluggasturbinen aufgrund ihrer hohen Leistungsdichte und Lastflexibilität auch zukünftig eine entscheidende Rolle spielen. Dies gilt insbesondere für den Bereich der Mittel- und Langstrecke, der derzeit mit Abstand für den größten Einfluss auf das Klima in der Luftfahrt verantwortlich ist.</p>\n<p>Gasturbinen zur stationären Energie- und Wärmeerzeugung sind in einem von erneuerbarem Strom dominierten zukünftigen Stromsystem aufgrund ihrer Flexibilität zur Sicherstellung der Stromerzeugung systemrelevant.</p>\n<p>Allerdings werden diese in der Energieversorgung langfristig verstärkt als Back-up und Spitzenlast-Kraftwerke eingesetzt. Um eine nachhaltige und zuverlässige Energieversorgung und Luftfahrt zu erreichen, müssen die Gasturbinen unter anderem für den Einsatz von erneuerbaren Kraftstoffen ausgelegt sowie neue hoch-effiziente Antriebs- und Kraftwerkskonzepte entwickelt werden.</p>\n<p>In dem Vortrag werden die Herausforderungen an die Gasturbinenbrennersysteme insbesondere im Hinblick auf den Einsatz von Wasserstoff und synthetischen flüssigen Kraftstoffen beleuchtet und technische Lösungsansätze präsentiert. Bei den erneuerbaren Kraftstoffen richtet sich der Fokus auf die Analyse und Bewertung von potentiellen Kraftstoffkandidaten und deren Verbrennungsverhalten und Emissionen. Langfristiges Ziel ist hierbei den optimalen Kraftstoff für die jeweilige Anwendung zu entwickeln, wobei auch der Herstellungsprozess und die Aufbereitung zukünftig ein wichtiges Forschungsthema darstellt. Der letzte Schwerpunkt des Vortrags stellt die Entwicklung von hocheffizienten Antriebs- und Kraftwerkssystemen dar. Aufgezeigt werden innovative Konzepte wie das „Water-Enhanced Turbofan“-Konzept für die Luftfahrt sowie Kopplungen von dezentralen Gasturbinenkraftwerken mit alternativen Technologien für die Energieumwandlung.</p>\n<p>&nbsp;</p>\n<p style=\"margin-bottom: 0.28cm; line-height: 108%;\">Vorgetragen von Prof. Dr.-Ing. Andreas Huber vom Institut für Verbrennungstechnik der Luft- und Raumfahrt,</p>\n<p style=\"margin-bottom: 0.28cm; line-height: 108%;\">Universität Stuttgart am Donnerstag, 19.10.2022, 17.30 Uhr V27.01, Pfaffenwaldring 27.</p></div>\n\t\t\t\t\t\t\t\t\t\t<p><a class=\"btn btn-default linkbutton __btn __btn-u __u-small\" href=\"https://www.f06.uni-stuttgart.de/fakultaet/aktuelles/veranstaltung/LRG-Kolloquium-Verbrennungsforschung-fuer-eine-nachhaltige-Luftfahrt-und-Energieversorgung-Antrittsvorlesung-Huber/\">Weitere Informationen</a></p>\n\t\t\t\t\t\t\t\t\t\t\t"
    },
    {
      "headline": "Plug&Fly-Artikel in forschung leben",
      "subtitle": "",
      "date": "2022-10-16T22:00:00.000Z",
      "image": "https://www.ils.uni-stuttgart.de/img/research/DSC01542.JPG?__scale=w:220,h:220,cx:250,cy:0,cw:1000,ch:1000",
      "content": "\n\t\t\t\t\t\t\t\t\t\t<div>\n\t\t\t\t\t\t\t\t\t\t\t\t<p style=\"font-weight: 400;\">In der hauseignen Zeitschrift der Universität Stuttgart, <a href=\"https://www.uni-stuttgart.de/forschung/forschung-leben/\" target=\"_blank\" rel=\"noopener\">„forschung leben“</a>, ist eine zusammenfassender Artikel über unser Forschungsaktivitäten im Bereich selbst-adaptiver Avionikplattformen und unsere Arbeiten im Projekt <a href=\"https://www.ils.uni-stuttgart.de/forschung/projekte/pafa-one/\">PAFA-ONE</a> erschienen.</p>\n<p style=\"font-weight: 400;\"><a href=\"https://www.ils.uni-stuttgart.de/dokumente/forschung-leben-2-2022_plug_and_fly_p64.pdf\" aria-label=\"PDF\" target=\"_blank\" rel=\"noopener\">PAFA-Artikel</a></p>\n<p style=\"font-weight: 400;\"><a href=\"https://www.uni-stuttgart.de/forschung/forschung-leben/\" target=\"_blank\" rel=\"noopener\">Forschung Leben: Komplette Ausgabe</a></p></div>\n\t\t\t\t\t\t\t\t\t\t<div class=\"image \">\n\t\t\t\t\t\t\t\t\t\t\t\t<div class=\"overflow-hidden\">\n\t\t\t\t\t\t\t\t\t\t\t\t\t<a data-fancybox=\"flexblockfotos\" href=\"https://www.ils.uni-stuttgart.de/img/research/pafa-one.jpg?__scale=w:1000,h:1000,q:100,t:3\" aria-label=\"JPEG\" data-caption=\"<br />\">\n\t\t\t\t\t\t\t\t\t\t\t\t\t\t<img src=\"https://www.ils.uni-stuttgart.de/img/research/pafa-one.jpg?__scale=w:720,h:480,c:transparent\" width=\"720\" height=\"480\" alt=\"\" class=\"img-responsive\"></a>\n\t\t\t\t\t\t\t\t\t\t\t\t\t</div>\n\t\t\t\t\t\t\t\t\t\t\t</div>\n\t\t\t\t\t\t\t\t\t\t<p><a class=\"btn btn-default linkbutton __btn __btn-u __u-small\" href=\"https://www.uni-stuttgart.de/forschung/forschung-leben/\">Komplette Ausgabe</a></p>\n\t\t\t\t\t\t\t\t\t\t\t"
    },
    {
      "headline": "Call for Papers AvioSE 2023",
      "subtitle": "5th Workshop on Avionics Systems and Software Engineering (AvioSE) takes place on Feb 21 2023 in Paderborn, Germany",
      "date": "2022-09-27T22:00:00.000Z",
      "image": "https://www.ils.uni-stuttgart.de/img/institute/committees/AvioSELogo.png?__scale=w:220,h:220,cx:0,cy:0,cw:600,ch:600",
      "content": "\n\t\t\t\t\t\t\t\t\t\t<div>\n\t\t\t\t\t\t\t\t\t\t\t\t<p>Dear Avionics Community,</p>\n<p>We are happy to announce that the 5th Workshop on Avionics Systems and Software Engineering (AvioSE) takes place on Feb 21 2023 in Paderborn, Germany.</p>\n<p>Here are the key facts:</p>\n<ul>\n<li>An one day scientific and industrial exchange event</li>\n<li>Accepting short and regular papers</li>\n<li>Invited key notes from industry and academia (to be announced later)</li>\n<li>Panel with invited speakers on hot topic (to be announced later)</li>\n<li>Workshop language is English</li>\n<li>Publication in https://dl.gi.de/ (with DOI)</li>\n</ul>\n<p><br>We would very much appreciate your attendance and contribution!</p>\n<p>Please find the Call for Papers and further information on: <a href=\"https://aviose-workshop.github.io/\" target=\"_blank\" rel=\"noopener\">https://aviose-workshop.github.io/</a></p>\n<p>Please feel free to forward this announcement.</p>\n<p>Best Regards,</p>\n<p>Your AvioSE’23 Chairs: Björn Annighöfer, Andreas Schweiger &amp; Stéphane Poulain</p>\n<p>&nbsp;</p></div>\n\t\t\t\t\t\t\t\t\t\t<p><a class=\"btn btn-default linkbutton __btn __btn-u __u-small\" href=\"https://aviose-workshop.github.io/\">AvioSE Workshop</a></p>\n\t\t\t\t\t\t\t\t\t\t\t"
    },
    {
      "headline": "Digital Avionics Systems Conference 2022",
      "subtitle": "Das Institut für Luftfahrtsysteme war auch auf der diesjährigen Digital Avionics Systems Conference zahlreich vertreten",
      "date": "2022-09-27T22:00:00.000Z",
      "image": "https://www.ils.uni-stuttgart.de/img/institute/ILS_at_DASC.jpeg?__scale=w:220,h:220,cx:247,cy:0,cw:1506,ch:1506",
      "content": "\n\t\t\t\t\t\t\t\t\t\t<div>\n\t\t\t\t\t\t\t\t\t\t\t\t<p>In diesem Jahr fand die <a href=\"https://2022.dasconline.org/\" target=\"_blank\" rel=\"noopener\">Digital Avionics Systems Conference</a> in Portsmouth / Virginia statt. Das Institut für Luftfahrtsysteme wurde vor Ort von Björn Annighöfer und seinen Doktoranden Matthias Brunner, Bastian Lüttig, Christoph Regli und Mario Werthwein repräsentiert.</p>\n<p>Das ILS war in den folgenden Beiträgen vertreten:</p>\n<ul>\n<li>ADIMA: Automatic Configuration by Peripheral Detection and Adaptive Distributed Task Execution for Integrated Modular Avionics Platforms (Bastian Luettig, Jona Dallmann, Bjoern Annighoefer), BoS</li>\n<li>Towards Certification of Adaptive Flight Automation Systems: A Performance-Based Approach to Establish Trust (Christoph Regli, Bjoern Annighoefer), BoS, BoT, 3rd BoC</li>\n<li>Using Electronic Data Sheets for an Automatic Detection of Peripheral Devices in a Smart Wing’s Digital Infrastructure (Mario Werthwein, Darbaz Darwesh, Bjoern Annighoefer), BoS</li>\n<li>From User Stories to an Optimal Digital Work Environment for IMA System Development (Bjoern Annighoefer, Julian Schoepf, Andreas Waldvogel)</li>\n<li>Domain-Specific Drivers and Limits for Avionics Architectures – A Critical Review in the Context of the Avionics Application Domains (Bjoern Annighoefer, Andreas Schweiger, Marina Reich, Matthieu Merckling, Stéphane Poulain, Christoph Diesch), BoS</li>\n<li>Hardware-Independent Self-Discovery of Peripherals and Modules of a Self-Adaptive Avionics Platform (Matthias Brunner, Johannes Reinhart, Bernd Schulz, Erik Preissing, Stefan Moennikes, Bjoern Annighoefer)</li>\n</ul>\n<p>Mit dem \"Best of Session\" (BoS) Award wurden jeweils die Paper von Björn Annighöfer, Bastian Lüttig, Christoph Regli und Mario Werthwein ausgezeichnet.<br>Das Paper von Christoph Regli wurde sogar mit \"Best of Session\", \"Best of Track\" (BoT) und 3rd \"Best of Conference\" (BoC) ausgezeichnet.</p>\n<p>Wir gratulieren den Ausgezeichneten herzlich.</p>\n<p>Wir danken den Veranstaltern für die gelungene Konferenz und freuen uns auf die DASC 2023 in Barcelona!</p></div>\n\t\t\t\t\t\t\t\t\t\t<p><a class=\"btn btn-default linkbutton __btn __btn-u __u-small\" href=\"https://2022.dasconline.org/\">Digital Avionics Systems Conference 2022</a></p>\n\t\t\t\t\t\t\t\t\t\t\t"
    },
    {
      "headline": "Kolloqium: Intelligent Aerial Robots / Antrittsvorlesung von Herrn Jun.-Prof. Dr.-Ing. Aamir Ahmad",
      "subtitle": "Antrittsvorlesung von Herrn Jun.-Prof. Dr.-Ing. Aamir Ahmad",
      "date": "2022-07-12T22:00:00.000Z",
      "content": "\n\t\t\t\t\t\t\t\t\t\t<div>\n\t\t\t\t\t\t\t\t\t\t\t\t<p>Am Mittwoch, den 13.07.2022 findet um 17.30 Uhr die Antrittsvorlesung von Herrn Jun.-Prof. Dr.-Ing. Aamir Ahmad im V27.02 statt.</p>\n<p>Näheres finden Sie in der PDF-Ankündigung. Die Veranstaltung findet hybrid statt, nähere Informationen zur WebEx finden Sie auf der <a href=\"https://www.f06.uni-stuttgart.de/fakultaet/aktuelles/veranstaltung/LRG-Kolloquium-Intelligent-Aerial-Robots-Antrittsvorlesung-Ahmad/\" target=\"_blank\" rel=\"noopener\">Fakultätsseite</a>.</p></div>\n\t\t\t\t\t\t\t\t\t\t<p><a class=\"btn btn-default linkbutton __btn __btn-u __u-small\" href=\"https://www.ils.uni-stuttgart.de/dokumente/2022-06-LRG_Kolloquium_Ahmad.pdf\" aria-label=\"PDF\">Ankündigung als PDF</a></p>\n\t\t\t\t\t\t\t\t\t\t\t"
    },
    {
      "headline": "Call for Papers AvioSE 2022",
      "subtitle": "",
      "date": "2021-11-08T23:00:00.000Z",
      "image": "https://www.ils.uni-stuttgart.de/img/institute/committees/AvioSELogo.png?__scale=w:220,h:220,cx:0,cy:0,cw:600,ch:600",
      "content": "\n\t\t\t\t\t\t\t\t\t\t<div>\n\t\t\t\t\t\t\t\t\t\t\t\t<p>Dear Avionics Believer,</p>\n<p>We would like to invite you to the fourth instance of the AvioSE Workshop (Avionics Systems and Software Engineering), Feb 22, 2022. Please consider the <a href=\"https://aviose-workshop.github.io/AVIOSE2022-CfP.pdf\" aria-label=\"PDF\" target=\"_blank\" rel=\"noopener\">Call for Papers</a>. We would very much appreciate your attendance.&nbsp;</p>\n<p>AvioSE'22 is completely digital. It is a one-day event with technical presentation, keynotes and interactive expert sessions. All are attended by members of academia and industry. Please find further information as well as the registration link on our website: <a href=\"https://aviose-workshop.github.io/\" target=\"_blank\" rel=\"noopener\">https://aviose-workshop.github.io/</a></p>\n<p>The AvioSE'22 is embedded in the SE22 conference, which is from Feb 21 to 25, 2022, which can be attended in addition:</p>\n<p><a href=\"https://www.se-2022.de/\" target=\"_blank\" rel=\"noopener\">https://www.se-2022.de/</a></p></div>\n\t\t\t\t\t\t\t\t\t\t"
    },
    {
      "headline": "Preis der Freunde für Benedikt Schwämmle",
      "subtitle": "Auszeichnung für die herausragende Abschlussarbeit von Benedikt Schwämmle.",
      "date": "2021-11-04T23:00:00.000Z",
      "content": "\n\t\t\t\t\t\t\t\t\t\t<div>\n\t\t\t\t\t\t\t\t\t\t\t\t<p>Am 05.11.2021 wurde die ILS-Abschlussarbeit von Benedikt Schwämmle prämiert:</p>\n<ul>\n<li>im August 2021 erhielt er die Auszeichnung zur „Besten Bachelor-Arbeit“ der Freunde der Luft- und Raumfahrttechnik der Universität Stuttgart e.V.</li>\n</ul>\n<p>Das Thema seiner Arbeit lautete: Automatische Erkennung von Peripherie anhand elektrischer Merkmale im IMA-Kontext. Dabei hat er Elektromotoren und LEDs mit Hilfe ihrer Spannungskennlinie auf IMA Geräten erkannt. Er hat mit seiner Bachelorarbeit einen wesentlichen Beitrag zum Forschungsprojekt <a href=\"https://www.ils.uni-stuttgart.de/forschung/projekte/talia/\">TALIA</a> geleistet.</p>\n<p>Herzlichen Glückwunsch an den Preisträger!</p></div>\n\t\t\t\t\t\t\t\t\t\t"
    },
    {
      "headline": "Call for Papers AvioSE 2021",
      "subtitle": "",
      "date": "2020-10-12T22:00:00.000Z",
      "image": "https://www.ils.uni-stuttgart.de/img/institute/committees/AvioSELogo.png?__scale=w:220,h:220,cx:0,cy:0,cw:600,ch:600",
      "content": "\n\t\t\t\t\t\t\t\t\t\t<div>\n\t\t\t\t\t\t\t\t\t\t\t\t<p>Dear Avionics Believer,</p>\n<p>We would like to invite you to the third instance of the AvioSE Workshop (Avionics Systems and Software Engineering), Feb 23, 2021. Please consider the <a href=\"https://aviose-workshop.github.io/AVIOSE2021-CfP.pdf\" aria-label=\"PDF\" target=\"_blank\" rel=\"noopener\">Call for Papers</a>. We would very much appreciate your attendance.&nbsp;</p>\n<p>AvioSE'21 is completely digital. It is a one-day event with technical presentation, keynotes and interactive expert sessions. All are attended by members of academia and industry. Please find further information as well as the registration link on our website: <a href=\"https://aviose-workshop.github.io/\" target=\"_blank\" rel=\"noopener\">https://aviose-workshop.github.io/</a></p>\n<p>The AvioSE'21 is embedded in the SE21 conference, which is from Feb 22 to 26, 2021, which can be attended in addition:</p>\n<p><a href=\"https://se-2021.tu-bs.de/\" target=\"_blank\" rel=\"noopener\">https://se-2021.tu-bs.de/</a></p></div>\n\t\t\t\t\t\t\t\t\t\t"
    }
  ]
}