<?xml version="1.0" encoding="utf-8"?>
<svg viewBox="0 0 640 840" xmlns="http://www.w3.org/2000/svg">
  <g id="Grundriss_UG" data-name="Grundriss UG" style="" transform="matrix(1.062895, 0, 0, 1.062895, 20.104177, -125.265167)">
    <path id="Toilette_Damen" data-name="Toilette Damen" d="M266.8,783.7h65.6v-59h-65.6v59Zm31.5-15.3c0,.5-.4,1-1,1h0c-.5,0-1-.4-1-1v-6.8h0v-.9c0-.2-.2-.4-.4-.4h0s-2.1,0-2.1,0c-.3,0-.5,0-.7-.1h0s0,0,0,0c0,0,0,0,0,0-1.1-.5-1.7-1.7-1.3-2.9l2.6-6.6c.6-1.5,1.2-3.1,1.6-4.1,.2-.5,.8-.8,1.3-.6h0c.5,.2,.8,.8,.6,1.3l-4,10-.3,.7c0,.1,0,.3,0,.4,0,0,0,0,0,0,0,0,0,0,0,0,0,0,0,0,.1,0h2c1.3,0,2.4,1,2.4,2.3v7.8Zm.5-23.7c-.3,0-.6,0-.9-.2-.3-.1-.5-.3-.7-.5-.2-.2-.4-.4-.5-.7-.1-.3-.2-.5-.2-.8v-2.6c0-.3,0-.6,.2-.8,.1-.2,.2-.4,.4-.6h0s0,0,0,0c0,0,0,0,0,0h0c.2-.2,.4-.3,.7-.4,.3-.1,.6-.2,.9-.2s.6,0,.9,.2c.2,.1,.5,.2,.7,.4h0s0,0,0,0h0s0,0,0,0h0c.2,.2,.3,.4,.4,.6,.1,.3,.2,.5,.2,.8v2.6c0,.3,0,.6-.2,.8-.1,.3-.3,.5-.5,.7-.2,.2-.4,.3-.7,.5-.3,.1-.6,.2-.9,.2h0Zm5.7,15.4s0,0,0,0c0,0,0,0,0,0h0c-.2,0-.4,.1-.7,.1h-2.1c-.2,0-.4,.2-.4,.4v.9h0v6.8c0,.5-.4,1-1,1s-1-.4-1-1v-7.8c0-1.3,1.1-2.3,2.4-2.3h0s2,0,2,0c0,0,0,0,.1,0,0,0,0,0,0,0,0,0,0,0,0,0,.1,0,.1-.3,0-.4l-.3-.7-4-10c-.2-.5,0-1.1,.6-1.3h0c.5-.2,1.1,0,1.3,.6,.4,1,1,2.6,1.6,4.1l2.6,6.6c.4,1.1-.1,2.4-1.3,2.9Z" style="fill: rgb(255, 255, 255); stroke: rgb(255, 255, 255);"/>
    <path id="Toilette_Damen-2" data-name="Toilette Damen" d="M60.2,213h76.8v-36.1H60.2v36.1Zm37.8-2.7c0,.5-.4,1-1,1h0c-.5,0-1-.4-1-1v-7.1s0,0,0,0v-1c0-.2-.2-.4-.4-.4h0s-2,0-2,0c-.3,0-.5,0-.7-.1h0s0,0,0,0c0,0,0,0,0,0-1.1-.5-1.7-1.8-1.3-3l2.5-6.9c.5-1.5,1.2-3.2,1.5-4.2,.2-.5,.8-.8,1.3-.6h0c.5,.2,.8,.8,.6,1.4l-3.9,10.3-.3,.7c0,.2,0,.4,0,.4,0,0,0,0,0,0,0,0,0,0,0,0,0,0,0,0,.1,0h2c1.3,0,2.3,1.1,2.3,2.4v8.1Zm.4-24.5c-.3,0-.6,0-.9-.2-.3-.1-.5-.3-.7-.5-.2-.2-.4-.4-.5-.7-.1-.3-.2-.6-.2-.9v-2.7c0-.3,0-.6,.2-.9,.1-.2,.2-.5,.4-.6h0s0,0,0,0c0,0,0,0,0,0h0c.2-.2,.4-.3,.6-.5,.3-.1,.6-.2,.9-.2s.6,0,.9,.2c.2,.1,.5,.3,.6,.4h0s0,0,0,0h0s0,0,0,0h0c.2,.2,.3,.4,.4,.7,.1,.3,.2,.6,.2,.9v2.7c0,.3,0,.6-.2,.9-.1,.3-.3,.5-.5,.7-.2,.2-.4,.4-.7,.5-.3,.1-.6,.2-.9,.2h0Zm5.6,16s0,0,0,0c0,0,0,0,0,0h0c-.2,0-.4,.1-.7,.1h-2c-.2,0-.4,.2-.4,.4v1h0s0,7.1,0,7.1c0,.5-.4,1-1,1s-1-.4-1-1v-8c0-1.3,1-2.4,2.3-2.4h0s2,0,2,0c0,0,0,0,.1,0,0,0,0,0,0,0,0,0,0,0,0,0,.1,0,.1-.3,0-.4l-.3-.7-3.9-10.3c-.2-.5,0-1.2,.6-1.4h0c.5-.2,1.1,0,1.3,.6,.4,1,1,2.7,1.5,4.2l2.5,6.9c.4,1.2-.1,2.5-1.3,3Z" style="fill: rgb(255, 255, 255); stroke: rgb(255, 255, 255);"/>
    <polyline points="169.8 479.8 169.8 508.9 298.7 508.9" style="fill: none; stroke-miterlimit: 10; stroke-width: 2.8px; stroke: rgb(255, 255, 255);"/>
    <line x1="198.5" y1="722.1" x2="167.7" y2="722.1" style="fill: none; stroke-miterlimit: 10; stroke-width: 2.8px; stroke: rgb(255, 255, 255);"/>
    <line x1="198.5" y1="720.1" x2="169.8" y2="720.1" style="fill: none; stroke-miterlimit: 10; stroke-width: 2.8px; stroke: rgb(255, 255, 255);"/>
    <line x1="242.1" y1="722.1" x2="198.5" y2="722.1" style="fill: none; stroke-miterlimit: 10; stroke-width: 2.8px; stroke: rgb(255, 255, 255);"/>
    <line x1="242.1" y1="720.1" x2="198.5" y2="720.1" style="fill: none; stroke-miterlimit: 10; stroke-width: 2.8px; stroke: rgb(255, 255, 255);"/>
    <line x1="327" y1="720.1" x2="242.1" y2="720.1" style="fill: none; stroke-miterlimit: 10; stroke-width: 2.8px; stroke: rgb(255, 255, 255);"/>
    <line x1="327" y1="722.1" x2="242.1" y2="722.1" style="fill: none; stroke-miterlimit: 10; stroke-width: 2.8px; stroke: rgb(255, 255, 255);"/>
    <line x1="335.2" y1="722.1" x2="325.7" y2="722.1" style="fill: none; stroke-miterlimit: 10; stroke-width: 2.8px; stroke: rgb(255, 255, 255);"/>
    <line x1="337.2" y1="720.1" x2="325.7" y2="720.1" style="fill: none; stroke-miterlimit: 10; stroke-width: 2.8px; stroke: rgb(255, 255, 255);"/>
    <polyline points="390.9 714.5 391.2 795.1 420.6 795.1" style="fill: none; stroke-miterlimit: 10; stroke-width: 2.7px; stroke: rgb(255, 255, 255);"/>
    <line x1="393" y1="341.1" x2="393" y2="410.3" style="fill: none; stroke-miterlimit: 10; stroke-width: 2.8px; stroke: rgb(255, 255, 255);"/>
    <line x1="393" y1="302.7" x2="393" y2="341.1" style="fill: none; stroke-miterlimit: 10; stroke-width: 2.8px; stroke: rgb(255, 255, 255);"/>
    <line x1="393" y1="274" x2="393" y2="305" style="fill: none; stroke-miterlimit: 10; stroke-width: 2.8px; stroke: rgb(255, 255, 255);"/>
    <line x1="346.6" y1="834.1" x2="333" y2="834.1" style="fill: none; stroke-miterlimit: 10; stroke-width: 3.1px; stroke: rgb(255, 255, 255);"/>
    <line x1="346.6" y1="836.1" x2="333.8" y2="836.1" style="fill: none; stroke-miterlimit: 10; stroke-width: 3px; stroke: rgb(255, 255, 255);"/>
    <polyline points="393.3 894 393.3 904.2 381.7 904.2" style="fill: none; stroke-miterlimit: 10; stroke-width: 2.7px; stroke: rgb(255, 255, 255);"/>
    <polyline points="395.3 894 395.3 906 381.7 906" style="fill: none; stroke-miterlimit: 10; stroke-width: 2.7px; stroke: rgb(255, 255, 255);"/>
    <polyline points="346.5 903.8 335 903.8 335 890.9" style="fill: none; stroke-miterlimit: 10; stroke-width: 2.8px; stroke: rgb(255, 255, 255);"/>
    <polyline points="346.5 905.8 333 905.8 333 890.9" style="fill: none; stroke-miterlimit: 10; stroke-width: 2.8px; stroke: rgb(255, 255, 255);"/>
    <line x1="346.6" y1="563.7" x2="337.2" y2="563.7" style="fill: none; stroke-miterlimit: 10; stroke-width: 2.8px; stroke: rgb(255, 255, 255);"/>
    <line x1="346.6" y1="565.8" x2="335.2" y2="565.8" style="fill: none; stroke-miterlimit: 10; stroke-width: 2.8px; stroke: rgb(255, 255, 255);"/>
    <line x1="390.9" y1="563.7" x2="381.7" y2="563.7" style="fill: none; stroke-miterlimit: 10; stroke-width: 2.8px; stroke: rgb(255, 255, 255);"/>
    <line x1="393" y1="565.8" x2="381.7" y2="565.8" style="fill: none; stroke-miterlimit: 10; stroke-width: 2.8px; stroke: rgb(255, 255, 255);"/>
    <line x1="337.4" y1="616.2" x2="337.4" y2="703.3" style="fill: none; stroke-miterlimit: 10; stroke-width: 2.8px; stroke: rgb(255, 255, 255);"/>
    <line x1="337.4" y1="508.9" x2="337.4" y2="590.3" style="fill: none; stroke-miterlimit: 10; stroke-width: 2.8px; stroke: rgb(255, 255, 255);"/>
    <line x1="167.7" y1="599.5" x2="167.7" y2="508.9" style="fill: none; stroke-miterlimit: 10; stroke-width: 2.8px; stroke: rgb(255, 255, 255);"/>
    <line x1="167.7" y1="703.3" x2="167.7" y2="614.4" style="fill: none; stroke-miterlimit: 10; stroke-width: 2.8px; stroke: rgb(255, 255, 255);"/>
    <line x1="346.6" y1="208.7" x2="331.4" y2="208.7" style="fill: none; stroke-miterlimit: 10; stroke-width: 2.8px; stroke: rgb(255, 255, 255);"/>
    <line x1="390.9" y1="208.7" x2="381.7" y2="208.7" style="fill: none; stroke-miterlimit: 10; stroke-width: 1.8px; stroke: rgb(255, 255, 255);"/>
    <line x1="390.9" y1="652.9" x2="390.9" y2="668.2" style="fill: none; stroke-miterlimit: 10; stroke-width: 2.8px; stroke: rgb(255, 255, 255);"/>
    <line x1="390.9" y1="550.2" x2="390.9" y2="637.3" style="fill: none; stroke-miterlimit: 10; stroke-width: 2.8px; stroke: rgb(255, 255, 255);"/>
    <line x1="321.1" y1="246.2" x2="321.1" y2="235.3" style="fill: none; stroke-miterlimit: 10; stroke-width: 2.8px; stroke: rgb(255, 255, 255);"/>
    <line x1="323.2" y1="244.2" x2="323.2" y2="235.3" style="fill: none; stroke-miterlimit: 10; stroke-width: 2.8px; stroke: rgb(255, 255, 255);"/>
    <line x1="321.1" y1="217.3" x2="321.1" y2="206.7" style="fill: none; stroke-miterlimit: 10; stroke-width: 2.8px; stroke: rgb(255, 255, 255);"/>
    <line x1="323.2" y1="217.3" x2="323.2" y2="208.7" style="fill: none; stroke-miterlimit: 10; stroke-width: 2.8px; stroke: rgb(255, 255, 255);"/>
    <line x1="184.5" y1="246.2" x2="184.5" y2="235.3" style="fill: none; stroke-miterlimit: 10; stroke-width: 2.8px; stroke: rgb(255, 255, 255);"/>
    <line x1="182.5" y1="244.2" x2="182.5" y2="235.3" style="fill: none; stroke-miterlimit: 10; stroke-width: 2.8px; stroke: rgb(255, 255, 255);"/>
    <line x1="184.5" y1="217.3" x2="184.5" y2="206.7" style="fill: none; stroke-miterlimit: 10; stroke-width: 2.8px; stroke: rgb(255, 255, 255);"/>
    <line x1="182.5" y1="217.3" x2="182.5" y2="208.7" style="fill: none; stroke-miterlimit: 10; stroke-width: 2.8px; stroke: rgb(255, 255, 255);"/>
    <line x1="139.9" y1="506" x2="146.3" y2="506" style="fill: none; stroke-miterlimit: 10; stroke-width: 2.8px; stroke: rgb(255, 255, 255);"/>
    <line x1="141.9" y1="508" x2="146.3" y2="508" style="fill: none; stroke-miterlimit: 10; stroke-width: 2.8px; stroke: rgb(255, 255, 255);"/>
    <line x1="163.3" y1="506" x2="167.7" y2="506" style="fill: none; stroke-miterlimit: 10; stroke-width: 2.8px; stroke: rgb(255, 255, 255);"/>
    <line x1="163.3" y1="508" x2="167.7" y2="508" style="fill: none; stroke-miterlimit: 10; stroke-width: 2.8px; stroke: rgb(255, 255, 255);"/>
    <line x1="139.9" y1="821" x2="146.3" y2="821" style="fill: none; stroke-miterlimit: 10; stroke-width: 2.8px; stroke: rgb(255, 255, 255);"/>
    <line x1="139.9" y1="823" x2="146.3" y2="823" style="fill: none; stroke-miterlimit: 10; stroke-width: 2.8px; stroke: rgb(255, 255, 255);"/>
    <line x1="139.9" y1="892" x2="169.8" y2="892" style="fill: none; stroke-miterlimit: 10; stroke-width: 2.8px; stroke: rgb(255, 255, 255);"/>
    <line x1="139.9" y1="121.4" x2="169.8" y2="121.4" style="fill: none; stroke-miterlimit: 10; stroke-width: 2.8px; stroke: rgb(255, 255, 255);"/>
    <line x1="330.3" y1="121.4" x2="393.4" y2="121.4" style="fill: none; stroke-miterlimit: 10; stroke-width: 2.8px; stroke: rgb(255, 255, 255);"/>
    <line x1="163.3" y1="821" x2="169.6" y2="821" style="fill: none; stroke-miterlimit: 10; stroke-width: 2.8px; stroke: rgb(255, 255, 255);"/>
    <line x1="163.3" y1="823" x2="167.7" y2="823" style="fill: none; stroke-miterlimit: 10; stroke-width: 2.8px; stroke: rgb(255, 255, 255);"/>
    <line x1="141.9" y1="614.2" x2="141.9" y2="628.2" style="fill: none; stroke-miterlimit: 10; stroke-width: 2.8px; stroke: rgb(255, 255, 255);"/>
    <line x1="141.9" y1="643.3" x2="141.9" y2="670.9" style="fill: none; stroke-miterlimit: 10; stroke-width: 2.8px; stroke: rgb(255, 255, 255);"/>
    <line x1="141.9" y1="544.9" x2="141.9" y2="592.4" style="fill: none; stroke-miterlimit: 10; stroke-width: 2.8px; stroke: rgb(255, 255, 255);"/>
    <line x1="141.9" y1="452" x2="141.9" y2="461.3" style="fill: none; stroke-miterlimit: 10; stroke-width: 2.8px; stroke: rgb(255, 255, 255);"/>
    <line x1="141.9" y1="508" x2="141.9" y2="513" style="fill: none; stroke-miterlimit: 10; stroke-width: 2.8px; stroke: rgb(255, 255, 255);"/>
    <line x1="80.4" y1="582.5" x2="80.4" y2="599.6" style="fill: none; stroke-miterlimit: 10; stroke-width: 2.8px; stroke: rgb(255, 255, 255);"/>
    <line x1="78.4" y1="584.5" x2="78.4" y2="599.6" style="fill: none; stroke-miterlimit: 10; stroke-width: 2.8px; stroke: rgb(255, 255, 255);"/>
    <line x1="103" y1="582.5" x2="103" y2="599.6" style="fill: none; stroke-miterlimit: 10; stroke-width: 2.8px; stroke: rgb(255, 255, 255);"/>
    <line x1="101" y1="584.5" x2="101" y2="599.6" style="fill: none; stroke-miterlimit: 10; stroke-width: 2.8px; stroke: rgb(255, 255, 255);"/>
    <line x1="55.2" y1="584.5" x2="141.9" y2="584.5" style="fill: none; stroke-miterlimit: 10; stroke-width: 2.8px; stroke: rgb(255, 255, 255);"/>
    <line x1="118.1" y1="670.9" x2="118.1" y2="684" style="fill: none; stroke-miterlimit: 10; stroke-width: 2.8px; stroke: rgb(255, 255, 255);"/>
    <line x1="141.9" y1="200.7" x2="141.9" y2="232.8" style="fill: none; stroke-miterlimit: 10; stroke-width: 2.8px; stroke: rgb(255, 255, 255);"/>
    <line x1="139.9" y1="200.7" x2="139.9" y2="232.8" style="fill: none; stroke-miterlimit: 10; stroke-width: 2.8px; stroke: rgb(255, 255, 255);"/>
    <line x1="85" y1="166.1" x2="85" y2="174.8" style="fill: none; stroke-miterlimit: 10; stroke-width: 2.8px; stroke: rgb(255, 255, 255);"/>
    <line x1="85" y1="121.4" x2="85" y2="153.1" style="fill: none; stroke-miterlimit: 10; stroke-width: 2.8px; stroke: rgb(255, 255, 255);"/>
    <line x1="167.7" y1="172.2" x2="167.7" y2="157.5" style="fill: none; stroke-miterlimit: 10; stroke-width: 2.8px; stroke: rgb(255, 255, 255);"/>
    <polyline points="300.3 208.7 167.7 208.7 167.7 205.3" style="fill: none; stroke-miterlimit: 10; stroke-width: 2.8px; stroke: rgb(255, 255, 255);"/>
    <line x1="331.4" y1="208.7" x2="316" y2="208.7" style="fill: none; stroke-miterlimit: 10; stroke-width: 2.8px; stroke: rgb(255, 255, 255);"/>
    <polyline points="300.3 206.7 169.8 206.7 169.8 205.3" style="fill: none; stroke-miterlimit: 10; stroke-width: 2.8px; stroke: rgb(255, 255, 255);"/>
    <polyline points="390 836.1 457.5 836.1 457.5 894" style="fill: none; stroke-miterlimit: 10; stroke-width: 2.8px; stroke: rgb(255, 255, 255);"/>
    <line x1="298.7" y1="510.9" x2="291.2" y2="510.9" style="fill: none; stroke-miterlimit: 10; stroke-width: 2.8px; stroke: rgb(255, 255, 255);"/>
    <line x1="167.7" y1="397.6" x2="337.4" y2="397.6" style="fill: none; stroke-miterlimit: 10; stroke-width: 2.8px; stroke: rgb(255, 255, 255);"/>
    <line x1="167.7" y1="277.1" x2="167.7" y2="464.5" style="fill: none; stroke-miterlimit: 10; stroke-width: 2.8px; stroke: rgb(255, 255, 255);"/>
    <polyline points="337.4 258.8 337.4 244.2 167.7 244.2 167.7 258.8" style="fill: none; stroke-miterlimit: 10; stroke-width: 2.8px; stroke: rgb(255, 255, 255);"/>
    <line x1="337.4" y1="439.2" x2="337.4" y2="277.2" style="fill: none; stroke-miterlimit: 10; stroke-width: 2.8px; stroke: rgb(255, 255, 255);"/>
    <polyline points="335.3 466.6 335.3 508.9 218.9 508.9" style="fill: none; stroke-miterlimit: 10; stroke-width: 2.8px; stroke: rgb(255, 255, 255);"/>
    <line x1="335.3" y1="277.2" x2="335.3" y2="439.2" style="fill: none; stroke-miterlimit: 10; stroke-width: 2.8px; stroke: rgb(255, 255, 255);"/>
    <polyline points="169.8 258.8 169.8 246.2 335.3 246.2 335.3 258.8" style="fill: none; stroke-miterlimit: 10; stroke-width: 2.8px; stroke: rgb(255, 255, 255);"/>
    <line x1="169.8" y1="464.5" x2="169.8" y2="277.1" style="fill: none; stroke-miterlimit: 10; stroke-width: 2.8px; stroke: rgb(255, 255, 255);"/>
    <line x1="335.3" y1="395.6" x2="169.8" y2="395.6" style="fill: none; stroke-miterlimit: 10; stroke-width: 2.8px; stroke: rgb(255, 255, 255);"/>
    <line x1="420" y1="256.5" x2="420" y2="288.6" style="fill: none; stroke-miterlimit: 10; stroke-width: 2.8px; stroke: rgb(255, 255, 255);"/>
    <line x1="399.4" y1="233.3" x2="391.2" y2="233.3" style="fill: none; stroke-miterlimit: 10; stroke-width: 3.2px; stroke: rgb(255, 255, 255);"/>
    <line x1="413.4" y1="233.3" x2="422" y2="233.3" style="fill: none; stroke-miterlimit: 10; stroke-width: 3.2px; stroke: rgb(255, 255, 255);"/>
    <polyline points="462.8 507 462.8 487.7 420.3 487.7" style="fill: none; stroke-miterlimit: 10; stroke-width: 2.8px; stroke: rgb(255, 255, 255);"/>
    <polyline points="464.9 505.3 464.9 486 420.3 486" style="fill: none; stroke-miterlimit: 10; stroke-width: 2.8px; stroke: rgb(255, 255, 255);"/>
    <line x1="412.6" y1="413.3" x2="412.6" y2="452" style="fill: none; stroke-miterlimit: 10; stroke-width: 2.8px; stroke: rgb(255, 255, 255);"/>
    <line x1="393" y1="437.9" x2="393" y2="470.6" style="fill: none; stroke-miterlimit: 10; stroke-width: 2.8px; stroke: rgb(255, 255, 255);"/>
    <line x1="390.9" y1="437.9" x2="390.9" y2="470.6" style="fill: none; stroke-miterlimit: 10; stroke-width: 2.8px; stroke: rgb(255, 255, 255);"/>
    <polyline points="406.2 486 390.9 486 390.9 522.7" style="fill: none; stroke-miterlimit: 10; stroke-width: 2.8px; stroke: rgb(255, 255, 255);"/>
    <polyline points="406.2 488 393 488 393 522.7" style="fill: none; stroke-miterlimit: 10; stroke-width: 2.8px; stroke: rgb(255, 255, 255);"/>
    <line x1="139.9" y1="697.8" x2="139.9" y2="790.1" style="fill: none; stroke-miterlimit: 10; stroke-width: 2.8px; stroke: rgb(255, 255, 255);"/>
    <polyline points="55.2 727.4 118.1 727.4 118.1 697.8" style="fill: none; stroke-miterlimit: 10; stroke-width: 2.8px; stroke: rgb(255, 255, 255);"/>
    <line x1="141.9" y1="697.8" x2="141.9" y2="790.1" style="fill: none; stroke-miterlimit: 10; stroke-width: 2.8px; stroke: rgb(255, 255, 255);"/>
    <polyline points="55.2 670.9 141.9 670.9 141.9 684" style="fill: none; stroke-miterlimit: 10; stroke-width: 2.8px; stroke: rgb(255, 255, 255);"/>
    <line x1="139.9" y1="616.4" x2="55.2" y2="616.4" style="fill: none; stroke-miterlimit: 10; stroke-width: 2.8px; stroke: rgb(255, 255, 255);"/>
    <line x1="139.9" y1="614.2" x2="139.9" y2="619.4" style="fill: none; stroke-miterlimit: 10; stroke-width: 2.8px; stroke: rgb(255, 255, 255);"/>
    <polyline points="141.9 526.6 141.9 544.9 135 544.9" style="fill: none; stroke-miterlimit: 10; stroke-width: 2.8px; stroke: rgb(255, 255, 255);"/>
    <polyline points="141.9 476.6 141.9 508 55.2 508" style="fill: none; stroke-miterlimit: 10; stroke-width: 2.8px; stroke: rgb(255, 255, 255);"/>
    <polyline points="139.9 476.6 139.9 506 55.2 506" style="fill: none; stroke-miterlimit: 10; stroke-width: 2.8px; stroke: rgb(255, 255, 255);"/>
    <polyline points="141.9 367.1 141.9 452 102 452" style="fill: none; stroke-miterlimit: 10; stroke-width: 2.8px; stroke: rgb(255, 255, 255);"/>
    <polyline points="55.2 259.6 141.9 259.6 141.9 299.9" style="fill: none; stroke-miterlimit: 10; stroke-width: 2.8px; stroke: rgb(255, 255, 255);"/>
    <polyline points="141.9 168.1 141.9 173.8 55.2 173.8" style="fill: none; stroke-miterlimit: 10; stroke-width: 2.8px; stroke: rgb(255, 255, 255);"/>
    <line x1="141.9" y1="217.8" x2="55.2" y2="217.8" style="fill: none; stroke-miterlimit: 10; stroke-width: 2.8px; stroke: rgb(255, 255, 255);"/>
    <line x1="139.9" y1="215.8" x2="55.2" y2="215.8" style="fill: none; stroke-miterlimit: 10; stroke-width: 2.8px; stroke: rgb(255, 255, 255);"/>
    <polyline points="167.7 143.1 167.7 121.4 332 121.4 332 206.3" style="fill: none; stroke-miterlimit: 10; stroke-width: 2.8px; stroke: rgb(255, 255, 255);"/>
    <line x1="390.9" y1="302.7" x2="390.9" y2="410.3" style="fill: none; stroke-miterlimit: 10; stroke-width: 2.8px; stroke: rgb(255, 255, 255);"/>
    <line x1="390.9" y1="274" x2="390.9" y2="305" style="fill: none; stroke-miterlimit: 10; stroke-width: 2.8px; stroke: rgb(255, 255, 255);"/>
    <line x1="390.9" y1="666.2" x2="390.9" y2="687" style="fill: none; stroke-miterlimit: 10; stroke-width: 2.8px; stroke: rgb(255, 255, 255);"/>
    <polyline points="337.4 770.9 337.4 701.3 325.7 701.3" style="fill: none; stroke-miterlimit: 10; stroke-width: 2.8px; stroke: rgb(255, 255, 255);"/>
    <polyline points="167.7 812.1 167.7 890 333.4 890 333.4 811.9" style="fill: none; stroke-miterlimit: 10; stroke-width: 2.8px; stroke: rgb(255, 255, 255);"/>
    <polyline points="335.3 770.9 335.3 703.3 325.7 703.3" style="fill: none; stroke-miterlimit: 10; stroke-width: 2.8px; stroke: rgb(255, 255, 255);"/>
    <polyline points="199.3 788.8 337.4 788.8 337.4 783.7" style="fill: none; stroke-miterlimit: 10; stroke-width: 2.8px; stroke: rgb(255, 255, 255);"/>
    <line x1="262" y1="722.1" x2="262" y2="788.8" style="fill: none; stroke-miterlimit: 10; stroke-width: 2.8px; stroke: rgb(255, 255, 255);"/>
    <polyline points="199.3 786.8 335.3 786.8 335.3 783.7" style="fill: none; stroke-miterlimit: 10; stroke-width: 2.8px; stroke: rgb(255, 255, 255);"/>
    <line x1="318.9" y1="821" x2="333.4" y2="821" style="fill: none; stroke-miterlimit: 10; stroke-width: 2.7px; stroke: rgb(255, 255, 255);"/>
    <line x1="207.3" y1="821" x2="291" y2="821" style="fill: none; stroke-miterlimit: 10; stroke-width: 2.8px; stroke: rgb(255, 255, 255);"/>
    <line x1="167.7" y1="821" x2="193.3" y2="821" style="fill: none; stroke-miterlimit: 10; stroke-width: 2.8px; stroke: rgb(255, 255, 255);"/>
    <polyline points="327 703.3 169.8 703.3 169.8 786.8 186 786.8" style="fill: none; stroke-miterlimit: 10; stroke-width: 2.8px; stroke: rgb(255, 255, 255);"/>
    <line x1="264" y1="720.1" x2="264" y2="786.8" style="fill: none; stroke-miterlimit: 10; stroke-width: 2.8px; stroke: rgb(255, 255, 255);"/>
    <polyline points="139.9 816 139.9 892 55.2 892 55.2 121.4 139.9 121.4 139.9 155.1" style="fill: none; stroke-miterlimit: 10; stroke-width: 2.8px; stroke: rgb(255, 255, 255);"/>
    <polyline points="385.8 123.4 507.7 123.4 507.7 667.1" style="fill: none; stroke-miterlimit: 10; stroke-width: 2.8px; stroke: rgb(255, 255, 255);"/>
    <line x1="163.3" y1="123.4" x2="386.3" y2="123.4" style="fill: none; stroke-miterlimit: 10; stroke-width: 2.8px; stroke: rgb(255, 255, 255);"/>
    <polyline points="168.7 890 57.3 890 57.3 123.4 164.5 123.4" style="fill: none; stroke-miterlimit: 10; stroke-width: 2.8px; stroke: rgb(255, 255, 255);"/>
    <g id="Treppe">
      <line x1="406.7" y1="861.1" x2="406.7" y2="836.1" style="fill: none; stroke-miterlimit: 10; stroke-width: 2.8px; stroke: rgb(255, 255, 255);"/>
      <line x1="402.9" y1="861.1" x2="402.9" y2="836.1" style="fill: none; stroke-miterlimit: 10; stroke-width: 2.8px; stroke: rgb(255, 255, 255);"/>
      <line x1="410.5" y1="861.1" x2="410.5" y2="836.1" style="fill: none; stroke-miterlimit: 10; stroke-width: 2.8px; stroke: rgb(255, 255, 255);"/>
      <line x1="414.3" y1="861.1" x2="414.3" y2="836.1" style="fill: none; stroke-miterlimit: 10; stroke-width: 2.8px; stroke: rgb(255, 255, 255);"/>
      <line x1="418.1" y1="861.1" x2="418.1" y2="836.1" style="fill: none; stroke-miterlimit: 10; stroke-width: 2.8px; stroke: rgb(255, 255, 255);"/>
      <line x1="421.9" y1="861.1" x2="421.9" y2="836.1" style="fill: none; stroke-miterlimit: 10; stroke-width: 2.8px; stroke: rgb(255, 255, 255);"/>
      <line x1="425.7" y1="861.1" x2="425.7" y2="836.1" style="fill: none; stroke-miterlimit: 10; stroke-width: 2.8px; stroke: rgb(255, 255, 255);"/>
      <line x1="429.5" y1="861.1" x2="429.5" y2="836.1" style="fill: none; stroke-miterlimit: 10; stroke-width: 2.8px; stroke: rgb(255, 255, 255);"/>
      <line x1="406.7" y1="891.7" x2="406.7" y2="863.1" style="fill: none; stroke-miterlimit: 10; stroke-width: 2.8px; stroke: rgb(255, 255, 255);"/>
      <line x1="402.9" y1="891.7" x2="402.9" y2="863.1" style="fill: none; stroke-miterlimit: 10; stroke-width: 2.8px; stroke: rgb(255, 255, 255);"/>
      <line x1="399.1" y1="891.7" x2="399.1" y2="863.1" style="fill: none; stroke-miterlimit: 10; stroke-width: 2.8px; stroke: rgb(255, 255, 255);"/>
      <line x1="410.5" y1="891.7" x2="410.5" y2="863.1" style="fill: none; stroke-miterlimit: 10; stroke-width: 2.8px; stroke: rgb(255, 255, 255);"/>
      <line x1="414.3" y1="891.7" x2="414.3" y2="863.1" style="fill: none; stroke-miterlimit: 10; stroke-width: 2.8px; stroke: rgb(255, 255, 255);"/>
      <line x1="418.1" y1="891.7" x2="418.1" y2="863.1" style="fill: none; stroke-miterlimit: 10; stroke-width: 2.8px; stroke: rgb(255, 255, 255);"/>
      <line x1="421.9" y1="891.7" x2="421.9" y2="863.1" style="fill: none; stroke-miterlimit: 10; stroke-width: 2.8px; stroke: rgb(255, 255, 255);"/>
      <line x1="425.7" y1="891.7" x2="425.7" y2="863.1" style="fill: none; stroke-miterlimit: 10; stroke-width: 2.8px; stroke: rgb(255, 255, 255);"/>
      <line x1="429.5" y1="891.7" x2="429.5" y2="863.1" style="fill: none; stroke-miterlimit: 10; stroke-width: 2.8px; stroke: rgb(255, 255, 255);"/>
      <line x1="433.3" y1="861.1" x2="433.3" y2="836.1" style="fill: none; stroke-miterlimit: 10; stroke-width: 2.8px; stroke: rgb(255, 255, 255);"/>
    </g>
    <polyline points="168.7 170.8 194.4 170.8 194.4 206.7" style="fill: none; stroke-miterlimit: 10; stroke-width: 2.9px; stroke: rgb(255, 255, 255);"/>
    <line x1="420.3" y1="836.1" x2="420.3" y2="809.2" style="fill: none; stroke-miterlimit: 10; stroke-width: 2.9px; stroke: rgb(255, 255, 255);"/>
    <g>
      <polyline points="437.8 863.1 395.3 863.1 395.3 892 505.7 892 505.7 666.2" style="fill: none; stroke-miterlimit: 10; stroke-width: 2.8px; stroke: rgb(255, 255, 255);"/>
      <polyline points="437.8 861.1 393.3 861.1 393.3 894 507.7 894 507.7 665.6" style="fill: none; stroke-miterlimit: 10; stroke-width: 2.8px; stroke: rgb(255, 255, 255);"/>
    </g>
    <g id="Treppe-2" data-name="Treppe">
      <polyline points="227.2 244.2 227.2 227.4 227.2 227.4 292.4 227.4" style="fill: none; stroke-miterlimit: 10; stroke-width: 2.8px; stroke: rgb(255, 255, 255);"/>
      <polyline points="225.1 246.2 225.1 225.4 292.4 225.4" style="fill: none; stroke-miterlimit: 10; stroke-width: 2.8px; stroke: rgb(255, 255, 255);"/>
      <g>
        <line x1="249.9" y1="244.2" x2="249.9" y2="227.4" style="fill: none; stroke-miterlimit: 10; stroke-width: 2.8px; stroke: rgb(255, 255, 255);"/>
        <line x1="253.7" y1="244.2" x2="253.7" y2="227.4" style="fill: none; stroke-miterlimit: 10; stroke-width: 2.8px; stroke: rgb(255, 255, 255);"/>
        <line x1="246.1" y1="244.2" x2="246.1" y2="227.4" style="fill: none; stroke-miterlimit: 10; stroke-width: 2.8px; stroke: rgb(255, 255, 255);"/>
        <line x1="242.3" y1="244.2" x2="242.3" y2="227.4" style="fill: none; stroke-miterlimit: 10; stroke-width: 2.8px; stroke: rgb(255, 255, 255);"/>
        <line x1="238.5" y1="244.2" x2="238.5" y2="227.4" style="fill: none; stroke-miterlimit: 10; stroke-width: 2.8px; stroke: rgb(255, 255, 255);"/>
        <line x1="234.8" y1="244.2" x2="234.8" y2="227.4" style="fill: none; stroke-miterlimit: 10; stroke-width: 2.8px; stroke: rgb(255, 255, 255);"/>
        <line x1="231" y1="244.2" x2="231" y2="227.4" style="fill: none; stroke-miterlimit: 10; stroke-width: 2.8px; stroke: rgb(255, 255, 255);"/>
        <g>
          <line x1="284.1" y1="244.2" x2="284.1" y2="227.4" style="fill: none; stroke-miterlimit: 10; stroke-width: 2.8px; stroke: rgb(255, 255, 255);"/>
          <line x1="287.8" y1="244.2" x2="287.8" y2="227.4" style="fill: none; stroke-miterlimit: 10; stroke-width: 2.8px; stroke: rgb(255, 255, 255);"/>
          <line x1="280.3" y1="244.2" x2="280.3" y2="227.4" style="fill: none; stroke-miterlimit: 10; stroke-width: 2.8px; stroke: rgb(255, 255, 255);"/>
          <line x1="276.5" y1="244.2" x2="276.5" y2="227.4" style="fill: none; stroke-miterlimit: 10; stroke-width: 2.8px; stroke: rgb(255, 255, 255);"/>
          <line x1="272.7" y1="244.2" x2="272.7" y2="227.4" style="fill: none; stroke-miterlimit: 10; stroke-width: 2.8px; stroke: rgb(255, 255, 255);"/>
          <line x1="268.9" y1="244.2" x2="268.9" y2="227.4" style="fill: none; stroke-miterlimit: 10; stroke-width: 2.8px; stroke: rgb(255, 255, 255);"/>
          <line x1="265.1" y1="244.2" x2="265.1" y2="227.4" style="fill: none; stroke-miterlimit: 10; stroke-width: 2.8px; stroke: rgb(255, 255, 255);"/>
          <line x1="261.3" y1="244.2" x2="261.3" y2="227.4" style="fill: none; stroke-miterlimit: 10; stroke-width: 2.8px; stroke: rgb(255, 255, 255);"/>
          <line x1="257.5" y1="244.2" x2="257.5" y2="227.4" style="fill: none; stroke-miterlimit: 10; stroke-width: 2.8px; stroke: rgb(255, 255, 255);"/>
        </g>
      </g>
    </g>
    <g>
      <line x1="139.9" y1="710.5" x2="118.1" y2="710.5" style="fill: none; stroke-miterlimit: 10; stroke-width: 2.8px; stroke: rgb(255, 255, 255);"/>
      <line x1="139.9" y1="706.8" x2="118.1" y2="706.8" style="fill: none; stroke-miterlimit: 10; stroke-width: 2.8px; stroke: rgb(255, 255, 255);"/>
      <line x1="139.9" y1="714.2" x2="118.1" y2="714.2" style="fill: none; stroke-miterlimit: 10; stroke-width: 2.8px; stroke: rgb(255, 255, 255);"/>
      <line x1="139.9" y1="717.9" x2="118.1" y2="717.9" style="fill: none; stroke-miterlimit: 10; stroke-width: 2.8px; stroke: rgb(255, 255, 255);"/>
      <line x1="139.9" y1="721.6" x2="118.1" y2="721.6" style="fill: none; stroke-miterlimit: 10; stroke-width: 2.8px; stroke: rgb(255, 255, 255);"/>
      <line x1="139.9" y1="725.2" x2="118.1" y2="725.2" style="fill: none; stroke-miterlimit: 10; stroke-width: 2.8px; stroke: rgb(255, 255, 255);"/>
    </g>
    <polyline points="507.6 121.5 391.2 121.5 391.2 245.4" style="fill: none; stroke-miterlimit: 10; stroke-width: 2.9px; stroke: rgb(255, 255, 255);"/>
    <line x1="141.9" y1="121.4" x2="141.9" y2="155.1" style="fill: none; stroke-miterlimit: 10; stroke-width: 2.8px; stroke: rgb(255, 255, 255);"/>
    <line x1="141.9" y1="816" x2="141.9" y2="891.9" style="fill: none; stroke-miterlimit: 10; stroke-width: 2.8px; stroke: rgb(255, 255, 255);"/>
    <rect x="505.4" y="120.6" width="4.4" height="3.1" transform="translate(385.4 629.8) rotate(-90)" style="fill: rgb(255, 255, 255); stroke: rgb(255, 255, 255);"/>
    <path id="Toilette_Herren" data-name="Toilette Herren" d="M60.2,256.5h76.8v-35.7H60.2v35.7Zm38.8-14.5h0v11.6c0,.5-.4,1-1,1h0c-.5,0-1-.4-1-1v-21.2c0-.2-.2-.4-.4-.4s-.4,.2-.4,.4v8.6c0,.5-.4,1-1,1h0c-.5,0-1-.4-1-1v-8.7c0-1.3,1.1-2.4,2.4-2.3,1.2,0,2.1,1.2,2.1,2.4v9.5Zm.3-12.7c-.3,0-.6,0-.9-.2-.3-.1-.5-.3-.7-.5-.2-.2-.3-.4-.5-.7-.1-.3-.2-.6-.2-.9v-2.7c0-.3,0-.6,.2-.9,.1-.2,.2-.5,.4-.6h0s0,0,0,0c0,0,0,0,0,0h0c.2-.2,.4-.3,.6-.4,.3-.1,.6-.2,.9-.2s.6,0,.9,.2c.2,.1,.5,.3,.6,.4h0s0,0,0,0h0s0,0,0,0h0c.2,.2,.3,.4,.4,.7,.1,.3,.2,.6,.2,.9v2.7c0,.3,0,.6-.2,.9-.1,.3-.3,.5-.5,.7-.2,.2-.4,.4-.7,.5-.3,.1-.6,.2-.9,.2h0Zm4.9,11.7c0,.5-.4,1-1,1h0c-.5,0-1-.4-1-1v-8.6c0-.2-.2-.4-.4-.4s-.4,.2-.4,.4v21.2c0,.5-.4,1-1,1h0c-.5,0-1-.4-1-1v-21.2c0-1.3,1.1-2.4,2.4-2.3,1.2,0,2.1,1.2,2.1,2.4v8.6Z" style="fill: rgb(255, 255, 255); stroke: rgb(255, 255, 255);"/>
    <path id="Toilette_Herren-2" data-name="Toilette Herren" d="M172.5,783.7h86.7v-59h-86.7v59Zm43.1-26.1h0v11.4c0,.5-.4,1-1,1h0c-.5,0-1-.4-1-1v-20.8c0-.2-.2-.4-.4-.4s-.4,.2-.4,.4v8.5c0,.5-.4,1-1,1h0c-.5,0-1-.4-1-1v-8.5c0-1.3,1.2-2.4,2.5-2.3,1.3,0,2.2,1.2,2.2,2.4v9.4Zm.3-12.5c-.3,0-.6,0-.9-.2-.3-.1-.5-.3-.7-.5-.2-.2-.4-.4-.5-.7-.1-.3-.2-.5-.2-.8v-2.6c0-.3,0-.6,.2-.8,.1-.2,.3-.4,.4-.6h0s0,0,0,0c0,0,0,0,0,0h0c.2-.2,.4-.3,.7-.4,.3-.1,.6-.2,.9-.2s.6,0,.9,.2c.2,.1,.5,.2,.7,.4h0s0,0,0,0h0s0,0,0,0h0c.2,.2,.3,.4,.4,.6,.1,.3,.2,.5,.2,.8v2.6c0,.3,0,.6-.2,.8-.1,.3-.3,.5-.5,.7-.2,.2-.4,.3-.7,.5-.3,.1-.6,.2-.9,.2h0Zm5.1,11.5c0,.5-.4,1-1,1h0c-.5,0-1-.4-1-1v-8.5c0-.2-.2-.4-.4-.4s-.4,.2-.4,.4v20.8c0,.5-.4,1-1,1h0c-.5,0-1-.4-1-1v-20.8c0-1.3,1.2-2.4,2.5-2.3,1.3,0,2.2,1.1,2.2,2.4v8.4Z" style="fill: rgb(255, 255, 255); stroke: rgb(255, 255, 255);"/>
    <g id="Aufzug">
      <polygon points="180.2 175.8 189 175.8 189 201.8 180.2 201.8 180.2 203.9 191.6 203.9 191.6 173.5 180.2 173.5 180.2 175.8" style="fill: rgb(255, 255, 255); stroke: rgb(255, 255, 255);"/>
      <rect x="171.3" y="177.8" width="6.8" height="21.9" style="fill: rgb(255, 255, 255); stroke: rgb(255, 255, 255);"/>
      <polygon points="178.1 201.8 169.2 201.8 169.2 175.8 178.1 175.8 178.1 173.5 166.6 173.5 166.6 203.9 178.1 203.9 178.1 201.8" style="fill: rgb(255, 255, 255); stroke: rgb(255, 255, 255);"/>
      <rect x="180.2" y="177.8" width="6.8" height="21.9" style="fill: rgb(255, 255, 255); stroke: rgb(255, 255, 255);"/>
    </g>
    <g id="Aufzug-2" data-name="Aufzug">
      <polygon points="404.9 800.4 414.3 800.4 414.3 829 404.9 829 404.9 831.4 417.1 831.4 417.1 798 404.9 798 404.9 800.4" style="fill: rgb(255, 255, 255); stroke: rgb(255, 255, 255);"/>
      <rect x="395.3" y="802.7" width="7.3" height="24.1" style="fill: rgb(255, 255, 255); stroke: rgb(255, 255, 255);"/>
      <polygon points="402.7 829 393.1 829 393.1 800.4 402.7 800.4 402.7 798 390.3 798 390.3 831.4 402.7 831.4 402.7 829" style="fill: rgb(255, 255, 255); stroke: rgb(255, 255, 255);"/>
      <rect x="404.9" y="802.7" width="7.3" height="24.1" style="fill: rgb(255, 255, 255); stroke: rgb(255, 255, 255);"/>
    </g>
    <line x1="85.7" y1="123.4" x2="140.9" y2="123.4" style="fill: none; stroke-miterlimit: 10; stroke-width: 2.8px; stroke: rgb(255, 255, 255);"/>
  </g>
  <g id="rooms" data-name="Räume UG" style="" transform="matrix(1.062895, 0, 0, 1.062895, 20.104177, -125.265167)">
    <g id="-1.101">
      <path id="Name" d="M379,262.2h-4.2c-.6,0-.9-.5-.9-1s.3-1,.9-1h4.2c.6,0,.9,.5,.9,1s-.3,1-.9,1Zm5.7,4.3c-.5,0-.9-.3-.9-1v-8.1l-.8,.9c-.2,.2-.4,.3-.6,.3-.5,0-.9-.5-.9-1s0-.5,.3-.7l2.3-2.3c.2-.2,.5-.4,.8-.4,.6,0,.9,.6,.9,1.2v10.2c0,.6-.5,1-.9,1Zm4.9,0c-.8,0-1.4-.7-1.4-1.5s.6-1.5,1.4-1.5,1.4,.7,1.4,1.5-.6,1.5-1.4,1.5Zm6.1,0c-.5,0-.9-.3-.9-1v-8.1l-.8,.9c-.2,.2-.4,.3-.6,.3-.5,0-.9-.5-.9-1s0-.5,.3-.7l2.3-2.3c.2-.2,.5-.4,.8-.4,.6,0,.9,.6,.9,1.2v10.2c0,.6-.5,1-.9,1Zm7.2,.3c-3.5,0-3.5-4.3-3.5-6.8s.4-5.9,3.5-5.9,3.5,3.4,3.5,5.9,0,6.8-3.5,6.8Zm1.6-6.9c0-1.2,0-3.9-1.6-3.9s-1.6,2.5-1.6,3.7v1.1c0,1.6,.1,4,1.6,4s1.6-2.5,1.6-4.1v-.9Zm6.7,6.7c-.5,0-.9-.3-.9-1v-8.1l-.8,.9c-.2,.2-.4,.3-.6,.3-.5,0-.9-.5-.9-1s0-.5,.3-.7l2.3-2.3c.2-.2,.5-.4,.8-.4,.6,0,.9,.6,.9,1.2v10.2c0,.6-.5,1-.9,1Z" style="fill: rgb(255, 255, 255); stroke: none;"/>
    </g>
    <g id="-1.001">
      <line x1="505.7" y1="177.8" x2="450.9" y2="177.8" style="fill: none; stroke-miterlimit: 10; stroke-width: 2.8px; stroke: rgb(255, 255, 255);"/>
      <line x1="399.4" y1="231.3" x2="393" y2="231.3" style="fill: none; stroke-miterlimit: 10; stroke-width: 2.8px; stroke: rgb(255, 255, 255);"/>
      <line x1="413.4" y1="231.3" x2="422" y2="231.3" style="fill: none; stroke-miterlimit: 10; stroke-width: 2.8px; stroke: rgb(255, 255, 255);"/>
      <polyline points="436.8 177.8 420 177.8 420 242.8" style="fill: none; stroke-miterlimit: 10; stroke-width: 2.8px; stroke: rgb(255, 255, 255);"/>
      <polyline points="505.7 511 505.7 121.4 393 121.4 393 245.4" style="fill: none; stroke-miterlimit: 10; stroke-width: 2.8px; stroke: rgb(255, 255, 255);"/>
      <line x1="505.7" y1="122.5" x2="505.7" y2="177.8" style="fill: none; stroke-miterlimit: 10; stroke-width: 2.8px; stroke: rgb(255, 255, 255);"/>
      <rect x="395.9" y="126.3" width="106.7" height="49.1" style="fill: none; stroke: rgb(255, 255, 255);"/>
      <path id="Name-2" data-name="Name" d="M446.6,149.6h-4.2c-.6,0-.9-.5-.9-1s.3-1,.9-1h4.2c.6,0,.9,.5,.9,1s-.3,1-.9,1Zm5.7,4.3c-.5,0-.9-.3-.9-1v-8.1l-.8,.9c-.2,.2-.4,.3-.6,.3-.5,0-.9-.5-.9-1s0-.5,.3-.7l2.3-2.3c.2-.2,.5-.4,.8-.4,.6,0,.9,.6,.9,1.2v10.2c0,.6-.5,1-.9,1Zm4.9,0c-.8,0-1.4-.7-1.4-1.5s.6-1.5,1.4-1.5,1.4,.7,1.4,1.5-.6,1.5-1.4,1.5Zm7.4,.3c-3.5,0-3.5-4.3-3.5-6.8s.4-5.9,3.5-5.9,3.5,3.4,3.5,5.9,0,6.8-3.5,6.8Zm1.6-6.9c0-1.2,0-3.9-1.6-3.9s-1.6,2.5-1.6,3.7v1.1c0,1.6,.1,4,1.6,4s1.6-2.5,1.6-4.1v-.9Zm8,6.9c-3.5,0-3.5-4.3-3.5-6.8s.4-5.9,3.5-5.9,3.5,3.4,3.5,5.9,0,6.8-3.5,6.8Zm1.6-6.9c0-1.2,0-3.9-1.6-3.9s-1.6,2.5-1.6,3.7v1.1c0,1.6,.1,4,1.6,4s1.6-2.5,1.6-4.1v-.9Zm6.7,6.7c-.5,0-.9-.3-.9-1v-8.1l-.8,.9c-.2,.2-.4,.3-.6,.3-.5,0-.9-.5-.9-1s0-.5,.3-.7l2.3-2.3c.2-.2,.5-.4,.8-.4,.6,0,.9,.6,.9,1.2v10.2c0,.6-.5,1-.9,1Z" style="fill: rgb(255, 255, 255);"/>
    </g>
    <g id="-1.003">
      <line x1="507.7" y1="179.8" x2="450.9" y2="179.8" style="fill: none; stroke-miterlimit: 10; stroke-width: 2.9px; stroke: rgb(255, 255, 255);"/>
      <line x1="422" y1="256.5" x2="422" y2="286.6" style="fill: none; stroke-miterlimit: 10; stroke-width: 2.8px; stroke: rgb(255, 255, 255);"/>
      <polyline points="436.8 179.8 422 179.8 422 242.8" style="fill: none; stroke-miterlimit: 10; stroke-width: 2.8px; stroke: rgb(255, 255, 255);"/>
      <line x1="505.7" y1="286.6" x2="390.9" y2="286.6" style="fill: none; stroke-miterlimit: 10; stroke-width: 2.8px; stroke: rgb(255, 255, 255);"/>
      <line x1="505.7" y1="178.5" x2="505.7" y2="286.6" style="fill: none; stroke-miterlimit: 10; stroke-width: 2.9px; stroke: rgb(255, 255, 255);"/>
      <rect x="424.8" y="182.8" width="78.1" height="101.2" style="fill: none; stroke: rgb(255, 255, 255);"/>
      <path id="Name-3" data-name="Name" d="M446,233.2h-4.2c-.6,0-.9-.5-.9-1s.3-1,.9-1h4.2c.6,0,.9,.5,.9,1s-.3,1-.9,1Zm5.7,4.3c-.5,0-.9-.3-.9-1v-8.1l-.8,.9c-.2,.2-.4,.3-.6,.3-.5,0-.9-.5-.9-1s0-.5,.3-.7l2.3-2.3c.2-.2,.5-.4,.8-.4,.6,0,.9,.6,.9,1.2v10.2c0,.6-.5,1-.9,1Zm4.9,0c-.8,0-1.4-.7-1.4-1.5s.6-1.5,1.4-1.5,1.4,.7,1.4,1.5-.6,1.5-1.4,1.5Zm7.4,.3c-3.5,0-3.5-4.3-3.5-6.8s.4-5.9,3.5-5.9,3.5,3.4,3.5,5.9,0,6.8-3.5,6.8Zm1.6-6.9c0-1.2,0-3.9-1.6-3.9s-1.6,2.5-1.6,3.7v1.1c0,1.6,.1,4,1.6,4s1.6-2.5,1.6-4.1v-.9Zm8,6.9c-3.5,0-3.5-4.3-3.5-6.8s.4-5.9,3.5-5.9,3.5,3.4,3.5,5.9,0,6.8-3.5,6.8Zm1.6-6.9c0-1.2,0-3.9-1.6-3.9s-1.6,2.5-1.6,3.7v1.1c0,1.6,.1,4,1.6,4s1.6-2.5,1.6-4.1v-.9Zm7.5,6.9c-1.3,0-2.3-.7-3-1.7,0-.2-.1-.4-.1-.5,0-.5,.5-1,1-1s.6,.1,.8,.5c.3,.5,.8,.8,1.4,.8,1,0,1.8-.9,1.8-1.9s-.8-1.9-1.8-1.9-.9-.5-.9-1,.3-1,.9-1,1.4-.7,1.4-1.5-.6-1.5-1.4-1.5c-1.3,0-1.3,1.6-2.2,1.6s-1-.4-1-1,0-.4,.2-.5c.3-.6,1.4-2,3-2s3.3,1.5,3.3,3.4-.3,1.8-.9,2.4c.8,.7,1.3,1.8,1.3,3,0,2.1-1.7,3.9-3.7,3.9Z" style="fill: rgb(255, 255, 255); stroke: rgb(255, 255, 255);"/>
    </g>
    <g id="-1.004">
      <polyline points="505.7 341.1 412.6 341.1 412.6 380" style="fill: none; stroke-miterlimit: 10; stroke-width: 2.8px; stroke: rgb(255, 255, 255);"/>
      <line x1="505.9" y1="288.6" x2="390.9" y2="288.6" style="fill: none; stroke-miterlimit: 10; stroke-width: 2.9px; stroke: rgb(255, 255, 255);"/>
      <rect x="395.5" y="291.3" width="107.3" height="47.2" style="fill: none; stroke: rgb(255, 255, 255);"/>
      <path id="Name-4" data-name="Name" d="M446.2,316.3h-4.2c-.6,0-.9-.5-.9-1s.3-1,.9-1h4.2c.6,0,.9,.5,.9,1s-.3,1-.9,1Zm5.7,4.3c-.5,0-.9-.3-.9-1v-8.1l-.8,.9c-.2,.2-.4,.3-.6,.3-.5,0-.9-.5-.9-1s0-.5,.3-.7l2.3-2.3c.2-.2,.5-.4,.8-.4,.6,0,.9,.6,.9,1.2v10.2c0,.6-.5,1-.9,1Zm4.9,0c-.8,0-1.4-.7-1.4-1.5s.6-1.5,1.4-1.5,1.4,.7,1.4,1.5-.6,1.5-1.4,1.5Zm7.4,.3c-3.5,0-3.5-4.3-3.5-6.8s.4-5.9,3.5-5.9,3.5,3.4,3.5,5.9,0,6.8-3.5,6.8Zm1.6-6.9c0-1.2,0-3.9-1.6-3.9s-1.6,2.5-1.6,3.7v1.1c0,1.6,.1,4,1.6,4s1.6-2.5,1.6-4.1v-.9Zm8,6.9c-3.5,0-3.5-4.3-3.5-6.8s.4-5.9,3.5-5.9,3.5,3.4,3.5,5.9,0,6.8-3.5,6.8Zm1.6-6.9c0-1.2,0-3.9-1.6-3.9s-1.6,2.5-1.6,3.7v1.1c0,1.6,.1,4,1.6,4s1.6-2.5,1.6-4.1v-.9Zm10.5,4.9h-.4v.8c0,.6-.5,1-.9,1s-.9-.3-.9-1v-.8h-3.4c-.6,0-1-.4-1-.9s0-.3,.1-.5l4.3-8.7c.2-.4,.5-.5,.8-.5,.5,0,1,.4,1,.9s0,.3-.1,.5l-3.6,7.3h1.9v-1.7c0-.7,.5-1,.9-1s.9,.3,.9,1v1.7h.4c.6,0,.9,.5,.9,1s-.3,1-.9,1Z" style="fill: rgb(255, 255, 255); stroke: rgb(255, 255, 255);"/>
      <line x1="505.7" y1="287.6" x2="505.7" y2="342.1" style="fill: none; stroke-miterlimit: 10; stroke-width: 2.8px; stroke: rgb(255, 255, 255);"/>
    </g>
    <g id="-1.005">
      <polyline points="505.7 343.1 414.6 343.1 414.6 380" style="fill: none; stroke-miterlimit: 10; stroke-width: 2.8px; stroke: rgb(255, 255, 255);"/>
      <line x1="505.7" y1="395.5" x2="412" y2="395.5" style="fill: none; stroke-miterlimit: 10; stroke-width: 2.8px; stroke: rgb(255, 255, 255);"/>
      <line x1="505.7" y1="343.1" x2="505.7" y2="396.5" style="fill: none; stroke-miterlimit: 10; stroke-width: 2.8px; stroke: rgb(255, 255, 255);"/>
      <rect x="417.4" y="345.6" width="85.7" height="47.2" style="fill: none; stroke: rgb(255, 255, 255);"/>
      <path id="Name-5" data-name="Name" d="M446.3,370h-4.2c-.6,0-.9-.5-.9-1s.3-1,.9-1h4.2c.6,0,.9,.5,.9,1s-.3,1-.9,1Zm5.7,4.3c-.5,0-.9-.3-.9-1v-8.1l-.8,.9c-.2,.2-.4,.3-.6,.3-.5,0-.9-.5-.9-1s0-.5,.3-.7l2.3-2.3c.2-.2,.5-.4,.8-.4,.6,0,.9,.6,.9,1.2v10.2c0,.6-.5,1-.9,1Zm4.9,0c-.8,0-1.4-.7-1.4-1.5s.6-1.5,1.4-1.5,1.4,.7,1.4,1.5-.6,1.5-1.4,1.5Zm7.4,.3c-3.5,0-3.5-4.3-3.5-6.8s.4-5.9,3.5-5.9,3.5,3.4,3.5,5.9,0,6.8-3.5,6.8Zm1.6-6.9c0-1.2,0-3.9-1.6-3.9s-1.6,2.5-1.6,3.7v1.1c0,1.6,.1,4,1.6,4s1.6-2.5,1.6-4.1v-.9Zm8,6.9c-3.5,0-3.5-4.3-3.5-6.8s.4-5.9,3.5-5.9,3.5,3.4,3.5,5.9,0,6.8-3.5,6.8Zm1.6-6.9c0-1.2,0-3.9-1.6-3.9s-1.6,2.5-1.6,3.7v1.1c0,1.6,.1,4,1.6,4s1.6-2.5,1.6-4.1v-.9Zm7.7,6.8c-1.1,0-2.3-.6-2.9-1.6,0-.2-.1-.4-.1-.5,0-.5,.5-1,1-1s.5,.2,.8,.5c.4,.4,.7,.6,1.3,.6,.9,0,1.8-.8,1.8-2.1s-.9-2.1-1.8-2.1-1,.2-1.3,.7c-.2,.4-.5,.5-.8,.5-.6,0-.9-.4-.9-1.2v-5.2c0-.5,.4-1,.9-1h4.5c.6,0,.9,.5,.9,1s-.3,1-.9,1h-3.6v2.5c.4-.2,.8-.2,1.2-.2,2,0,3.6,1.8,3.6,4.1s-1.6,4.1-3.6,4.1Z" style="fill: rgb(255, 255, 255); stroke: rgb(255, 255, 255);"/>
    </g>
    <g id="-1.006">
      <line x1="505.7" y1="450" x2="390.4" y2="450" style="fill: none; stroke-miterlimit: 10; stroke-width: 2.8px; stroke: rgb(255, 255, 255);"/>
      <line x1="505.7" y1="397.5" x2="412" y2="397.5" style="fill: none; stroke-miterlimit: 10; stroke-width: 2.8px; stroke: rgb(255, 255, 255);"/>
      <line x1="414.6" y1="413.3" x2="414.6" y2="450" style="fill: none; stroke-miterlimit: 10; stroke-width: 2.8px; stroke: rgb(255, 255, 255);"/>
      <line x1="505.7" y1="396.5" x2="505.7" y2="449.9" style="fill: none; stroke-miterlimit: 10; stroke-width: 2.8px; stroke: rgb(255, 255, 255);"/>
      <rect x="417.6" y="400" width="85.7" height="47.2" style="fill: none; stroke: rgb(255, 255, 255);"/>
      <path id="Name-6" data-name="Name" d="M446.2,426h-4.2c-.6,0-.9-.5-.9-1s.3-1,.9-1h4.2c.6,0,.9,.5,.9,1s-.3,1-.9,1Zm5.7,4.3c-.5,0-.9-.3-.9-1v-8.1l-.8,.9c-.2,.2-.4,.3-.6,.3-.5,0-.9-.5-.9-1s0-.5,.3-.7l2.3-2.3c.2-.2,.5-.4,.8-.4,.6,0,.9,.6,.9,1.2v10.2c0,.6-.5,1-.9,1Zm4.9,0c-.8,0-1.4-.7-1.4-1.5s.6-1.5,1.4-1.5,1.4,.7,1.4,1.5-.6,1.5-1.4,1.5Zm7.4,.3c-3.5,0-3.5-4.3-3.5-6.8s.4-5.9,3.5-5.9,3.5,3.4,3.5,5.9,0,6.8-3.5,6.8Zm1.6-6.9c0-1.2,0-3.9-1.6-3.9s-1.6,2.5-1.6,3.7v1.1c0,1.6,.1,4,1.6,4s1.6-2.5,1.6-4.1v-.9Zm8,6.9c-3.5,0-3.5-4.3-3.5-6.8s.4-5.9,3.5-5.9,3.5,3.4,3.5,5.9,0,6.8-3.5,6.8Zm1.6-6.9c0-1.2,0-3.9-1.6-3.9s-1.6,2.5-1.6,3.7v1.1c0,1.6,.1,4,1.6,4s1.6-2.5,1.6-4.1v-.9Zm8.2,6.9c-3.5,0-3.7-3.7-3.7-6.4s.7-6.4,3.7-6.4,2.3,.6,3,1.7c.1,.2,.2,.4,.2,.6,0,.6-.5,1-1,1s-.5-.2-.7-.5c-.3-.5-.8-.8-1.5-.8-1,0-1.8,.8-1.8,3.8,.6-.4,1.2-.6,1.8-.6,1.9,0,3.5,1.8,3.5,3.8s-1.5,3.8-3.5,3.8Zm0-5.6c-1,0-1.7,.9-1.7,1.9,.2,1,.7,1.8,1.7,1.8s1.6-.8,1.6-1.8-.8-1.8-1.6-1.8Z" style="fill: rgb(255, 255, 255); stroke: rgb(255, 255, 255);"/>
    </g>
    <g id="-1.102">
      <path id="Name-7" data-name="Name" d="M372,425.7h-4.2c-.6,0-.9-.5-.9-1s.3-1,.9-1h4.2c.6,0,.9,.5,.9,1s-.3,1-.9,1Zm5.7,4.3c-.5,0-.9-.3-.9-1v-8.1l-.8,.9c-.2,.2-.4,.3-.6,.3-.5,0-.9-.5-.9-1s0-.5,.3-.7l2.3-2.3c.2-.2,.5-.4,.8-.4,.6,0,.9,.6,.9,1.2v10.2c0,.6-.5,1-.9,1Zm4.9,0c-.8,0-1.4-.7-1.4-1.5s.6-1.5,1.4-1.5,1.4,.7,1.4,1.5-.6,1.5-1.4,1.5Zm6.1,0c-.5,0-.9-.3-.9-1v-8.1l-.8,.9c-.2,.2-.4,.3-.6,.3-.5,0-.9-.5-.9-1s0-.5,.3-.7l2.3-2.3c.2-.2,.5-.4,.8-.4,.6,0,.9,.6,.9,1.2v10.2c0,.6-.5,1-.9,1Zm7.2,.3c-3.5,0-3.5-4.3-3.5-6.8s.4-5.9,3.5-5.9,3.5,3.4,3.5,5.9,0,6.8-3.5,6.8Zm1.6-6.9c0-1.2,0-3.9-1.6-3.9s-1.6,2.5-1.6,3.7v1.1c0,1.6,.1,4,1.6,4s1.6-2.5,1.6-4.1v-.9Zm9.5,6.7h-4.4c-.6,0-1-.4-1-.8s0-.4,.2-.6l4-7c.2-.3,.2-.6,.2-.8,0-.7-.5-1.3-1.2-1.3-1.3,0-1.2,1.6-2.2,1.6s-1-.4-1-1,0-.4,.1-.5c.4-.6,1.4-2,3-2s3,1.4,3,3.2-.2,1.3-.5,1.8l-3.1,5.5h2.7c.6,0,.9,.5,.9,1s-.3,1-.9,1Z" style="fill: rgb(255, 255, 255);"/>
    </g>
    <g id="-1.007">
      <line x1="393" y1="505" x2="505.9" y2="505" style="fill: none; stroke-miterlimit: 10; stroke-width: 2.8px; stroke: rgb(255, 255, 255);"/>
      <polygon id="Rechteck" points="503 479.8 503 454.2 395.2 454.2 395.2 483.3 467.1 483.3 467.1 502.5 503 502.5 503 479.8" style="fill: none; stroke: rgb(255, 255, 255);"/>
      <line x1="505.9" y1="452" x2="390.4" y2="452" style="fill: none; stroke-miterlimit: 10; stroke-width: 2.8px; stroke: rgb(255, 255, 255);"/>
      <line x1="505.3" y1="450.8" x2="505.3" y2="507" style="fill: none; stroke-miterlimit: 10; stroke-width: 2.8px; stroke: rgb(255, 255, 255);"/>
      <path id="Name-8" data-name="Name" d="M445.5,472.6h-4.2c-.6,0-.9-.5-.9-1s.3-1,.9-1h4.2c.6,0,.9,.5,.9,1s-.3,1-.9,1Zm5.7,4.3c-.5,0-.9-.3-.9-1v-8.1l-.8,.9c-.2,.2-.4,.3-.6,.3-.5,0-.9-.5-.9-1s0-.5,.3-.7l2.3-2.3c.2-.2,.5-.4,.8-.4,.6,0,.9,.6,.9,1.2v10.2c0,.6-.5,1-.9,1Zm4.9,0c-.8,0-1.4-.7-1.4-1.5s.6-1.5,1.4-1.5,1.4,.7,1.4,1.5-.6,1.5-1.4,1.5Zm7.4,.3c-3.5,0-3.5-4.3-3.5-6.8s.4-5.9,3.5-5.9,3.5,3.4,3.5,5.9,0,6.8-3.5,6.8Zm1.6-6.9c0-1.2,0-3.9-1.6-3.9s-1.6,2.5-1.6,3.7v1.1c0,1.6,.1,4,1.6,4s1.6-2.5,1.6-4.1v-.9Zm8,6.9c-3.5,0-3.5-4.3-3.5-6.8s.4-5.9,3.5-5.9,3.5,3.4,3.5,5.9,0,6.8-3.5,6.8Zm1.6-6.9c0-1.2,0-3.9-1.6-3.9s-1.6,2.5-1.6,3.7v1.1c0,1.6,.1,4,1.6,4s1.6-2.5,1.6-4.1v-.9Zm10.9-4l-3.7,10c-.1,.4-.5,.6-.8,.6-.5,0-1-.4-1-1s0-.2,0-.4l3.2-8.9h-3.5c-.4,0-.9-.3-.9-1s.4-1,.9-1h4.9c.6,0,.9,.4,.9,.9s0,.4,0,.5Z" style="fill: rgb(255, 255, 255); stroke: rgb(255, 255, 255);"/>
    </g>
    <g id="-1.008">
      <line x1="507.1" y1="667.2" x2="391.6" y2="667.2" style="fill: none; stroke-miterlimit: 10; stroke-width: 2.8px; stroke: rgb(255, 255, 255);"/>
      <line x1="393" y1="507" x2="505.3" y2="507" style="fill: none; stroke-miterlimit: 10; stroke-width: 2.8px; stroke: rgb(255, 255, 255);"/>
      <line x1="393" y1="652.9" x2="393" y2="668.2" style="fill: none; stroke-miterlimit: 10; stroke-width: 2.8px; stroke: rgb(255, 255, 255);"/>
      <line x1="393" y1="550.2" x2="393" y2="637.3" style="fill: none; stroke-miterlimit: 10; stroke-width: 2.8px; stroke: rgb(255, 255, 255);"/>
      <rect x="395.5" y="509.5" width="107.2" height="155" style="fill: none; stroke: rgb(255, 255, 255);"/>
      <line x1="505.7" y1="509" x2="505.7" y2="668.2" style="fill: none; stroke-miterlimit: 10; stroke-width: 2.8px; stroke: rgb(255, 255, 255);"/>
      <path id="Name-9" data-name="Name" d="M433.8,595.2h-4.2c-.6,0-.9-.5-.9-1s.3-1,.9-1h4.2c.6,0,.9,.5,.9,1s-.3,1-.9,1Zm5.7,4.3c-.5,0-.9-.3-.9-1v-8.1l-.8,.9c-.2,.2-.4,.3-.6,.3-.5,0-.9-.5-.9-1s0-.5,.3-.7l2.3-2.3c.2-.2,.5-.4,.8-.4,.6,0,.9,.6,.9,1.2v10.2c0,.6-.5,1-.9,1Zm4.9,0c-.8,0-1.4-.7-1.4-1.5s.6-1.5,1.4-1.5,1.4,.7,1.4,1.5-.6,1.5-1.4,1.5Zm7.4,.3c-3.5,0-3.5-4.3-3.5-6.8s.4-5.9,3.5-5.9,3.5,3.4,3.5,5.9,0,6.8-3.5,6.8Zm1.6-6.9c0-1.2,0-3.9-1.6-3.9s-1.6,2.5-1.6,3.7v1.1c0,1.6,.1,4,1.6,4s1.6-2.5,1.6-4.1v-.9Zm8,6.9c-3.5,0-3.5-4.3-3.5-6.8s.4-5.9,3.5-5.9,3.5,3.4,3.5,5.9,0,6.8-3.5,6.8Zm1.6-6.9c0-1.2,0-3.9-1.6-3.9s-1.6,2.5-1.6,3.7v1.1c0,1.6,.1,4,1.6,4s1.6-2.5,1.6-4.1v-.9Zm7.9,6.9c-2.1,0-3.7-1.8-3.7-3.9s.5-2.3,1.3-3c-.6-.6-.9-1.5-.9-2.4,0-1.9,1.5-3.5,3.3-3.5s3.3,1.5,3.3,3.4-.4,1.8-.9,2.4c.8,.7,1.3,1.8,1.3,3,0,2.1-1.7,3.9-3.7,3.9Zm0-5.8c-1,0-1.9,.9-1.9,1.9s.8,1.9,1.8,1.9,1.9-.9,1.9-1.9-.8-1.9-1.8-1.9Zm0-5c-.8,0-1.4,.7-1.4,1.5s.6,1.5,1.4,1.5,1.4-.6,1.4-1.5-.6-1.5-1.4-1.5Z" style="fill: rgb(255, 255, 255); stroke: rgb(255, 255, 255);"/>
    </g>
    <g id="-1.011">
      <line x1="446.6" y1="779.9" x2="505.7" y2="779.9" style="fill: none; stroke-miterlimit: 10; stroke-width: 2.8px; stroke: rgb(255, 255, 255);"/>
      <polyline points="505.7 668.2 393 668.2 393 687" style="fill: none; stroke-miterlimit: 10; stroke-width: 2.8px; stroke: rgb(255, 255, 255);"/>
      <polyline points="393 714.5 393.3 793.1 420.6 793.1" style="fill: none; stroke-miterlimit: 10; stroke-width: 2.8px; stroke: rgb(255, 255, 255);"/>
      <polyline points="420.3 809.2 420.3 779.9 432.5 779.9" style="fill: none; stroke-miterlimit: 10; stroke-width: 2.8px; stroke: rgb(255, 255, 255);"/>
      <line x1="505.7" y1="668.2" x2="505.7" y2="779.1" style="fill: none; stroke-miterlimit: 10; stroke-width: 2.8px; stroke: rgb(255, 255, 255);"/>
      <rect x="396" y="670.9" width="107.2" height="106" style="fill: none; stroke: rgb(255, 255, 255);"/>
      <path id="Name-10" data-name="Name" d="M435.4,726.7h-4.2c-.6,0-.9-.5-.9-1s.3-1,.9-1h4.2c.6,0,.9,.5,.9,1s-.3,1-.9,1Zm5.7,4.3c-.5,0-.9-.3-.9-1v-8.1l-.8,.9c-.2,.2-.4,.3-.6,.3-.5,0-.9-.5-.9-1s0-.5,.3-.7l2.3-2.3c.2-.2,.5-.4,.8-.4,.6,0,.9,.6,.9,1.2v10.2c0,.6-.5,1-.9,1Zm4.9,0c-.8,0-1.4-.7-1.4-1.5s.6-1.5,1.4-1.5,1.4,.7,1.4,1.5-.6,1.5-1.4,1.5Zm7.4,.3c-3.5,0-3.5-4.3-3.5-6.8s.4-5.9,3.5-5.9,3.5,3.4,3.5,5.9,0,6.8-3.5,6.8Zm1.6-6.9c0-1.2,0-3.9-1.6-3.9s-1.6,2.5-1.6,3.7v1.1c0,1.6,.1,4,1.6,4s1.6-2.5,1.6-4.1v-.9Zm6.7,6.7c-.5,0-.9-.3-.9-1v-8.1l-.8,.9c-.2,.2-.4,.3-.6,.3-.5,0-.9-.5-.9-1s0-.5,.3-.7l2.3-2.3c.2-.2,.5-.4,.8-.4,.6,0,.9,.6,.9,1.2v10.2c0,.6-.5,1-.9,1Zm5.8,0c-.5,0-.9-.3-.9-1v-8.1l-.8,.9c-.2,.2-.4,.3-.6,.3-.5,0-.9-.5-.9-1s0-.5,.3-.7l2.3-2.3c.2-.2,.5-.4,.8-.4,.6,0,.9,.6,.9,1.2v10.2c0,.6-.5,1-.9,1Z" style="fill: rgb(255, 255, 255); stroke: rgb(255, 255, 255);"/>
    </g>
    <g id="-1.013">
      <line x1="446.6" y1="781.9" x2="507.7" y2="781.9" style="fill: none; stroke-miterlimit: 10; stroke-width: 2.8px; stroke: rgb(255, 255, 255);"/>
      <polyline points="390 834.1 459.5 834.1 459.5 892" style="fill: none; stroke-miterlimit: 10; stroke-width: 2.8px; stroke: rgb(255, 255, 255);"/>
      <polyline points="422.4 834.1 422.4 781.9 432.5 781.9" style="fill: none; stroke-miterlimit: 10; stroke-width: 4.1px; stroke: rgb(255, 255, 255);"/>
      <line x1="505.7" y1="781.9" x2="505.7" y2="892" style="fill: none; stroke-miterlimit: 10; stroke-width: 2.8px; stroke: rgb(255, 255, 255);"/>
      <line x1="459.5" y1="892" x2="505.7" y2="892" style="fill: none; stroke-miterlimit: 10; stroke-width: 2.8px; stroke: rgb(255, 255, 255);"/>
      <polygon id="Rechteck-2" data-name="Rechteck" points="426.3 785 426.3 830.8 462.7 830.8 462.7 888.6 502.1 888.6 502.1 830.8 502.1 794.2 502.1 785 426.3 785" style="fill: none; stroke: rgb(255, 255, 255);"/>
      <path id="Name-11" data-name="Name" d="M452.7,807.1h-4.2c-.6,0-.9-.5-.9-1s.3-1,.9-1h4.2c.6,0,.9,.5,.9,1s-.3,1-.9,1Zm5.7,4.3c-.5,0-.9-.3-.9-1v-8.1l-.8,.9c-.2,.2-.4,.3-.6,.3-.5,0-.9-.5-.9-1s0-.5,.3-.7l2.3-2.3c.2-.2,.5-.4,.8-.4,.6,0,.9,.6,.9,1.2v10.2c0,.6-.5,1-.9,1Zm4.9,0c-.8,0-1.4-.7-1.4-1.5s.6-1.5,1.4-1.5,1.4,.7,1.4,1.5-.6,1.5-1.4,1.5Zm7.4,.3c-3.5,0-3.5-4.3-3.5-6.8s.4-5.9,3.5-5.9,3.5,3.4,3.5,5.9,0,6.8-3.5,6.8Zm1.6-6.9c0-1.2,0-3.9-1.6-3.9s-1.6,2.5-1.6,3.7v1.1c0,1.6,.1,4,1.6,4s1.6-2.5,1.6-4.1v-.9Zm6.7,6.7c-.5,0-.9-.3-.9-1v-8.1l-.8,.9c-.2,.2-.4,.3-.6,.3-.5,0-.9-.5-.9-1s0-.5,.3-.7l2.3-2.3c.2-.2,.5-.4,.8-.4,.6,0,.9,.6,.9,1.2v10.2c0,.6-.5,1-.9,1Zm6.7,.3c-1.3,0-2.3-.7-3-1.7,0-.2-.1-.4-.1-.5,0-.5,.5-1,1-1s.6,.1,.8,.5c.3,.5,.8,.8,1.4,.8,1,0,1.8-.9,1.8-1.9s-.8-1.9-1.8-1.9-.9-.5-.9-1,.3-1,.9-1,1.4-.7,1.4-1.5-.6-1.5-1.4-1.5c-1.3,0-1.3,1.6-2.2,1.6s-1-.4-1-1,0-.4,.2-.5c.3-.6,1.4-2,3-2s3.3,1.5,3.3,3.4-.3,1.8-.9,2.4c.8,.7,1.3,1.8,1.3,3,0,2.1-1.7,3.9-3.7,3.9Z" style="fill: rgb(255, 255, 255); stroke: rgb(255, 255, 255);"/>
    </g>
    <g id="-1.157">
      <rect x="338.718" y="840.408" width="50.568" height="58.041" style="stroke: rgb(255, 255, 255); fill: none;"/>
      <path id="Name-12" data-name="Name" d="M 347.9 879.455 L 343.7 879.455 C 343.1 879.455 342.8 878.955 342.8 878.455 C 342.8 877.955 343.1 877.455 343.7 877.455 L 347.9 877.455 C 348.5 877.455 348.8 877.955 348.8 878.455 C 348.8 878.955 348.5 879.455 347.9 879.455 Z M 353.6 883.755 C 353.1 883.755 352.7 883.455 352.7 882.755 L 352.7 874.655 L 351.9 875.555 C 351.7 875.755 351.5 875.855 351.3 875.855 C 350.8 875.855 350.4 875.355 350.4 874.855 C 350.4 874.355 350.4 874.355 350.7 874.155 L 353 871.855 C 353.2 871.655 353.5 871.455 353.8 871.455 C 354.4 871.455 354.7 872.055 354.7 872.655 L 354.7 882.855 C 354.7 883.455 354.2 883.855 353.8 883.855 L 353.6 883.755 Z M 358.5 883.755 C 357.7 883.755 357.1 883.055 357.1 882.255 C 357.1 881.455 357.7 880.755 358.5 880.755 C 359.3 880.755 359.9 881.455 359.9 882.255 C 359.9 883.055 359.3 883.755 358.5 883.755 Z M 364.6 883.755 C 364.1 883.755 363.7 883.455 363.7 882.755 L 363.7 874.655 L 362.9 875.555 C 362.7 875.755 362.5 875.855 362.3 875.855 C 361.8 875.855 361.4 875.355 361.4 874.855 C 361.4 874.355 361.4 874.355 361.7 874.155 L 364 871.855 C 364.2 871.655 364.5 871.455 364.8 871.455 C 365.4 871.455 365.7 872.055 365.7 872.655 L 365.7 882.855 C 365.7 883.455 365.2 883.855 364.8 883.855 L 364.6 883.755 Z M 371.4 883.955 C 370.3 883.955 369.1 883.355 368.5 882.355 C 368.5 882.155 368.4 881.955 368.4 881.855 C 368.4 881.355 368.9 880.855 369.4 880.855 C 369.9 880.855 369.9 881.055 370.2 881.355 C 370.6 881.755 370.9 881.955 371.5 881.955 C 372.4 881.955 373.3 881.155 373.3 879.855 C 373.3 878.555 372.4 877.755 371.5 877.755 C 370.6 877.755 370.5 877.955 370.2 878.455 C 370 878.855 369.7 878.955 369.4 878.955 C 368.8 878.955 368.5 878.555 368.5 877.755 L 368.5 872.555 C 368.5 872.055 368.9 871.555 369.4 871.555 L 373.9 871.555 C 374.5 871.555 374.8 872.055 374.8 872.555 C 374.8 873.055 374.5 873.555 373.9 873.555 L 370.3 873.555 L 370.3 876.055 C 370.7 875.855 371.1 875.855 371.5 875.855 C 373.5 875.855 375.1 877.655 375.1 879.955 C 375.1 882.255 373.5 884.055 371.5 884.055 L 371.4 883.955 Z M 384.2 873.155 L 380.5 883.155 C 380.4 883.555 380 883.755 379.7 883.755 C 379.2 883.755 378.7 883.355 378.7 882.755 C 378.7 882.155 378.7 882.555 378.7 882.355 L 381.9 873.455 L 378.4 873.455 C 378 873.455 377.5 873.155 377.5 872.455 C 377.5 871.755 377.9 871.455 378.4 871.455 L 383.3 871.455 C 383.9 871.455 384.2 871.855 384.2 872.355 C 384.2 872.855 384.2 872.755 384.2 872.855 L 384.2 873.155 Z" style="stroke: none; fill: rgb(255, 255, 255);"/>
    </g>
    <g id="-1.016">
      <polyline points="169.8 812.1 169.8 892 335.1 892 335.1 811.9" style="fill: none; stroke-miterlimit: 10; stroke-width: 2.8px; stroke: rgb(255, 255, 255);"/>
      <line x1="318.9" y1="823" x2="335.3" y2="823" style="fill: none; stroke-miterlimit: 10; stroke-width: 2.8px; stroke: rgb(255, 255, 255);"/>
      <line x1="207.3" y1="823" x2="291" y2="823" style="fill: none; stroke-miterlimit: 10; stroke-width: 2.8px; stroke: rgb(255, 255, 255);"/>
      <rect x="173.2" y="826.3" width="156.8" height="59.9" style="fill: none; stroke: rgb(255, 255, 255);"/>
      <line x1="169.8" y1="823" x2="193.3" y2="823" style="fill: none; stroke-miterlimit: 10; stroke-width: 2.8px; stroke: rgb(255, 255, 255);"/>
      <path id="Name-13" data-name="Name" d="M234.3,859.4h-4.2c-.6,0-.9-.5-.9-1s.3-1,.9-1h4.2c.6,0,.9,.5,.9,1s-.3,1-.9,1Zm5.7,4.3c-.5,0-.9-.3-.9-1v-8.1l-.8,.9c-.2,.2-.4,.3-.6,.3-.5,0-.9-.5-.9-1s0-.5,.3-.7l2.3-2.3c.2-.2,.5-.4,.8-.4,.6,0,.9,.6,.9,1.2v10.2c0,.6-.5,1-.9,1Zm4.9,0c-.8,0-1.4-.7-1.4-1.5s.6-1.5,1.4-1.5,1.4,.7,1.4,1.5-.6,1.5-1.4,1.5Zm7.4,.3c-3.5,0-3.5-4.3-3.5-6.8s.4-5.9,3.5-5.9,3.5,3.4,3.5,5.9,0,6.8-3.5,6.8Zm1.6-6.9c0-1.2,0-3.9-1.6-3.9s-1.6,2.5-1.6,3.7v1.1c0,1.6,.1,4,1.6,4s1.6-2.5,1.6-4.1v-.9Zm6.7,6.7c-.5,0-.9-.3-.9-1v-8.1l-.8,.9c-.2,.2-.4,.3-.6,.3-.5,0-.9-.5-.9-1s0-.5,.3-.7l2.3-2.3c.2-.2,.5-.4,.8-.4,.6,0,.9,.6,.9,1.2v10.2c0,.6-.5,1-.9,1Zm7.3,.3c-3.5,0-3.7-3.7-3.7-6.4s.7-6.4,3.7-6.4,2.3,.6,3,1.7c.1,.2,.2,.4,.2,.6,0,.6-.5,1-1,1s-.5-.2-.7-.5c-.3-.5-.8-.8-1.5-.8-1,0-1.8,.8-1.8,3.8,.6-.4,1.2-.6,1.8-.6,1.9,0,3.5,1.8,3.5,3.8s-1.5,3.8-3.5,3.8Zm0-5.6c-1,0-1.7,.9-1.7,1.9,.2,1,.7,1.8,1.7,1.8s1.6-.8,1.6-1.8-.8-1.8-1.6-1.8Z" style="fill: rgb(255, 255, 255); stroke: rgb(255, 255, 255);"/>
    </g>
    <g id="-1.045">
      <line x1="55.9" y1="727.4" x2="118.1" y2="727.4" style="fill: none; stroke-miterlimit: 10; stroke-width: 2.8px; stroke: rgb(255, 255, 255);"/>
      <line x1="139.9" y1="727.4" x2="139.9" y2="790.1" style="fill: none; stroke-miterlimit: 10; stroke-width: 2.8px; stroke: rgb(255, 255, 255);"/>
      <line x1="139.9" y1="816" x2="139.9" y2="890" style="fill: none; stroke-miterlimit: 10; stroke-width: 2.8px; stroke: rgb(255, 255, 255);"/>
      <line x1="55.9" y1="890" x2="141.2" y2="890" style="fill: none; stroke-miterlimit: 10; stroke-width: 2.8px; stroke: rgb(255, 255, 255);"/>
      <line x1="57.3" y1="727.4" x2="57.3" y2="889.6" style="fill: none; stroke-miterlimit: 10; stroke-width: 2.8px; stroke: rgb(255, 255, 255);"/>
      <rect x="60.5" y="730.2" width="75.7" height="156" style="fill: none; stroke: rgb(255, 255, 255);"/>
      <path id="Name-14" data-name="Name" d="M80.5,810.6h-4.2c-.6,0-.9-.5-.9-1s.3-1,.9-1h4.2c.6,0,.9,.5,.9,1s-.3,1-.9,1Zm5.7,4.3c-.5,0-.9-.3-.9-1v-8.1l-.8,.9c-.2,.2-.4,.3-.6,.3-.5,0-.9-.5-.9-1s0-.5,.3-.7l2.3-2.3c.2-.2,.5-.4,.8-.4,.6,0,.9,.6,.9,1.2v10.2c0,.6-.5,1-.9,1Zm4.9,0c-.8,0-1.4-.7-1.4-1.5s.6-1.5,1.4-1.5,1.4,.7,1.4,1.5-.6,1.5-1.4,1.5Zm7.4,.3c-3.5,0-3.5-4.3-3.5-6.8s.4-5.9,3.5-5.9,3.5,3.4,3.5,5.9,0,6.8-3.5,6.8Zm1.6-6.9c0-1.2,0-3.9-1.6-3.9s-1.6,2.5-1.6,3.7v1.1c0,1.6,.1,4,1.6,4s1.6-2.5,1.6-4.1v-.9Zm10.5,4.9h-.4v.8c0,.6-.5,1-.9,1s-.9-.3-.9-1v-.8h-3.4c-.6,0-1-.4-1-.9s0-.3,.1-.5l4.3-8.7c.2-.4,.5-.5,.8-.5,.5,0,1,.4,1,.9s0,.3-.1,.5l-3.6,7.3h1.9v-1.7c0-.7,.5-1,.9-1s.9,.3,.9,1v1.7h.4c.6,0,.9,.5,.9,1s-.3,1-.9,1Zm5.9,2c-1.1,0-2.3-.6-2.9-1.6,0-.2-.1-.4-.1-.5,0-.5,.5-1,1-1s.5,.2,.8,.5c.4,.4,.7,.6,1.3,.6,.9,0,1.8-.8,1.8-2.1s-.9-2.1-1.8-2.1-1,.2-1.3,.7c-.2,.4-.5,.5-.8,.5-.6,0-.9-.4-.9-1.2v-5.2c0-.5,.4-1,.9-1h4.5c.6,0,.9,.5,.9,1s-.3,1-.9,1h-3.6v2.5c.4-.2,.8-.2,1.2-.2,2,0,3.6,1.8,3.6,4.1s-1.6,4.1-3.6,4.1Z" style="fill: rgb(255, 255, 255); stroke: rgb(255, 255, 255);"/>
    </g>
    <g id="-1.046">
      <line x1="116.1" y1="672.9" x2="116.1" y2="684" style="fill: none; stroke-miterlimit: 10; stroke-width: 2.8px; stroke: rgb(255, 255, 255);"/>
      <polyline points="55.9 725.4 116.7 725.4 116.7 725.4 116.7 697.8" style="fill: none; stroke-miterlimit: 10; stroke-width: 2.8px; stroke: rgb(255, 255, 255);"/>
      <polyline points="56 672.4 139.9 672.4 139.9 683.5" style="fill: none; stroke-miterlimit: 10; stroke-width: 2.8px; stroke: rgb(255, 255, 255);"/>
      <rect x="60.1" y="675.7" width="52.9" height="46.1" style="fill: none; stroke: rgb(255, 255, 255);"/>
      <line x1="57.3" y1="672.9" x2="57.3" y2="726" style="fill: none; stroke-miterlimit: 10; stroke-width: 2.8px; stroke: rgb(255, 255, 255);"/>
      <path id="Name-15" data-name="Name" d="M69.3,699.6h-4.2c-.6,0-.9-.5-.9-1s.3-1,.9-1h4.2c.6,0,.9,.5,.9,1s-.3,1-.9,1Zm5.7,4.3c-.5,0-.9-.3-.9-1v-8.1l-.8,.9c-.2,.2-.4,.3-.6,.3-.5,0-.9-.5-.9-1s0-.5,.3-.7l2.3-2.3c.2-.2,.5-.4,.8-.4,.6,0,.9,.6,.9,1.2v10.2c0,.6-.5,1-.9,1Zm4.9,0c-.8,0-1.4-.7-1.4-1.5s.6-1.5,1.4-1.5,1.4,.7,1.4,1.5-.6,1.5-1.4,1.5Zm7.4,.3c-3.5,0-3.5-4.3-3.5-6.8s.4-5.9,3.5-5.9,3.5,3.4,3.5,5.9,0,6.8-3.5,6.8Zm1.6-6.9c0-1.2,0-3.9-1.6-3.9s-1.6,2.5-1.6,3.7v1.1c0,1.6,.1,4,1.6,4s1.6-2.5,1.6-4.1v-.9Zm10.5,4.9h-.4v.8c0,.6-.5,1-.9,1s-.9-.3-.9-1v-.8h-3.4c-.6,0-1-.4-1-.9s0-.3,.1-.5l4.3-8.7c.2-.4,.5-.5,.8-.5,.5,0,1,.4,1,.9s0,.3-.1,.5l-3.6,7.3h1.9v-1.7c0-.7,.5-1,.9-1s.9,.3,.9,1v1.7h.4c.6,0,.9,.5,.9,1s-.3,1-.9,1Zm6.3,2.1c-3.5,0-3.7-3.7-3.7-6.4s.7-6.4,3.7-6.4,2.3,.6,3,1.7c.1,.2,.2,.4,.2,.6,0,.6-.5,1-1,1s-.5-.2-.7-.5c-.3-.5-.8-.8-1.5-.8-1,0-1.8,.8-1.8,3.8,.6-.4,1.2-.6,1.8-.6,1.9,0,3.5,1.8,3.5,3.8s-1.5,3.8-3.5,3.8Zm0-5.6c-1,0-1.7,.9-1.7,1.9,.2,1,.7,1.8,1.7,1.8s1.6-.8,1.6-1.8-.8-1.8-1.6-1.8Z" style="fill: rgb(255, 255, 255); stroke: rgb(255, 255, 255);"/>
    </g>
    <g id="-1.047">
      <line x1="139.9" y1="618.4" x2="139.9" y2="628.2" style="fill: none; stroke-miterlimit: 10; stroke-width: 2.8px; stroke: rgb(255, 255, 255);"/>
      <line x1="139.9" y1="643.3" x2="139.9" y2="670.9" style="fill: none; stroke-miterlimit: 10; stroke-width: 2.8px; stroke: rgb(255, 255, 255);"/>
      <line x1="56" y1="670.9" x2="141.1" y2="670.9" style="fill: none; stroke-miterlimit: 10; stroke-width: 2.8px; stroke: rgb(255, 255, 255);"/>
      <line x1="57.3" y1="618.4" x2="57.3" y2="670.9" style="fill: none; stroke-miterlimit: 10; stroke-width: 2.8px; stroke: rgb(255, 255, 255);"/>
      <rect x="60.5" y="621.2" width="76.3" height="46.1" style="fill: none; stroke: rgb(255, 255, 255);"/>
      <path id="Name-16" data-name="Name" d="M80.4,645.5h-4.2c-.6,0-.9-.5-.9-1s.3-1,.9-1h4.2c.6,0,.9,.5,.9,1s-.3,1-.9,1Zm5.7,4.3c-.5,0-.9-.3-.9-1v-8.1l-.8,.9c-.2,.2-.4,.3-.6,.3-.5,0-.9-.5-.9-1s0-.5,.3-.7l2.3-2.3c.2-.2,.5-.4,.8-.4,.6,0,.9,.6,.9,1.2v10.2c0,.6-.5,1-.9,1Zm4.9,0c-.8,0-1.4-.7-1.4-1.5s.6-1.5,1.4-1.5,1.4,.7,1.4,1.5-.6,1.5-1.4,1.5Zm7.4,.3c-3.5,0-3.5-4.3-3.5-6.8s.4-5.9,3.5-5.9,3.5,3.4,3.5,5.9,0,6.8-3.5,6.8Zm1.6-6.9c0-1.2,0-3.9-1.6-3.9s-1.6,2.5-1.6,3.7v1.1c0,1.6,.1,4,1.6,4s1.6-2.5,1.6-4.1v-.9Zm10.5,4.9h-.4v.8c0,.6-.5,1-.9,1s-.9-.3-.9-1v-.8h-3.4c-.6,0-1-.4-1-.9s0-.3,.1-.5l4.3-8.7c.2-.4,.5-.5,.8-.5,.5,0,1,.4,1,.9s0,.3-.1,.5l-3.6,7.3h1.9v-1.7c0-.7,.5-1,.9-1s.9,.3,.9,1v1.7h.4c.6,0,.9,.5,.9,1s-.3,1-.9,1Zm9-8.9l-3.7,10c-.1,.4-.5,.6-.8,.6-.5,0-1-.4-1-1s0-.2,0-.4l3.2-8.9h-3.5c-.4,0-.9-.3-.9-1s.4-1,.9-1h4.9c.6,0,.9,.4,.9,.9s0,.4,0,.5Z" style="fill: rgb(255, 255, 255); stroke: rgb(255, 255, 255);"/>
      <line x1="141.3" y1="618.4" x2="55.8" y2="618.4" style="fill: none; stroke-miterlimit: 10; stroke-width: 2.8px; stroke: rgb(255, 255, 255);"/>
    </g>
    <g id="-1.048">
      <line x1="139.9" y1="544.9" x2="139.9" y2="592.4" style="fill: none; stroke-miterlimit: 10; stroke-width: 2.8px; stroke: rgb(255, 255, 255);"/>
      <line x1="55.8" y1="582.5" x2="139.9" y2="582.5" style="fill: none; stroke-miterlimit: 10; stroke-width: 2.8px; stroke: rgb(255, 255, 255);"/>
      <line x1="120.9" y1="544.9" x2="56.2" y2="544.9" style="fill: none; stroke-miterlimit: 10; stroke-width: 2px; stroke: rgb(255, 255, 255);"/>
      <line x1="57.3" y1="543.7" x2="57.3" y2="583.5" style="fill: none; stroke-miterlimit: 10; stroke-width: 2.8px; stroke: rgb(255, 255, 255);"/>
      <line x1="135" y1="544.9" x2="141.1" y2="544.9" style="fill: none; stroke-miterlimit: 10; stroke-width: 2.8px; stroke: rgb(255, 255, 255);"/>
      <rect x="60.8" y="547.8" width="76.3" height="31.5" style="fill: none; stroke: rgb(255, 255, 255);"/>
      <path id="Name-17" data-name="Name" d="M81,564h-4.2c-.6,0-.9-.5-.9-1s.3-1,.9-1h4.2c.6,0,.9,.5,.9,1s-.3,1-.9,1Zm5.7,4.3c-.5,0-.9-.3-.9-1v-8.1l-.8,.9c-.2,.2-.4,.3-.6,.3-.5,0-.9-.5-.9-1s0-.5,.3-.7l2.3-2.3c.2-.2,.5-.4,.8-.4,.6,0,.9,.6,.9,1.2v10.2c0,.6-.5,1-.9,1Zm4.9,0c-.8,0-1.4-.7-1.4-1.5s.6-1.5,1.4-1.5,1.4,.7,1.4,1.5-.6,1.5-1.4,1.5Zm7.4,.3c-3.5,0-3.5-4.3-3.5-6.8s.4-5.9,3.5-5.9,3.5,3.4,3.5,5.9,0,6.8-3.5,6.8Zm1.6-6.9c0-1.2,0-3.9-1.6-3.9s-1.6,2.5-1.6,3.7v1.1c0,1.6,.1,4,1.6,4s1.6-2.5,1.6-4.1v-.9Zm10.5,4.9h-.4v.8c0,.6-.5,1-.9,1s-.9-.3-.9-1v-.8h-3.4c-.6,0-1-.4-1-.9s0-.3,.1-.5l4.3-8.7c.2-.4,.5-.5,.8-.5,.5,0,1,.4,1,.9s0,.3-.1,.5l-3.6,7.3h1.9v-1.7c0-.7,.5-1,.9-1s.9,.3,.9,1v1.7h.4c.6,0,.9,.5,.9,1s-.3,1-.9,1Zm6,2.1c-2.1,0-3.7-1.8-3.7-3.9s.5-2.3,1.3-3c-.6-.6-.9-1.5-.9-2.4,0-1.9,1.5-3.5,3.3-3.5s3.3,1.5,3.3,3.4-.4,1.8-.9,2.4c.8,.7,1.3,1.8,1.3,3,0,2.1-1.7,3.9-3.7,3.9Zm0-5.8c-1,0-1.9,.9-1.9,1.9s.8,1.9,1.8,1.9,1.9-.9,1.9-1.9-.8-1.9-1.8-1.9Zm0-5c-.8,0-1.4,.7-1.4,1.5s.6,1.5,1.4,1.5,1.4-.6,1.4-1.5-.6-1.5-1.4-1.5Z" style="fill: rgb(255, 255, 255); stroke: rgb(255, 255, 255);"/>
    </g>
    <g id="-1.049">
      <line x1="139.9" y1="506.7" x2="139.9" y2="513" style="fill: none; stroke-miterlimit: 10; stroke-width: 3.2px; stroke: rgb(255, 255, 255);"/>
      <line x1="120.9" y1="542.9" x2="55.7" y2="542.9" style="fill: none; stroke-miterlimit: 10; stroke-width: 2.6px; stroke: rgb(255, 255, 255);"/>
      <polyline points="139.9 526.6 139.9 542.9 135 542.9" style="fill: none; stroke-miterlimit: 10; stroke-width: 2.8px; stroke: rgb(255, 255, 255);"/>
      <line x1="57.3" y1="508" x2="141.1" y2="508" style="fill: none; stroke-miterlimit: 10; stroke-width: 2.8px; stroke: rgb(255, 255, 255);"/>
      <line x1="57.3" y1="506.7" x2="57.3" y2="543.7" style="fill: none; stroke-miterlimit: 10; stroke-width: 2.8px; stroke: rgb(255, 255, 255);"/>
      <rect x="60.5" y="510.6" width="76.3" height="29.7" style="fill: none; stroke: rgb(255, 255, 255);"/>
      <path id="Name-18" data-name="Name" d="M80.8,525.2h-4.2c-.6,0-.9-.5-.9-1s.3-1,.9-1h4.2c.6,0,.9,.5,.9,1s-.3,1-.9,1Zm5.7,4.3c-.5,0-.9-.3-.9-1v-8.1l-.8,.9c-.2,.2-.4,.3-.6,.3-.5,0-.9-.5-.9-1s0-.5,.3-.7l2.3-2.3c.2-.2,.5-.4,.8-.4,.6,0,.9,.6,.9,1.2v10.2c0,.6-.5,1-.9,1Zm4.9,0c-.8,0-1.4-.7-1.4-1.5s.6-1.5,1.4-1.5,1.4,.7,1.4,1.5-.6,1.5-1.4,1.5Zm7.4,.3c-3.5,0-3.5-4.3-3.5-6.8s.4-5.9,3.5-5.9,3.5,3.4,3.5,5.9,0,6.8-3.5,6.8Zm1.6-6.9c0-1.2,0-3.9-1.6-3.9s-1.6,2.5-1.6,3.7v1.1c0,1.6,.1,4,1.6,4s1.6-2.5,1.6-4.1v-.9Zm10.5,4.9h-.4v.8c0,.6-.5,1-.9,1s-.9-.3-.9-1v-.8h-3.4c-.6,0-1-.4-1-.9s0-.3,.1-.5l4.3-8.7c.2-.4,.5-.5,.8-.5,.5,0,1,.4,1,.9s0,.3-.1,.5l-3.6,7.3h1.9v-1.7c0-.7,.5-1,.9-1s.9,.3,.9,1v1.7h.4c.6,0,.9,.5,.9,1s-.3,1-.9,1Zm6,2.1c-1.3,0-2.3-.6-3-1.7-.1-.2-.2-.4-.2-.6,0-.6,.5-1,1-1s.5,.2,.7,.4c.3,.5,.8,.8,1.5,.8,1,0,1.8-.8,1.8-3.8-.6,.4-1.2,.6-1.8,.6-1.9,0-3.5-1.8-3.5-3.8s1.5-3.8,3.5-3.8c3.5,0,3.7,3.7,3.7,6.4s-.7,6.4-3.7,6.4Zm0-10.8c-.8,0-1.6,.8-1.6,1.8s.8,1.8,1.6,1.8,1.7-.9,1.7-1.9c-.2-1-.7-1.8-1.7-1.8Z" style="fill: rgb(255, 255, 255); stroke: rgb(255, 255, 255);"/>
    </g>
    <g id="-1.050">
      <line x1="139.9" y1="450.6" x2="139.9" y2="461.3" style="fill: none; stroke-miterlimit: 10; stroke-width: 3px; stroke: rgb(255, 255, 255);"/>
      <line x1="86.1" y1="452" x2="55.7" y2="452" style="fill: none; stroke-miterlimit: 10; stroke-width: 2px; stroke: rgb(255, 255, 255);"/>
      <rect x="60.2" y="454.6" width="76.3" height="48.4" style="fill: none; stroke: rgb(255, 255, 255);"/>
      <path id="Name-19" data-name="Name" d="M80.3,477.9h-4.2c-.6,0-.9-.5-.9-1s.3-1,.9-1h4.2c.6,0,.9,.5,.9,1s-.3,1-.9,1Zm5.7,4.3c-.5,0-.9-.3-.9-1v-8.1l-.8,.9c-.2,.2-.4,.3-.6,.3-.5,0-.9-.5-.9-1s0-.5,.3-.7l2.3-2.3c.2-.2,.5-.4,.8-.4,.6,0,.9,.6,.9,1.2v10.2c0,.6-.5,1-.9,1Zm4.9,0c-.8,0-1.4-.7-1.4-1.5s.6-1.5,1.4-1.5,1.4,.7,1.4,1.5-.6,1.5-1.4,1.5Zm7.4,.3c-3.5,0-3.5-4.3-3.5-6.8s.4-5.9,3.5-5.9,3.5,3.4,3.5,5.9,0,6.8-3.5,6.8Zm1.6-6.9c0-1.2,0-3.9-1.6-3.9s-1.6,2.5-1.6,3.7v1.1c0,1.6,.1,4,1.6,4s1.6-2.5,1.6-4.1v-.9Zm7.7,6.8c-1.1,0-2.3-.6-2.9-1.6,0-.2-.1-.4-.1-.5,0-.5,.5-1,1-1s.5,.2,.8,.5c.4,.4,.7,.6,1.3,.6,.9,0,1.8-.8,1.8-2.1s-.9-2.1-1.8-2.1-1,.2-1.3,.7c-.2,.4-.5,.5-.8,.5-.6,0-.9-.4-.9-1.2v-5.2c0-.5,.4-1,.9-1h4.5c.6,0,.9,.5,.9,1s-.3,1-.9,1h-3.6v2.5c.4-.2,.8-.2,1.2-.2,2,0,3.6,1.8,3.6,4.1s-1.6,4.1-3.6,4.1Zm9.9,.1c-3.5,0-3.5-4.3-3.5-6.8s.4-5.9,3.5-5.9,3.5,3.4,3.5,5.9,0,6.8-3.5,6.8Zm1.6-6.9c0-1.2,0-3.9-1.6-3.9s-1.6,2.5-1.6,3.7v1.1c0,1.6,.1,4,1.6,4s1.6-2.5,1.6-4.1v-.9Z" style="fill: rgb(255, 255, 255); stroke: rgb(255, 255, 255);"/>
      <line x1="57.3" y1="452" x2="57.3" y2="508" style="fill: none; stroke-miterlimit: 10; stroke-width: 2.8px; stroke: rgb(255, 255, 255);"/>
      <line x1="102" y1="452" x2="141.1" y2="452" style="fill: none; stroke-miterlimit: 10; stroke-width: 2.8px; stroke: rgb(255, 255, 255);"/>
    </g>
    <g id="-1.052">
      <line x1="86.1" y1="450" x2="55.2" y2="450" style="fill: none; stroke-miterlimit: 10; stroke-width: 2.8px; stroke: rgb(255, 255, 255);"/>
      <polyline points="139.9 367.1 139.9 450 102 450" style="fill: none; stroke-miterlimit: 10; stroke-width: 2.8px; stroke: rgb(255, 255, 255);"/>
      <line x1="86.1" y1="343.2" x2="55.9" y2="343.2" style="fill: none; stroke-miterlimit: 10; stroke-width: 2.8px; stroke: rgb(255, 255, 255);"/>
      <polyline points="141.9 315.5 141.9 343.2 102 343.2" style="fill: none; stroke-miterlimit: 10; stroke-width: 2.8px; stroke: rgb(255, 255, 255);"/>
      <line x1="57.3" y1="342.3" x2="57.3" y2="450.6" style="fill: none; stroke-miterlimit: 10; stroke-width: 2.8px; stroke: rgb(255, 255, 255);"/>
      <rect x="60.7" y="346.5" width="76.3" height="100.5" style="fill: none; stroke: rgb(255, 255, 255);"/>
      <path id="Name-20" data-name="Name" d="M80.9,399.2h-4.2c-.6,0-.9-.5-.9-1s.3-1,.9-1h4.2c.6,0,.9,.5,.9,1s-.3,1-.9,1Zm5.7,4.3c-.5,0-.9-.3-.9-1v-8.1l-.8,.9c-.2,.2-.4,.3-.6,.3-.5,0-.9-.5-.9-1s0-.5,.3-.7l2.3-2.3c.2-.2,.5-.4,.8-.4,.6,0,.9,.6,.9,1.2v10.2c0,.6-.5,1-.9,1Zm4.9,0c-.8,0-1.4-.7-1.4-1.5s.6-1.5,1.4-1.5,1.4,.7,1.4,1.5-.6,1.5-1.4,1.5Zm7.4,.3c-3.5,0-3.5-4.3-3.5-6.8s.4-5.9,3.5-5.9,3.5,3.4,3.5,5.9,0,6.8-3.5,6.8Zm1.6-6.9c0-1.2,0-3.9-1.6-3.9s-1.6,2.5-1.6,3.7v1.1c0,1.6,.1,4,1.6,4s1.6-2.5,1.6-4.1v-.9Zm7.7,6.8c-1.1,0-2.3-.6-2.9-1.6,0-.2-.1-.4-.1-.5,0-.5,.5-1,1-1s.5,.2,.8,.5c.4,.4,.7,.6,1.3,.6,.9,0,1.8-.8,1.8-2.1s-.9-2.1-1.8-2.1-1,.2-1.3,.7c-.2,.4-.5,.5-.8,.5-.6,0-.9-.4-.9-1.2v-5.2c0-.5,.4-1,.9-1h4.5c.6,0,.9,.5,.9,1s-.3,1-.9,1h-3.6v2.5c.4-.2,.8-.2,1.2-.2,2,0,3.6,1.8,3.6,4.1s-1.6,4.1-3.6,4.1Zm11.4-.2h-4.4c-.6,0-1-.4-1-.8s0-.4,.2-.6l4-7c.2-.3,.2-.6,.2-.8,0-.7-.5-1.3-1.2-1.3-1.3,0-1.2,1.6-2.2,1.6s-1-.4-1-1,0-.4,.1-.5c.4-.6,1.4-2,3-2s3,1.4,3,3.2-.2,1.3-.5,1.8l-3.1,5.5h2.7c.6,0,.9,.5,.9,1s-.3,1-.9,1Z" style="fill: rgb(255, 255, 255); stroke: rgb(255, 255, 255);"/>
    </g>
    <g id="-1.053">
      <line x1="86.1" y1="341.2" x2="55.9" y2="341.2" style="fill: none; stroke-miterlimit: 10; stroke-width: 2.8px; stroke: rgb(255, 255, 255);"/>
      <polyline points="139.9 315.5 139.9 341.2 102 341.2" style="fill: none; stroke-miterlimit: 10; stroke-width: 2.8px; stroke: rgb(255, 255, 255);"/>
      <polyline points="55.8 261.6 139.9 261.6 139.9 299.9" style="fill: none; stroke-miterlimit: 10; stroke-width: 2.8px; stroke: rgb(255, 255, 255);"/>
      <line x1="57.3" y1="260.9" x2="57.3" y2="342.3" style="fill: none; stroke-miterlimit: 10; stroke-width: 2.8px; stroke: rgb(255, 255, 255);"/>
      <rect x="60.5" y="264.3" width="76.3" height="73.8" style="fill: none; stroke: rgb(255, 255, 255);"/>
      <path id="Name-21" data-name="Name" d="M80.7,297.5h-4.2c-.6,0-.9-.5-.9-1s.3-1,.9-1h4.2c.6,0,.9,.5,.9,1s-.3,1-.9,1Zm5.7,4.3c-.5,0-.9-.3-.9-1v-8.1l-.8,.9c-.2,.2-.4,.3-.6,.3-.5,0-.9-.5-.9-1s0-.5,.3-.7l2.3-2.3c.2-.2,.5-.4,.8-.4,.6,0,.9,.6,.9,1.2v10.2c0,.6-.5,1-.9,1Zm4.9,0c-.8,0-1.4-.7-1.4-1.5s.6-1.5,1.4-1.5,1.4,.7,1.4,1.5-.6,1.5-1.4,1.5Zm7.4,.3c-3.5,0-3.5-4.3-3.5-6.8s.4-5.9,3.5-5.9,3.5,3.4,3.5,5.9,0,6.8-3.5,6.8Zm1.6-6.9c0-1.2,0-3.9-1.6-3.9s-1.6,2.5-1.6,3.7v1.1c0,1.6,.1,4,1.6,4s1.6-2.5,1.6-4.1v-.9Zm7.7,6.8c-1.1,0-2.3-.6-2.9-1.6,0-.2-.1-.4-.1-.5,0-.5,.5-1,1-1s.5,.2,.8,.5c.4,.4,.7,.6,1.3,.6,.9,0,1.8-.8,1.8-2.1s-.9-2.1-1.8-2.1-1,.2-1.3,.7c-.2,.4-.5,.5-.8,.5-.6,0-.9-.4-.9-1.2v-5.2c0-.5,.4-1,.9-1h4.5c.6,0,.9,.5,.9,1s-.3,1-.9,1h-3.6v2.5c.4-.2,.8-.2,1.2-.2,2,0,3.6,1.8,3.6,4.1s-1.6,4.1-3.6,4.1Zm9.4,.1c-1.3,0-2.3-.7-3-1.7,0-.2-.1-.4-.1-.5,0-.5,.5-1,1-1s.6,.1,.8,.5c.3,.5,.8,.8,1.4,.8,1,0,1.8-.9,1.8-1.9s-.8-1.9-1.8-1.9-.9-.5-.9-1,.3-1,.9-1,1.4-.7,1.4-1.5-.6-1.5-1.4-1.5c-1.3,0-1.3,1.6-2.2,1.6s-1-.4-1-1,0-.4,.2-.5c.3-.6,1.4-2,3-2s3.3,1.5,3.3,3.4-.3,1.8-.9,2.4c.8,.7,1.3,1.8,1.3,3,0,2.1-1.7,3.9-3.7,3.9Z" style="fill: rgb(255, 255, 255); stroke: rgb(255, 255, 255);"/>
    </g>
    <g id="-1.056">
      <line x1="87" y1="166.1" x2="87" y2="172.8" style="fill: none; stroke-miterlimit: 10; stroke-width: 2.8px; stroke: rgb(255, 255, 255);"/>
      <line x1="87" y1="121.4" x2="87" y2="153.1" style="fill: none; stroke-miterlimit: 10; stroke-width: 2.8px; stroke: rgb(255, 255, 255);"/>
      <polyline points="139.9 168.1 139.9 171.8 55.2 171.8" style="fill: none; stroke-miterlimit: 10; stroke-width: 2.8px; stroke: rgb(255, 255, 255);"/>
      <line x1="139.9" y1="121.4" x2="139.9" y2="155.1" style="fill: none; stroke-miterlimit: 10; stroke-width: 2.8px; stroke: rgb(255, 255, 255);"/>
      <polygon id="Rechteck-3" data-name="Rechteck" points="137.5 169.6 89.5 169.6 89.5 165.1 83.6 165.1 83.6 154.3 89.5 154.3 89.5 125.6 137.5 125.6 137.5 169.6" style="fill: none; stroke: rgb(255, 255, 255);"/>
      <path id="Name-22" data-name="Name" d="M91.1,159.8h-4.4c-.6,0-1-.5-1-1s.3-1,1-1h4.4c.6,0,1,.5,1,1s-.3,1-1,1Zm6,4.3c-.5,0-1-.3-1-1v-8.1l-.9,.9c-.2,.2-.4,.3-.7,.3-.5,0-1-.5-1-1s0-.5,.3-.7l2.4-2.3c.2-.2,.6-.4,.9-.4,.6,0,.9,.6,.9,1.2v10.2c0,.6-.5,1-1,1Zm5.1,0c-.8,0-1.4-.7-1.4-1.5s.6-1.5,1.4-1.5,1.5,.7,1.5,1.5-.7,1.5-1.5,1.5Zm7.8,.3c-3.6,0-3.6-4.3-3.6-6.8s.4-5.9,3.6-5.9,3.7,3.4,3.7,5.9,0,6.8-3.6,6.8Zm1.7-6.9c0-1.2,0-3.9-1.7-3.9s-1.7,2.5-1.7,3.7v1.1c0,1.6,.1,4,1.7,4s1.7-2.5,1.7-4.1v-.9Zm8.1,6.8c-1.1,0-2.4-.6-3.1-1.6-.1-.2-.2-.4-.2-.5,0-.5,.5-1,1-1s.5,.2,.8,.5c.4,.4,.8,.6,1.4,.6,.9,0,1.9-.8,1.9-2.1s-.9-2.1-1.9-2.1-1.1,.2-1.3,.7c-.2,.4-.5,.5-.9,.5-.6,0-1-.4-1-1.2v-5.2c0-.5,.4-1,1-1h4.7c.6,0,1,.5,1,1s-.3,1-1,1h-3.7v2.5c.4-.2,.8-.2,1.3-.2,2.1,0,3.8,1.8,3.8,4.1s-1.7,4.1-3.8,4.1Zm10.5,.1c-3.6,0-3.9-3.7-3.9-6.4s.7-6.4,3.9-6.4,2.4,.6,3.1,1.7c.1,.2,.2,.4,.2,.6,0,.6-.5,1-1.1,1s-.5-.2-.7-.5c-.4-.5-.8-.8-1.5-.8-1.1,0-1.8,.8-1.9,3.8,.6-.4,1.3-.6,1.9-.6,2,0,3.7,1.8,3.7,3.8s-1.6,3.8-3.7,3.8Zm0-5.6c-1,0-1.7,.9-1.7,1.9,.2,1,.7,1.8,1.7,1.8s1.7-.8,1.7-1.8-.8-1.8-1.7-1.8Z" style="fill: rgb(255, 255, 255); stroke: rgb(255, 255, 255);"/>
    </g>
    <g id="-1.029">
      <line x1="169.8" y1="170.2" x2="169.8" y2="157.5" style="fill: none; stroke-miterlimit: 10; stroke-width: 3.1px; stroke: rgb(255, 255, 255);"/>
      <line x1="223.7" y1="208.7" x2="223.7" y2="193.8" style="fill: none; stroke-miterlimit: 10; stroke-width: 2.8px; stroke: rgb(255, 255, 255);"/>
      <line x1="223.7" y1="178.8" x2="223.7" y2="122.4" style="fill: none; stroke-miterlimit: 10; stroke-width: 2.8px; stroke: rgb(255, 255, 255);"/>
      <polyline points="169.8 143.1 169.8 121.4 330 121.4 330 194.7" style="fill: none; stroke-miterlimit: 10; stroke-width: 2.8px; stroke: rgb(255, 255, 255);"/>
      <polyline points="167.8 168.8 196.4 168.8 196.4 208.7" style="fill: none; stroke-miterlimit: 10; stroke-width: 2.8px; stroke: rgb(255, 255, 255);"/>
      <line x1="169.8" y1="123.4" x2="224.6" y2="123.4" style="fill: none; stroke-miterlimit: 10; stroke-width: 2.8px; stroke: rgb(255, 255, 255);"/>
      <line x1="196.4" y1="207.2" x2="224.6" y2="207.2" style="fill: none; stroke-miterlimit: 10; stroke-width: 2.8px; stroke: rgb(255, 255, 255);"/>
      <polygon id="Rechteck-4" data-name="Rechteck" points="220.7 125.9 220.7 173.9 220.5 203.3 199.7 203.3 199.7 165.6 172.7 165.6 172.7 125.9 220.7 125.9" style="fill: none; stroke: rgb(255, 255, 255);"/>
      <path id="Name-23" data-name="Name" d="M178.3,149.6h-4.4c-.6,0-1-.5-1-1s.3-1,1-1h4.4c.6,0,1,.5,1,1s-.3,1-1,1Zm6,4.3c-.5,0-1-.3-1-1v-8.1l-.9,.9c-.2,.2-.4,.3-.7,.3-.5,0-1-.5-1-1s0-.5,.3-.7l2.4-2.3c.2-.2,.6-.4,.9-.4,.6,0,.9,.6,.9,1.2v10.2c0,.6-.5,1-1,1Zm5.1,0c-.8,0-1.4-.7-1.4-1.5s.6-1.5,1.4-1.5,1.5,.7,1.5,1.5-.7,1.5-1.5,1.5Zm7.8,.3c-3.6,0-3.6-4.3-3.6-6.8s.4-5.9,3.6-5.9,3.7,3.4,3.7,5.9,0,6.8-3.6,6.8Zm1.7-6.9c0-1.2,0-3.9-1.7-3.9s-1.7,2.5-1.7,3.7v1.1c0,1.6,.1,4,1.7,4s1.7-2.5,1.7-4.1v-.9Zm10,6.7h-4.6c-.6,0-1-.4-1-.8s0-.4,.2-.6l4.2-7c.2-.3,.3-.6,.3-.8,0-.7-.6-1.3-1.3-1.3-1.4,0-1.3,1.6-2.3,1.6s-1-.4-1-1,0-.4,.2-.5c.4-.6,1.4-2,3.2-2s3.2,1.4,3.2,3.2-.3,1.3-.5,1.8l-3.3,5.5h2.9c.6,0,1,.5,1,1s-.3,1-1,1Zm7.2,.3c-1.4,0-2.4-.6-3.1-1.7-.1-.2-.2-.4-.2-.6,0-.6,.5-1,1.1-1s.5,.2,.7,.4c.4,.5,.8,.8,1.5,.8,1.1,0,1.8-.8,1.9-3.8-.6,.4-1.3,.6-1.9,.6-2,0-3.6-1.8-3.6-3.8s1.6-3.8,3.6-3.8c3.6,0,3.9,3.7,3.9,6.4s-.7,6.4-3.9,6.4Zm0-10.8c-.8,0-1.7,.8-1.7,1.8s.8,1.8,1.7,1.8,1.7-.9,1.7-1.9c-.2-1-.7-1.8-1.7-1.8Z" style="fill: rgb(255, 255, 255); stroke: rgb(255, 255, 255);"/>
    </g>
    <g id="-1.028">
      <line x1="225.8" y1="208.7" x2="225.8" y2="193.8" style="fill: none; stroke-miterlimit: 10; stroke-width: 3px; stroke: rgb(255, 255, 255);"/>
      <line x1="225.8" y1="178.8" x2="225.8" y2="121.4" style="fill: none; stroke-miterlimit: 10; stroke-width: 2.8px; stroke: rgb(255, 255, 255);"/>
      <polyline points="329.9 193.8 329.9 206.7 316 206.7" style="fill: none; stroke-miterlimit: 10; stroke-width: 2.8px; stroke: rgb(255, 255, 255);"/>
      <line x1="225.8" y1="123.4" x2="330.3" y2="123.4" style="fill: none; stroke-miterlimit: 10; stroke-width: 2.8px; stroke: rgb(255, 255, 255);"/>
      <line x1="329.9" y1="122.4" x2="329.9" y2="207.7" style="fill: none; stroke-miterlimit: 10; stroke-width: 2.8px; stroke: rgb(255, 255, 255);"/>
      <rect x="228.7" y="126.2" width="98.7" height="77.4" style="fill: none; stroke: rgb(255, 255, 255);"/>
      <path id="Name-24" data-name="Name" d="M259.6,149.6h-4.4c-.6,0-1-.5-1-1s.3-1,1-1h4.4c.6,0,1,.5,1,1s-.3,1-1,1Zm6,4.3c-.5,0-1-.3-1-1v-8.1l-.9,.9c-.2,.2-.4,.3-.7,.3-.5,0-1-.5-1-1s0-.5,.3-.7l2.4-2.3c.2-.2,.6-.4,.9-.4,.6,0,.9,.6,.9,1.2v10.2c0,.6-.5,1-1,1Zm5.1,0c-.8,0-1.4-.7-1.4-1.5s.6-1.5,1.4-1.5,1.5,.7,1.5,1.5-.7,1.5-1.5,1.5Zm7.8,.3c-3.6,0-3.6-4.3-3.6-6.8s.4-5.9,3.6-5.9,3.7,3.4,3.7,5.9,0,6.8-3.6,6.8Zm1.7-6.9c0-1.2,0-3.9-1.7-3.9s-1.7,2.5-1.7,3.7v1.1c0,1.6,.1,4,1.7,4s1.7-2.5,1.7-4.1v-.9Zm10,6.7h-4.6c-.6,0-1-.4-1-.8s0-.4,.2-.6l4.2-7c.2-.3,.3-.6,.3-.8,0-.7-.6-1.3-1.3-1.3-1.4,0-1.3,1.6-2.3,1.6s-1-.4-1-1,0-.4,.2-.5c.4-.6,1.4-2,3.2-2s3.2,1.4,3.2,3.2-.3,1.3-.5,1.8l-3.3,5.5h2.9c.6,0,1,.5,1,1s-.3,1-1,1Zm7.2,.3c-2.2,0-3.9-1.8-3.9-3.9s.6-2.3,1.4-3c-.6-.6-1-1.5-1-2.4,0-1.9,1.5-3.5,3.5-3.5s3.4,1.5,3.4,3.4-.4,1.8-1,2.4c.9,.7,1.4,1.8,1.4,3,0,2.1-1.8,3.9-3.9,3.9Zm0-5.8c-1.1,0-2,.9-2,1.9s.8,1.9,1.9,1.9,2-.9,2-1.9-.9-1.9-1.9-1.9Zm0-5c-.9,0-1.5,.7-1.5,1.5s.7,1.5,1.5,1.5,1.5-.6,1.5-1.5-.7-1.5-1.5-1.5Z" style="fill: rgb(255, 255, 255); stroke: rgb(255, 255, 255);"/>
    </g>
    <g id="-1.001A">
      <line x1="346.6" y1="206.7" x2="328.1" y2="206.7" style="fill: none; stroke-miterlimit: 10; stroke-width: 2.8px; stroke: rgb(255, 255, 255);"/>
      <line x1="390.9" y1="206.7" x2="381.7" y2="206.7" style="fill: none; stroke-miterlimit: 10; stroke-width: 2.6px; stroke: rgb(255, 255, 255);"/>
      <line x1="332" y1="123.4" x2="332" y2="206.7" style="fill: none; stroke-miterlimit: 10; stroke-width: 2.8px; stroke: rgb(255, 255, 255);"/>
      <line x1="391.2" y1="123.4" x2="332" y2="123.4" style="fill: none; stroke-miterlimit: 10; stroke-width: 2.8px; stroke: rgb(255, 255, 255);"/>
      <rect x="334.8" y="126.4" width="53.6" height="77.4" style="fill: none; stroke: rgb(255, 255, 255);"/>
      <line x1="391.2" y1="123.4" x2="391.2" y2="206.7" style="fill: none; stroke-miterlimit: 10; stroke-width: 2.8px; stroke: rgb(255, 255, 255);"/>
      <path id="Name-25" data-name="Name" d="M340.4,149.6h-4.2c-.6,0-.9-.5-.9-1s.3-1,.9-1h4.2c.6,0,.9,.5,.9,1s-.3,1-.9,1Zm5.4,4.3c-.5,0-.9-.3-.9-1v-8.1l-.8,.9c-.2,.2-.4,.3-.6,.3-.5,0-.9-.5-.9-1s0-.5,.3-.7l2.3-2.3c.2-.2,.5-.4,.8-.4,.6,0,.9,.6,.9,1.2v10.2c0,.6-.5,1-.9,1Zm4.6,0c-.8,0-1.4-.7-1.4-1.5s.6-1.5,1.4-1.5,1.4,.7,1.4,1.5-.6,1.5-1.4,1.5Zm7.1,.3c-3.5,0-3.5-4.3-3.5-6.8s.4-5.9,3.5-5.9,3.5,3.4,3.5,5.9,0,6.8-3.5,6.8Zm1.6-6.9c0-1.2,0-3.9-1.6-3.9s-1.6,2.5-1.6,3.7v1.1c0,1.6,.1,4,1.6,4s1.6-2.5,1.6-4.1v-.9Zm7.7,6.9c-3.5,0-3.5-4.3-3.5-6.8s.4-5.9,3.5-5.9,3.5,3.4,3.5,5.9,0,6.8-3.5,6.8Zm1.6-6.9c0-1.2,0-3.9-1.6-3.9s-1.6,2.5-1.6,3.7v1.1c0,1.6,.1,4,1.6,4s1.6-2.5,1.6-4.1v-.9Zm6.4,6.7c-.5,0-.9-.3-.9-1v-8.1l-.8,.9c-.2,.2-.4,.3-.6,.3-.5,0-.9-.5-.9-1s0-.5,.3-.7l2.3-2.3c.2-.2,.5-.4,.8-.4,.6,0,.9,.6,.9,1.2v10.2c0,.6-.5,1-.9,1Zm11.7,0c-.3,0-.6-.2-.8-.6l-.7-1.8h-4.9l-.7,1.8c-.2,.4-.5,.6-.8,.6s-1-.4-1-1,0-.3,0-.4l4-10.1c.2-.5,.5-.8,.9-.8s.7,.3,.9,.8l4,10.1c0,.1,0,.3,0,.4,0,.5-.5,1-1,1Zm-4-8.7l-1.7,4.4h3.4l-1.7-4.4Z" style="fill: rgb(255, 255, 255); stroke: rgb(255, 255, 255);"/>
    </g>
    <g id="-1.035">
      <line x1="217.1" y1="397.6" x2="217.1" y2="510.9" style="fill: none; stroke-miterlimit: 10; stroke-width: 2.8px; stroke: rgb(255, 255, 255);"/>
      <line x1="169.8" y1="397.6" x2="169.8" y2="464.5" style="fill: none; stroke-miterlimit: 10; stroke-width: 2.8px; stroke: rgb(255, 255, 255);"/>
      <line x1="169.8" y1="397.6" x2="217.1" y2="397.6" style="fill: none; stroke-miterlimit: 10; stroke-width: 2.8px; stroke: rgb(255, 255, 255);"/>
      <line x1="169.8" y1="479.8" x2="169.8" y2="508.9" style="fill: none; stroke-miterlimit: 10; stroke-width: 2.8px; stroke: rgb(255, 255, 255);"/>
      <line x1="217.1" y1="508.9" x2="168.7" y2="508.9" style="fill: none; stroke-miterlimit: 10; stroke-width: 2.8px; stroke: rgb(255, 255, 255);"/>
      <polygon id="Rechteck-5" data-name="Rechteck" points="173 400.9 173 465.3 165.5 465.3 165.5 478.8 173 478.8 173 505 213.9 505 213.9 400.9 173 400.9" style="fill: none; stroke: rgb(255, 255, 255);"/>
      <path id="Name-26" data-name="Name" d="M173.2,472.9h-4.2c-.6,0-.9-.5-.9-1s.3-1,.9-1h4.2c.6,0,.9,.5,.9,1s-.3,1-.9,1Zm5.7,4.3c-.5,0-.9-.3-.9-1v-8.1l-.8,.9c-.2,.2-.4,.3-.6,.3-.5,0-.9-.5-.9-1s0-.5,.3-.7l2.3-2.3c.2-.2,.5-.4,.8-.4,.6,0,.9,.6,.9,1.2v10.2c0,.6-.5,1-.9,1Zm4.9,0c-.8,0-1.4-.7-1.4-1.5s.6-1.5,1.4-1.5,1.4,.7,1.4,1.5-.6,1.5-1.4,1.5Zm7.4,.3c-3.5,0-3.5-4.3-3.5-6.8s.4-5.9,3.5-5.9,3.5,3.4,3.5,5.9,0,6.8-3.5,6.8Zm1.6-6.9c0-1.2,0-3.9-1.6-3.9s-1.6,2.5-1.6,3.7v1.1c0,1.6,.1,4,1.6,4s1.6-2.5,1.6-4.1v-.9Zm7.5,6.9c-1.3,0-2.3-.7-3-1.7,0-.2-.1-.4-.1-.5,0-.5,.5-1,1-1s.6,.1,.8,.5c.3,.5,.8,.8,1.4,.8,1,0,1.8-.9,1.8-1.9s-.8-1.9-1.8-1.9-.9-.5-.9-1,.3-1,.9-1,1.4-.7,1.4-1.5-.6-1.5-1.4-1.5c-1.3,0-1.3,1.6-2.2,1.6s-1-.4-1-1,0-.4,.2-.5c.3-.6,1.4-2,3-2s3.3,1.5,3.3,3.4-.3,1.8-.9,2.4c.8,.7,1.3,1.8,1.3,3,0,2.1-1.7,3.9-3.7,3.9Zm9.1-.1c-1.1,0-2.3-.6-2.9-1.6,0-.2-.1-.4-.1-.5,0-.5,.5-1,1-1s.5,.2,.8,.5c.4,.4,.7,.6,1.3,.6,.9,0,1.8-.8,1.8-2.1s-.9-2.1-1.8-2.1-1,.2-1.3,.7c-.2,.4-.5,.5-.8,.5-.6,0-.9-.4-.9-1.2v-5.2c0-.5,.4-1,.9-1h4.5c.6,0,.9,.5,.9,1s-.3,1-.9,1h-3.6v2.5c.4-.2,.8-.2,1.2-.2,2,0,3.6,1.8,3.6,4.1s-1.6,4.1-3.6,4.1Z" style="fill: rgb(255, 255, 255); stroke: rgb(255, 255, 255);"/>
    </g>
    <g id="-1.023">
      <line x1="219.1" y1="508.9" x2="219.1" y2="395.6" style="fill: none; stroke-miterlimit: 10; stroke-width: 2.8px; stroke: rgb(255, 255, 255);"/>
      <line x1="335.3" y1="439.2" x2="335.3" y2="397.6" style="fill: none; stroke-miterlimit: 10; stroke-width: 2.8px; stroke: rgb(255, 255, 255);"/>
      <line x1="219.1" y1="397.6" x2="335.3" y2="397.6" style="fill: none; stroke-miterlimit: 10; stroke-width: 2.8px; stroke: rgb(255, 255, 255);"/>
      <rect x="223.3" y="401.4" width="107.5" height="102.9" style="fill: none; stroke: rgb(255, 255, 255);"/>
      <path id="Name-27" data-name="Name" d="M255.7,450.7h-4.2c-.6,0-.9-.5-.9-1s.3-1,.9-1h4.2c.6,0,.9,.5,.9,1s-.3,1-.9,1Zm5.7,4.3c-.5,0-.9-.3-.9-1v-8.1l-.8,.9c-.2,.2-.4,.3-.6,.3-.5,0-.9-.5-.9-1s0-.5,.3-.7l2.3-2.3c.2-.2,.5-.4,.8-.4,.6,0,.9,.6,.9,1.2v10.2c0,.6-.5,1-.9,1Zm4.9,0c-.8,0-1.4-.7-1.4-1.5s.6-1.5,1.4-1.5,1.4,.7,1.4,1.5-.6,1.5-1.4,1.5Zm7.4,.3c-3.5,0-3.5-4.3-3.5-6.8s.4-5.9,3.5-5.9,3.5,3.4,3.5,5.9,0,6.8-3.5,6.8Zm1.6-6.9c0-1.2,0-3.9-1.6-3.9s-1.6,2.5-1.6,3.7v1.1c0,1.6,.1,4,1.6,4s1.6-2.5,1.6-4.1v-.9Zm9.5,6.7h-4.4c-.6,0-1-.4-1-.8s0-.4,.2-.6l4-7c.2-.3,.2-.6,.2-.8,0-.7-.5-1.3-1.2-1.3-1.3,0-1.2,1.6-2.2,1.6s-1-.4-1-1,0-.4,.1-.5c.4-.6,1.4-2,3-2s3,1.4,3,3.2-.2,1.3-.5,1.8l-3.1,5.5h2.7c.6,0,.9,.5,.9,1s-.3,1-.9,1Zm6.5,.3c-1.3,0-2.3-.7-3-1.7,0-.2-.1-.4-.1-.5,0-.5,.5-1,1-1s.6,.1,.8,.5c.3,.5,.8,.8,1.4,.8,1,0,1.8-.9,1.8-1.9s-.8-1.9-1.8-1.9-.9-.5-.9-1,.3-1,.9-1,1.4-.7,1.4-1.5-.6-1.5-1.4-1.5c-1.3,0-1.3,1.6-2.2,1.6s-1-.4-1-1,0-.4,.2-.5c.3-.6,1.4-2,3-2s3.3,1.5,3.3,3.4-.3,1.8-.9,2.4c.8,.7,1.3,1.8,1.3,3,0,2.1-1.7,3.9-3.7,3.9Z" style="fill: rgb(255, 255, 255); stroke: rgb(255, 255, 255);"/>
    </g>
    <g id="-1.020">
      <line x1="335.3" y1="616.2" x2="335.3" y2="701.3" style="fill: none; stroke-miterlimit: 10; stroke-width: 2.8px; stroke: rgb(255, 255, 255);"/>
      <line x1="335.3" y1="510.9" x2="335.3" y2="590.3" style="fill: none; stroke-miterlimit: 10; stroke-width: 2.8px; stroke: rgb(255, 255, 255);"/>
      <line x1="169.8" y1="599.5" x2="169.8" y2="510.9" style="fill: none; stroke-miterlimit: 10; stroke-width: 2.8px; stroke: rgb(255, 255, 255);"/>
      <line x1="169.8" y1="701.3" x2="169.8" y2="614.4" style="fill: none; stroke-miterlimit: 10; stroke-width: 2.8px; stroke: rgb(255, 255, 255);"/>
      <polyline points="291.7 510.9 167.7 510.9 167.7 479.8" style="fill: none; stroke-miterlimit: 10; stroke-width: 2.8px; stroke: rgb(255, 255, 255);"/>
      <polyline points="297.9 510.9 337.4 510.9 337.4 466.6" style="fill: none; stroke-miterlimit: 10; stroke-width: 2.8px; stroke: rgb(255, 255, 255);"/>
      <polyline points="327 701.3 167.7 701.3 167.7 788.8 186 788.8" style="fill: none; stroke-miterlimit: 10; stroke-width: 2.8px; stroke: rgb(255, 255, 255);"/>
      <rect x="173" y="514.1" width="158.7" height="183.7" style="fill: none; stroke: rgb(255, 255, 255);"/>
      <path id="Name-28" data-name="Name" d="M235,609.3h-4.2c-.6,0-.9-.5-.9-1s.3-1,.9-1h4.2c.6,0,.9,.5,.9,1s-.3,1-.9,1Zm5.7,4.3c-.5,0-.9-.3-.9-1v-8.1l-.8,.9c-.2,.2-.4,.3-.6,.3-.5,0-.9-.5-.9-1s0-.5,.3-.7l2.3-2.3c.2-.2,.5-.4,.8-.4,.6,0,.9,.6,.9,1.2v10.2c0,.6-.5,1-.9,1Zm4.9,0c-.8,0-1.4-.7-1.4-1.5s.6-1.5,1.4-1.5,1.4,.7,1.4,1.5-.6,1.5-1.4,1.5Zm7.4,.3c-3.5,0-3.5-4.3-3.5-6.8s.4-5.9,3.5-5.9,3.5,3.4,3.5,5.9,0,6.8-3.5,6.8Zm1.6-6.9c0-1.2,0-3.9-1.6-3.9s-1.6,2.5-1.6,3.7v1.1c0,1.6,.1,4,1.6,4s1.6-2.5,1.6-4.1v-.9Zm9.5,6.7h-4.4c-.6,0-1-.4-1-.8s0-.4,.2-.6l4-7c.2-.3,.2-.6,.2-.8,0-.7-.5-1.3-1.2-1.3-1.3,0-1.2,1.6-2.2,1.6s-1-.4-1-1,0-.4,.1-.5c.4-.6,1.4-2,3-2s3,1.4,3,3.2-.2,1.3-.5,1.8l-3.1,5.5h2.7c.6,0,.9,.5,.9,1s-.3,1-.9,1Zm7,.3c-3.5,0-3.5-4.3-3.5-6.8s.4-5.9,3.5-5.9,3.5,3.4,3.5,5.9,0,6.8-3.5,6.8Zm1.6-6.9c0-1.2,0-3.9-1.6-3.9s-1.6,2.5-1.6,3.7v1.1c0,1.6,.1,4,1.6,4s1.6-2.5,1.6-4.1v-.9Z" style="fill: rgb(255, 255, 255); stroke: rgb(255, 255, 255);"/>
    </g>
  </g>
</svg>