<svg xmlns="http://www.w3.org/2000/svg" viewBox="0 0 536.4 961.1">

  <g id="floor-rooms" data-name="Räume 2 OG">
    <g id="2.056">
      <line x1="136.4" y1="116.7" x2="47.7" y2="116.7" style="fill: none; stroke: #fff; stroke-miterlimit: 10; stroke-width: 2.8px;"/>
      <rect x="52.4" y="62.1" width="78.8" height="51" style="fill: none;"/>
      <line x1="47.7" y1="116.7" x2="47.7" y2="58.1" style="fill: none; stroke: #fff; stroke-miterlimit: 10; stroke-width: 2.8px;"/>
      <line x1="134.8" y1="58.1" x2="47.7" y2="58.1" style="fill: none; stroke: #fff; stroke-miterlimit: 10; stroke-width: 2.8px;"/>
      <line x1="134.8" y1="100.2" x2="134.8" y2="58.1" style="fill: none; stroke: #fff; stroke-miterlimit: 10; stroke-width: 2.8px;"/>
      <path id="Name" d="M77.8,94.1h-4.6c-.6,0-1-.4-1-.8s0-.4,.2-.6l4.2-7c.2-.3,.3-.6,.3-.8,0-.7-.6-1.3-1.3-1.3-1.4,0-1.3,1.6-2.3,1.6s-1-.4-1-1,0-.4,.2-.5c.4-.6,1.4-2,3.2-2s3.2,1.4,3.2,3.2-.3,1.3-.5,1.8l-3.3,5.5h2.9c.6,0,1,.5,1,1s-.3,1-1,1Zm4.3,0c-.8,0-1.4-.7-1.4-1.5s.6-1.5,1.4-1.5,1.5,.7,1.5,1.5-.7,1.5-1.5,1.5Zm7.1,.3c-3.6,0-3.6-4.3-3.6-6.8s.4-5.9,3.6-5.9,3.7,3.4,3.7,5.9,0,6.8-3.6,6.8Zm1.7-6.9c0-1.2,0-3.9-1.7-3.9s-1.7,2.5-1.7,3.7v1.1c0,1.6,.1,4,1.7,4s1.7-2.5,1.7-4.1v-.9Zm7.8,6.8c-1.1,0-2.4-.6-3.1-1.6-.1-.2-.2-.4-.2-.5,0-.5,.5-1,1-1s.5,.2,.8,.5c.4,.4,.8,.6,1.4,.6,.9,0,1.9-.8,1.9-2.1s-.9-2.1-1.9-2.1-1.1,.2-1.3,.7c-.2,.4-.5,.5-.9,.5-.6,0-1-.4-1-1.2v-5.2c0-.5,.4-1,1-1h4.7c.6,0,1,.5,1,1s-.3,1-1,1h-3.7v2.5c.4-.2,.8-.2,1.3-.2,2.1,0,3.8,1.8,3.8,4.1s-1.7,4.1-3.8,4.1Zm9.9,.1c-3.6,0-3.9-3.7-3.9-6.4s.7-6.4,3.9-6.4,2.4,.6,3.1,1.7c.1,.2,.2,.4,.2,.6,0,.6-.5,1-1.1,1s-.5-.2-.7-.5c-.4-.5-.8-.8-1.5-.8-1.1,0-1.8,.8-1.9,3.8,.6-.4,1.3-.6,1.9-.6,2,0,3.7,1.8,3.7,3.8s-1.6,3.8-3.7,3.8Zm0-5.6c-1,0-1.7,.9-1.7,1.9,.2,1,.7,1.8,1.7,1.8s1.7-.8,1.7-1.8-.8-1.8-1.7-1.8Z" style="fill: white;"/>
    </g>
    <g id="2.055">
      <polyline points="47.7 172.1 134.3 172.1 134.3 135.1" style="fill: none; stroke: #fff; stroke-miterlimit: 10; stroke-width: 2.8px;"/>
      <rect x="52.5" y="121.2" width="78.8" height="48.3" style="fill: none;"/>
      <line x1="136.4" y1="118.7" x2="49.8" y2="118.7" style="fill: none; stroke: #fff; stroke-miterlimit: 10; stroke-width: 2.8px;"/>
      <line x1="49.8" y1="118.7" x2="49.8" y2="172.1" style="fill: none; stroke: #fff; stroke-miterlimit: 10; stroke-width: 2.8px;"/>
      <path id="Name-2" data-name="Name" d="M77.8,149.5h-4.6c-.6,0-1-.4-1-.8s0-.4,.2-.6l4.2-7c.2-.3,.3-.6,.3-.8,0-.7-.6-1.3-1.3-1.3-1.4,0-1.3,1.6-2.3,1.6s-1-.4-1-1,0-.4,.2-.5c.4-.6,1.4-2,3.2-2s3.2,1.4,3.2,3.2-.3,1.3-.5,1.8l-3.3,5.5h2.9c.6,0,1,.5,1,1s-.3,1-1,1Zm4.3,0c-.8,0-1.4-.7-1.4-1.5s.6-1.5,1.4-1.5,1.5,.7,1.5,1.5-.7,1.5-1.5,1.5Zm7.1,.3c-3.6,0-3.6-4.3-3.6-6.8s.4-5.9,3.6-5.9,3.7,3.4,3.7,5.9,0,6.8-3.6,6.8Zm1.7-6.9c0-1.2,0-3.9-1.7-3.9s-1.7,2.5-1.7,3.7v1.1c0,1.6,.1,4,1.7,4s1.7-2.5,1.7-4.1v-.9Zm7.8,6.8c-1.1,0-2.4-.6-3.1-1.6-.1-.2-.2-.4-.2-.5,0-.5,.5-1,1-1s.5,.2,.8,.5c.4,.4,.8,.6,1.4,.6,.9,0,1.9-.8,1.9-2.1s-.9-2.1-1.9-2.1-1.1,.2-1.3,.7c-.2,.4-.5,.5-.9,.5-.6,0-1-.4-1-1.2v-5.2c0-.5,.4-1,1-1h4.7c.6,0,1,.5,1,1s-.3,1-1,1h-3.7v2.5c.4-.2,.8-.2,1.3-.2,2.1,0,3.8,1.8,3.8,4.1s-1.7,4.1-3.8,4.1Zm9.4,0c-1.1,0-2.4-.6-3.1-1.6-.1-.2-.2-.4-.2-.5,0-.5,.5-1,1-1s.5,.2,.8,.5c.4,.4,.8,.6,1.4,.6,.9,0,1.9-.8,1.9-2.1s-.9-2.1-1.9-2.1-1.1,.2-1.3,.7c-.2,.4-.5,.5-.9,.5-.6,0-1-.4-1-1.2v-5.2c0-.5,.4-1,1-1h4.7c.6,0,1,.5,1,1s-.3,1-1,1h-3.7v2.5c.4-.2,.8-.2,1.3-.2,2.1,0,3.8,1.8,3.8,4.1s-1.7,4.1-3.8,4.1Z" style="fill: white;"/>
    </g>
    <g id="2.054">
      <polyline points="49.8 227.5 134.3 227.5 134.3 190.4" style="fill: none; stroke: #fff; stroke-miterlimit: 10; stroke-width: 2.8px;"/>
      <rect x="52.3" y="176.9" width="78.8" height="47.7" style="fill: none;"/>
      <line x1="137.7" y1="172.6" x2="49.8" y2="172.6" style="fill: none; stroke: #fff; stroke-miterlimit: 10; stroke-width: 2.8px;"/>
      <line x1="49.8" y1="172.6" x2="49.8" y2="227.5" style="fill: none; stroke: #fff; stroke-miterlimit: 10; stroke-width: 2.8px;"/>
      <path id="Name-3" data-name="Name" d="M77.8,205.2h-4.6c-.6,0-1-.4-1-.8s0-.4,.2-.6l4.2-7c.2-.3,.3-.6,.3-.8,0-.7-.6-1.3-1.3-1.3-1.4,0-1.3,1.6-2.3,1.6s-1-.4-1-1,0-.4,.2-.5c.4-.6,1.4-2,3.2-2s3.2,1.4,3.2,3.2-.3,1.3-.5,1.8l-3.3,5.5h2.9c.6,0,1,.5,1,1s-.3,1-1,1Zm4.3,0c-.8,0-1.4-.7-1.4-1.5s.6-1.5,1.4-1.5,1.5,.7,1.5,1.5-.7,1.5-1.5,1.5Zm7.1,.3c-3.6,0-3.6-4.3-3.6-6.8s.4-5.9,3.6-5.9,3.7,3.4,3.7,5.9,0,6.8-3.6,6.8Zm1.7-6.9c0-1.2,0-3.9-1.7-3.9s-1.7,2.5-1.7,3.7v1.1c0,1.6,.1,4,1.7,4s1.7-2.5,1.7-4.1v-.9Zm7.8,6.8c-1.1,0-2.4-.6-3.1-1.6-.1-.2-.2-.4-.2-.5,0-.5,.5-1,1-1s.5,.2,.8,.5c.4,.4,.8,.6,1.4,.6,.9,0,1.9-.8,1.9-2.1s-.9-2.1-1.9-2.1-1.1,.2-1.3,.7c-.2,.4-.5,.5-.9,.5-.6,0-1-.4-1-1.2v-5.2c0-.5,.4-1,1-1h4.7c.6,0,1,.5,1,1s-.3,1-1,1h-3.7v2.5c.4-.2,.8-.2,1.3-.2,2.1,0,3.8,1.8,3.8,4.1s-1.7,4.1-3.8,4.1Zm12.6-2h-.4v.8c0,.6-.5,1-1,1s-1-.3-1-1v-.8h-3.6c-.6,0-1-.4-1-.9s0-.3,.2-.5l4.5-8.7c.2-.4,.5-.5,.9-.5,.5,0,1,.4,1,.9s0,.3-.1,.5l-3.8,7.3h2v-1.7c0-.7,.5-1,1-1s1,.3,1,1v1.7h.4c.6,0,1,.5,1,1s-.3,1-1,1Z" style="fill: white;"/>
    </g>
    <g id="2.053">
      <polyline points="134.3 245.9 134.3 282.9 47.7 282.9" style="fill: none; stroke: #fff; stroke-miterlimit: 10; stroke-width: 2.8px;"/>
      <rect x="52.3" y="232.4" width="78.8" height="47.7" style="fill: none;"/>
      <line x1="48.8" y1="229.5" x2="48.8" y2="282.9" style="fill: none; stroke: #fff; stroke-miterlimit: 10; stroke-width: 2.8px;"/>
      <line x1="48.8" y1="229.5" x2="136.3" y2="229.5" style="fill: none; stroke: #fff; stroke-miterlimit: 10; stroke-width: 2.8px;"/>
      <path id="Name-4" data-name="Name" d="M77.8,260.8h-4.6c-.6,0-1-.4-1-.8s0-.4,.2-.6l4.2-7c.2-.3,.3-.6,.3-.8,0-.7-.6-1.3-1.3-1.3-1.4,0-1.3,1.6-2.3,1.6s-1-.4-1-1,0-.4,.2-.5c.4-.6,1.4-2,3.2-2s3.2,1.4,3.2,3.2-.3,1.3-.5,1.8l-3.3,5.5h2.9c.6,0,1,.5,1,1s-.3,1-1,1Zm4.3,0c-.8,0-1.4-.7-1.4-1.5s.6-1.5,1.4-1.5,1.5,.7,1.5,1.5-.7,1.5-1.5,1.5Zm7.1,.3c-3.6,0-3.6-4.3-3.6-6.8s.4-5.9,3.6-5.9,3.7,3.4,3.7,5.9,0,6.8-3.6,6.8Zm1.7-6.9c0-1.2,0-3.9-1.7-3.9s-1.7,2.5-1.7,3.7v1.1c0,1.6,.1,4,1.7,4s1.7-2.5,1.7-4.1v-.9Zm7.8,6.8c-1.1,0-2.4-.6-3.1-1.6-.1-.2-.2-.4-.2-.5,0-.5,.5-1,1-1s.5,.2,.8,.5c.4,.4,.8,.6,1.4,.6,.9,0,1.9-.8,1.9-2.1s-.9-2.1-1.9-2.1-1.1,.2-1.3,.7c-.2,.4-.5,.5-.9,.5-.6,0-1-.4-1-1.2v-5.2c0-.5,.4-1,1-1h4.7c.6,0,1,.5,1,1s-.3,1-1,1h-3.7v2.5c.4-.2,.8-.2,1.3-.2,2.1,0,3.8,1.8,3.8,4.1s-1.7,4.1-3.8,4.1Zm9.5,.1c-1.3,0-2.5-.7-3.1-1.7-.1-.2-.2-.4-.2-.5,0-.5,.5-1,1-1s.6,.1,.8,.5c.3,.5,.8,.8,1.4,.8,1.1,0,1.9-.9,1.9-1.9s-.9-1.9-1.9-1.9-1-.5-1-1,.3-1,1-1,1.5-.7,1.5-1.5-.7-1.5-1.5-1.5c-1.3,0-1.4,1.6-2.3,1.6s-1-.4-1-1,0-.4,.2-.5c.4-.6,1.4-2,3.2-2s3.4,1.5,3.4,3.4-.4,1.8-1,2.4c.9,.7,1.4,1.8,1.4,3,0,2.1-1.8,3.9-3.9,3.9Z" style="fill: white;"/>
    </g>
    <g id="2.052">
      <polyline points="134.3 301.3 134.3 338.3 47.7 338.3" style="fill: none; stroke: #fff; stroke-miterlimit: 10; stroke-width: 2.8px;"/>
      <rect x="52.6" y="287.8" width="78.8" height="47.7" style="fill: none;"/>
      <polyline points="48.8 338.3 48.8 284.3 135.1 284.3" style="fill: none; stroke: #fff; stroke-miterlimit: 10; stroke-width: 2.8px;"/>
      <path id="Name-5" data-name="Name" d="M77.8,316.5h-4.6c-.6,0-1-.4-1-.8s0-.4,.2-.6l4.2-7c.2-.3,.3-.6,.3-.8,0-.7-.6-1.3-1.3-1.3-1.4,0-1.3,1.6-2.3,1.6s-1-.4-1-1,0-.4,.2-.5c.4-.6,1.4-2,3.2-2s3.2,1.4,3.2,3.2-.3,1.3-.5,1.8l-3.3,5.5h2.9c.6,0,1,.5,1,1s-.3,1-1,1Zm4.3,0c-.8,0-1.4-.7-1.4-1.5s.6-1.5,1.4-1.5,1.5,.7,1.5,1.5-.7,1.5-1.5,1.5Zm7.1,.3c-3.6,0-3.6-4.3-3.6-6.8s.4-5.9,3.6-5.9,3.7,3.4,3.7,5.9,0,6.8-3.6,6.8Zm1.7-6.9c0-1.2,0-3.9-1.7-3.9s-1.7,2.5-1.7,3.7v1.1c0,1.6,.1,4,1.7,4s1.7-2.5,1.7-4.1v-.9Zm7.8,6.8c-1.1,0-2.4-.6-3.1-1.6-.1-.2-.2-.4-.2-.5,0-.5,.5-1,1-1s.5,.2,.8,.5c.4,.4,.8,.6,1.4,.6,.9,0,1.9-.8,1.9-2.1s-.9-2.1-1.9-2.1-1.1,.2-1.3,.7c-.2,.4-.5,.5-.9,.5-.6,0-1-.4-1-1.2v-5.2c0-.5,.4-1,1-1h4.7c.6,0,1,.5,1,1s-.3,1-1,1h-3.7v2.5c.4-.2,.8-.2,1.3-.2,2.1,0,3.8,1.8,3.8,4.1s-1.7,4.1-3.8,4.1Zm11.6-.2h-4.6c-.6,0-1-.4-1-.8s0-.4,.2-.6l4.2-7c.2-.3,.3-.6,.3-.8,0-.7-.6-1.3-1.3-1.3-1.4,0-1.3,1.6-2.3,1.6s-1-.4-1-1,0-.4,.2-.5c.4-.6,1.4-2,3.2-2s3.2,1.4,3.2,3.2-.3,1.3-.5,1.8l-3.3,5.5h2.9c.6,0,1,.5,1,1s-.3,1-1,1Z" style="fill: white;"/>
    </g>
    <g id="2.051">
      <polyline points="48.8 392.3 48.8 338.3 135.1 338.3" style="fill: none; stroke: #fff; stroke-miterlimit: 10; stroke-width: 2.8px;"/>
      <polyline points="134.3 356.7 134.3 393.7 47.7 393.7" style="fill: none; stroke: #fff; stroke-miterlimit: 10; stroke-width: 2.8px;"/>
      <rect x="52.5" y="343.2" width="78.8" height="47.7" style="fill: none;"/>
      <path id="Name-6" data-name="Name" d="M77.8,372.1h-4.6c-.6,0-1-.4-1-.8s0-.4,.2-.6l4.2-7c.2-.3,.3-.6,.3-.8,0-.7-.6-1.3-1.3-1.3-1.4,0-1.3,1.6-2.3,1.6s-1-.4-1-1,0-.4,.2-.5c.4-.6,1.4-2,3.2-2s3.2,1.4,3.2,3.2-.3,1.3-.5,1.8l-3.3,5.5h2.9c.6,0,1,.5,1,1s-.3,1-1,1Zm4.3,0c-.8,0-1.4-.7-1.4-1.5s.6-1.5,1.4-1.5,1.5,.7,1.5,1.5-.7,1.5-1.5,1.5Zm7.1,.3c-3.6,0-3.6-4.3-3.6-6.8s.4-5.9,3.6-5.9,3.7,3.4,3.7,5.9,0,6.8-3.6,6.8Zm1.7-6.9c0-1.2,0-3.9-1.7-3.9s-1.7,2.5-1.7,3.7v1.1c0,1.6,.1,4,1.7,4s1.7-2.5,1.7-4.1v-.9Zm7.8,6.8c-1.1,0-2.4-.6-3.1-1.6-.1-.2-.2-.4-.2-.5,0-.5,.5-1,1-1s.5,.2,.8,.5c.4,.4,.8,.6,1.4,.6,.9,0,1.9-.8,1.9-2.1s-.9-2.1-1.9-2.1-1.1,.2-1.3,.7c-.2,.4-.5,.5-.9,.5-.6,0-1-.4-1-1.2v-5.2c0-.5,.4-1,1-1h4.7c.6,0,1,.5,1,1s-.3,1-1,1h-3.7v2.5c.4-.2,.8-.2,1.3-.2,2.1,0,3.8,1.8,3.8,4.1s-1.7,4.1-3.8,4.1Zm8.3-.2c-.5,0-1-.3-1-1v-8.1l-.9,.9c-.2,.2-.4,.3-.7,.3-.5,0-1-.5-1-1s0-.5,.3-.7l2.4-2.3c.2-.2,.6-.4,.9-.4,.6,0,.9,.6,.9,1.2v10.2c0,.6-.5,1-1,1Z" style="fill: white;"/>
    </g>
    <g id="2.050">
      <polyline points="48.8 448.6 48.8 394.6 135.1 394.6" style="fill: none; stroke: #fff; stroke-miterlimit: 10; stroke-width: 2.8px;"/>
      <polyline points="134.3 412.1 134.3 450.6 47.7 450.6" style="fill: none; stroke: #fff; stroke-miterlimit: 10; stroke-width: 2.8px;"/>
      <rect x="52.5" y="399.3" width="78.8" height="48.5" style="fill: none;"/>
      <path id="Name-7" data-name="Name" d="M77.8,428.7h-4.6c-.6,0-1-.4-1-.8s0-.4,.2-.6l4.2-7c.2-.3,.3-.6,.3-.8,0-.7-.6-1.3-1.3-1.3-1.4,0-1.3,1.6-2.3,1.6s-1-.4-1-1,0-.4,.2-.5c.4-.6,1.4-2,3.2-2s3.2,1.4,3.2,3.2-.3,1.3-.5,1.8l-3.3,5.5h2.9c.6,0,1,.5,1,1s-.3,1-1,1Zm4.3,0c-.8,0-1.4-.7-1.4-1.5s.6-1.5,1.4-1.5,1.5,.7,1.5,1.5-.7,1.5-1.5,1.5Zm7.1,.3c-3.6,0-3.6-4.3-3.6-6.8s.4-5.9,3.6-5.9,3.7,3.4,3.7,5.9,0,6.8-3.6,6.8Zm1.7-6.9c0-1.2,0-3.9-1.7-3.9s-1.7,2.5-1.7,3.7v1.1c0,1.6,.1,4,1.7,4s1.7-2.5,1.7-4.1v-.9Zm7.8,6.8c-1.1,0-2.4-.6-3.1-1.6-.1-.2-.2-.4-.2-.5,0-.5,.5-1,1-1s.5,.2,.8,.5c.4,.4,.8,.6,1.4,.6,.9,0,1.9-.8,1.9-2.1s-.9-2.1-1.9-2.1-1.1,.2-1.3,.7c-.2,.4-.5,.5-.9,.5-.6,0-1-.4-1-1.2v-5.2c0-.5,.4-1,1-1h4.7c.6,0,1,.5,1,1s-.3,1-1,1h-3.7v2.5c.4-.2,.8-.2,1.3-.2,2.1,0,3.8,1.8,3.8,4.1s-1.7,4.1-3.8,4.1Zm10.1,.1c-3.6,0-3.6-4.3-3.6-6.8s.4-5.9,3.6-5.9,3.7,3.4,3.7,5.9,0,6.8-3.6,6.8Zm1.7-6.9c0-1.2,0-3.9-1.7-3.9s-1.7,2.5-1.7,3.7v1.1c0,1.6,.1,4,1.7,4s1.7-2.5,1.7-4.1v-.9Z" style="fill: white;"/>
    </g>
    <g id="2.049">
      <polyline points="109.4 509.7 109.4 470.9 115.7 470.9" style="fill: none; stroke: #fff; stroke-miterlimit: 10; stroke-width: 2.8px;"/>
      <line x1="146.8" y1="452.6" x2="49.5" y2="452.6" style="fill: none; stroke: #fff; stroke-miterlimit: 10; stroke-width: 2.8px;"/>
      <rect x="52.7" y="455.2" width="53.6" height="49.6" style="fill: none;"/>
      <line x1="49.5" y1="452.6" x2="49.5" y2="508.5" style="fill: none; stroke: #fff; stroke-miterlimit: 10; stroke-width: 2.8px;"/>
      <line x1="109.4" y1="508.5" x2="49.5" y2="508.5" style="fill: none; stroke: #fff; stroke-miterlimit: 10; stroke-width: 2.8px;"/>
      <path id="Name-8" data-name="Name" d="M63.9,486.2h-4.6c-.6,0-1-.4-1-.8s0-.4,.2-.6l4.2-7c.2-.3,.3-.6,.3-.8,0-.7-.6-1.3-1.3-1.3-1.4,0-1.3,1.6-2.3,1.6s-1-.4-1-1,0-.4,.2-.5c.4-.6,1.4-2,3.2-2s3.2,1.4,3.2,3.2-.3,1.3-.5,1.8l-3.3,5.5h2.9c.6,0,1,.5,1,1s-.3,1-1,1Zm4.3,0c-.8,0-1.4-.7-1.4-1.5s.6-1.5,1.4-1.5,1.5,.7,1.5,1.5-.7,1.5-1.5,1.5Zm7.1,.3c-3.6,0-3.6-4.3-3.6-6.8s.4-5.9,3.6-5.9,3.7,3.4,3.7,5.9,0,6.8-3.6,6.8Zm1.7-6.9c0-1.2,0-3.9-1.7-3.9s-1.7,2.5-1.7,3.7v1.1c0,1.6,.1,4,1.7,4s1.7-2.5,1.7-4.1v-.9Zm11,4.9h-.4v.8c0,.6-.5,1-1,1s-1-.3-1-1v-.8h-3.6c-.6,0-1-.4-1-.9s0-.3,.2-.5l4.5-8.7c.2-.4,.5-.5,.9-.5,.5,0,1,.4,1,.9s0,.3-.1,.5l-3.8,7.3h2v-1.7c0-.7,.5-1,1-1s1,.3,1,1v1.7h.4c.6,0,1,.5,1,1s-.3,1-1,1Zm5.9,2.1c-1.4,0-2.4-.6-3.1-1.7-.1-.2-.2-.4-.2-.6,0-.6,.5-1,1.1-1s.5,.2,.7,.4c.4,.5,.8,.8,1.5,.8,1.1,0,1.8-.8,1.9-3.8-.6,.4-1.3,.6-1.9,.6-2,0-3.6-1.8-3.6-3.8s1.6-3.8,3.6-3.8c3.6,0,3.9,3.7,3.9,6.4s-.7,6.4-3.9,6.4Zm0-10.8c-.8,0-1.7,.8-1.7,1.8s.8,1.8,1.7,1.8,1.7-.9,1.7-1.9c-.2-1-.7-1.8-1.7-1.8Z" style="fill: white;"/>
    </g>
    <g id="2.048">
      <line x1="96.8" y1="563" x2="47.7" y2="563" style="fill: none; stroke: #fff; stroke-miterlimit: 10; stroke-width: 2.8px;"/>
      <polyline points="134.3 526 134.3 563 111.8 563" style="fill: none; stroke: #fff; stroke-miterlimit: 10; stroke-width: 2.8px;"/>
      <rect x="52.6" y="512.6" width="78.8" height="47.6" style="fill: none;"/>
      <line x1="48.5" y1="508.5" x2="136.3" y2="508.5" style="fill: none; stroke: #fff; stroke-miterlimit: 10; stroke-width: 2.8px;"/>
      <line x1="48.5" y1="563" x2="48.5" y2="508.5" style="fill: none; stroke: #fff; stroke-miterlimit: 10; stroke-width: 2.8px;"/>
      <path id="Name-9" data-name="Name" d="M77.8,539.1h-4.6c-.6,0-1-.4-1-.8s0-.4,.2-.6l4.2-7c.2-.3,.3-.6,.3-.8,0-.7-.6-1.3-1.3-1.3-1.4,0-1.3,1.6-2.3,1.6s-1-.4-1-1,0-.4,.2-.5c.4-.6,1.4-2,3.2-2s3.2,1.4,3.2,3.2-.3,1.3-.5,1.8l-3.3,5.5h2.9c.6,0,1,.5,1,1s-.3,1-1,1Zm4.3,0c-.8,0-1.4-.7-1.4-1.5s.6-1.5,1.4-1.5,1.5,.7,1.5,1.5-.7,1.5-1.5,1.5Zm7.1,.3c-3.6,0-3.6-4.3-3.6-6.8s.4-5.9,3.6-5.9,3.7,3.4,3.7,5.9,0,6.8-3.6,6.8Zm1.7-6.9c0-1.2,0-3.9-1.7-3.9s-1.7,2.5-1.7,3.7v1.1c0,1.6,.1,4,1.7,4s1.7-2.5,1.7-4.1v-.9Zm11,4.9h-.4v.8c0,.6-.5,1-1,1s-1-.3-1-1v-.8h-3.6c-.6,0-1-.4-1-.9s0-.3,.2-.5l4.5-8.7c.2-.4,.5-.5,.9-.5,.5,0,1,.4,1,.9s0,.3-.1,.5l-3.8,7.3h2v-1.7c0-.7,.5-1,1-1s1,.3,1,1v1.7h.4c.6,0,1,.5,1,1s-.3,1-1,1Zm6,2.1c-2.2,0-3.9-1.8-3.9-3.9s.6-2.3,1.4-3c-.6-.6-1-1.5-1-2.4,0-1.9,1.5-3.5,3.5-3.5s3.4,1.5,3.4,3.4-.4,1.8-1,2.4c.8,.7,1.4,1.8,1.4,3,0,2.1-1.8,3.9-3.9,3.9Zm0-5.8c-1.1,0-2,.9-2,1.9s.8,1.9,1.9,1.9,2-.9,2-1.9-.9-1.9-1.9-1.9Zm0-5c-.9,0-1.5,.7-1.5,1.5s.7,1.5,1.5,1.5,1.5-.6,1.5-1.5-.7-1.5-1.5-1.5Z" style="fill: white;"/>
    </g>
    <g id="2.047">
      <line x1="134.3" y1="581.4" x2="134.3" y2="618.4" style="fill: none; stroke: #fff; stroke-miterlimit: 10; stroke-width: 2.8px;"/>
      <line x1="47.7" y1="618.4" x2="96.8" y2="618.4" style="fill: none; stroke: #fff; stroke-miterlimit: 10; stroke-width: 2.8px;"/>
      <line x1="96.8" y1="565" x2="48.8" y2="565" style="fill: none; stroke: #fff; stroke-miterlimit: 10; stroke-width: 2.8px;"/>
      <rect x="52.7" y="568" width="78.8" height="47.6" style="fill: none;"/>
      <line x1="111.8" y1="563.8" x2="136.3" y2="563.8" style="fill: none; stroke: #fff; stroke-miterlimit: 10; stroke-width: 2.8px;"/>
      <line x1="48.8" y1="565" x2="48.8" y2="618.4" style="fill: none; stroke: #fff; stroke-miterlimit: 10; stroke-width: 2.8px;"/>
      <line x1="111.8" y1="618.4" x2="134.3" y2="618.4" style="fill: none; stroke: #fff; stroke-miterlimit: 10; stroke-width: 2.8px;"/>
      <path id="Name-10" data-name="Name" d="M77.8,597h-4.6c-.6,0-1-.4-1-.8s0-.4,.2-.6l4.2-7c.2-.3,.3-.6,.3-.8,0-.7-.6-1.3-1.3-1.3-1.4,0-1.3,1.6-2.3,1.6s-1-.4-1-1,0-.4,.2-.5c.4-.6,1.4-2,3.2-2s3.2,1.4,3.2,3.2-.3,1.3-.5,1.8l-3.3,5.5h2.9c.6,0,1,.5,1,1s-.3,1-1,1Zm4.3,0c-.8,0-1.4-.7-1.4-1.5s.6-1.5,1.4-1.5,1.5,.7,1.5,1.5-.7,1.5-1.5,1.5Zm7.1,.3c-3.6,0-3.6-4.3-3.6-6.8s.4-5.9,3.6-5.9,3.7,3.4,3.7,5.9,0,6.8-3.6,6.8Zm1.7-6.9c0-1.2,0-3.9-1.7-3.9s-1.7,2.5-1.7,3.7v1.1c0,1.6,.1,4,1.7,4s1.7-2.5,1.7-4.1v-.9Zm11,4.9h-.4v.8c0,.6-.5,1-1,1s-1-.3-1-1v-.8h-3.6c-.6,0-1-.4-1-.9s0-.3,.2-.5l4.5-8.7c.2-.4,.5-.5,.9-.5,.5,0,1,.4,1,.9s0,.3-.1,.5l-3.8,7.3h2v-1.7c0-.7,.5-1,1-1s1,.3,1,1v1.7h.4c.6,0,1,.5,1,1s-.3,1-1,1Zm9.1-8.9l-3.8,10c-.2,.4-.5,.6-.9,.6-.5,0-1-.4-1-1s0-.2,0-.4l3.4-8.9h-3.7c-.4,0-1-.3-1-1s.4-1,1-1h5.1c.6,0,.9,.4,.9,.9s0,.4-.1,.5Z" style="fill: white;"/>
    </g>
    <g id="2.046">
      <line x1="48.8" y1="620.4" x2="48.8" y2="681.3" style="fill: none; stroke: #fff; stroke-miterlimit: 10; stroke-width: 2.8px;"/>
      <line x1="47.7" y1="681.3" x2="136.4" y2="681.3" style="fill: none; stroke: #fff; stroke-miterlimit: 10; stroke-width: 2.8px;"/>
      <polyline points="111.8 620.4 134.3 620.4 134.3 665" style="fill: none; stroke: #fff; stroke-miterlimit: 10; stroke-width: 2.8px;"/>
      <line x1="48.8" y1="620.4" x2="96.8" y2="620.4" style="fill: none; stroke: #fff; stroke-miterlimit: 10; stroke-width: 2.8px;"/>
      <rect x="52.7" y="623.3" width="78.8" height="55" style="fill: none;"/>
      <path id="Name-11" data-name="Name" d="M77.8,657.3h-4.6c-.6,0-1-.4-1-.8s0-.4,.2-.6l4.2-7c.2-.3,.3-.6,.3-.8,0-.7-.6-1.3-1.3-1.3-1.4,0-1.3,1.6-2.3,1.6s-1-.4-1-1,0-.4,.2-.5c.4-.6,1.4-2,3.2-2s3.2,1.4,3.2,3.2-.3,1.3-.5,1.8l-3.3,5.5h2.9c.6,0,1,.5,1,1s-.3,1-1,1Zm4.3,0c-.8,0-1.4-.7-1.4-1.5s.6-1.5,1.4-1.5,1.5,.7,1.5,1.5-.7,1.5-1.5,1.5Zm7.1,.3c-3.6,0-3.6-4.3-3.6-6.8s.4-5.9,3.6-5.9,3.7,3.4,3.7,5.9,0,6.8-3.6,6.8Zm1.7-6.9c0-1.2,0-3.9-1.7-3.9s-1.7,2.5-1.7,3.7v1.1c0,1.6,.1,4,1.7,4s1.7-2.5,1.7-4.1v-.9Zm11,4.9h-.4v.8c0,.6-.5,1-1,1s-1-.3-1-1v-.8h-3.6c-.6,0-1-.4-1-.9s0-.3,.2-.5l4.5-8.7c.2-.4,.5-.5,.9-.5,.5,0,1,.4,1,.9s0,.3-.1,.5l-3.8,7.3h2v-1.7c0-.7,.5-1,1-1s1,.3,1,1v1.7h.4c.6,0,1,.5,1,1s-.3,1-1,1Zm6.3,2.1c-3.6,0-3.9-3.7-3.9-6.4s.7-6.4,3.9-6.4,2.4,.6,3.1,1.7c.1,.2,.2,.4,.2,.6,0,.6-.5,1-1.1,1s-.5-.2-.7-.5c-.4-.5-.8-.8-1.5-.8-1.1,0-1.8,.8-1.9,3.8,.6-.4,1.3-.6,1.9-.6,2,0,3.7,1.8,3.7,3.8s-1.6,3.8-3.7,3.8Zm0-5.6c-1,0-1.7,.9-1.7,1.9,.2,1,.7,1.8,1.7,1.8s1.7-.8,1.7-1.8-.8-1.8-1.7-1.8Z" style="fill: white;"/>
    </g>
    <g id="2.045">
      <polyline points="134.3 699.7 134.3 729.2 48.8 729.2" style="fill: none; stroke: #fff; stroke-miterlimit: 10; stroke-width: 2.8px;"/>
      <line x1="48.8" y1="683.3" x2="136.4" y2="683.3" style="fill: none; stroke: #fff; stroke-miterlimit: 10; stroke-width: 2.8px;"/>
      <rect x="52.3" y="686.2" width="78.8" height="40" style="fill: none;"/>
      <line x1="48.8" y1="683.3" x2="48.8" y2="729.2" style="fill: none; stroke: #fff; stroke-miterlimit: 10; stroke-width: 2.8px;"/>
      <path id="Name-12" data-name="Name" d="M77.8,710.1h-4.6c-.6,0-1-.4-1-.8s0-.4,.2-.6l4.2-7c.2-.3,.3-.6,.3-.8,0-.7-.6-1.3-1.3-1.3-1.4,0-1.3,1.6-2.3,1.6s-1-.4-1-1,0-.4,.2-.5c.4-.6,1.4-2,3.2-2s3.2,1.4,3.2,3.2-.3,1.3-.5,1.8l-3.3,5.5h2.9c.6,0,1,.5,1,1s-.3,1-1,1Zm4.3,0c-.8,0-1.4-.7-1.4-1.5s.6-1.5,1.4-1.5,1.5,.7,1.5,1.5-.7,1.5-1.5,1.5Zm7.1,.3c-3.6,0-3.6-4.3-3.6-6.8s.4-5.9,3.6-5.9,3.7,3.4,3.7,5.9,0,6.8-3.6,6.8Zm1.7-6.9c0-1.2,0-3.9-1.7-3.9s-1.7,2.5-1.7,3.7v1.1c0,1.6,.1,4,1.7,4s1.7-2.5,1.7-4.1v-.9Zm11,4.9h-.4v.8c0,.6-.5,1-1,1s-1-.3-1-1v-.8h-3.6c-.6,0-1-.4-1-.9s0-.3,.2-.5l4.5-8.7c.2-.4,.5-.5,.9-.5,.5,0,1,.4,1,.9s0,.3-.1,.5l-3.8,7.3h2v-1.7c0-.7,.5-1,1-1s1,.3,1,1v1.7h.4c.6,0,1,.5,1,1s-.3,1-1,1Zm5.8,2c-1.1,0-2.4-.6-3.1-1.6-.1-.2-.2-.4-.2-.5,0-.5,.5-1,1-1s.5,.2,.8,.5c.4,.4,.8,.6,1.4,.6,.9,0,1.9-.8,1.9-2.1s-.9-2.1-1.9-2.1-1.1,.2-1.3,.7c-.2,.4-.5,.5-.9,.5-.6,0-1-.4-1-1.2v-5.2c0-.5,.4-1,1-1h4.7c.6,0,1,.5,1,1s-.3,1-1,1h-3.7v2.5c.4-.2,.8-.2,1.3-.2,2.1,0,3.8,1.8,3.8,4.1s-1.7,4.1-3.8,4.1Z" style="fill: white;"/>
    </g>
    <g id="2.044">
      <polyline points="134.3 730.5 48.8 730.5 48.8 784.6" style="fill: none; stroke: #fff; stroke-miterlimit: 10; stroke-width: 2.8px;"/>
      <polyline points="134.3 747.5 134.3 784.6 134.3 784.6 47.7 784.6" style="fill: none; stroke: #fff; stroke-miterlimit: 10; stroke-width: 2.8px;"/>
      <rect x="52.6" y="734.4" width="78.8" height="46.8" style="fill: none;"/>
      
      <path id="Name-13" data-name="Name" d="M77.8,763.6h-4.6c-.6,0-1-.4-1-.8s0-.4,.2-.6l4.2-7c.2-.3,.3-.6,.3-.8,0-.7-.6-1.3-1.3-1.3-1.4,0-1.3,1.6-2.3,1.6s-1-.4-1-1,0-.4,.2-.5c.4-.6,1.4-2,3.2-2s3.2,1.4,3.2,3.2-.3,1.3-.5,1.8l-3.3,5.5h2.9c.6,0,1,.5,1,1s-.3,1-1,1Zm4.3,0c-.8,0-1.4-.7-1.4-1.5s.6-1.5,1.4-1.5,1.5,.7,1.5,1.5-.7,1.5-1.5,1.5Zm7.1,.3c-3.6,0-3.6-4.3-3.6-6.8s.4-5.9,3.6-5.9,3.7,3.4,3.7,5.9,0,6.8-3.6,6.8Zm1.7-6.9c0-1.2,0-3.9-1.7-3.9s-1.7,2.5-1.7,3.7v1.1c0,1.6,.1,4,1.7,4s1.7-2.5,1.7-4.1v-.9Zm11,4.9h-.4v.8c0,.6-.5,1-1,1s-1-.3-1-1v-.8h-3.6c-.6,0-1-.4-1-.9s0-.3,.2-.5l4.5-8.7c.2-.4,.5-.5,.9-.5,.5,0,1,.4,1,.9s0,.3-.1,.5l-3.8,7.3h2v-1.7c0-.7,.5-1,1-1s1,.3,1,1v1.7h.4c.6,0,1,.5,1,1s-.3,1-1,1Zm9.1,0h-.4v.8c0,.6-.5,1-1,1s-1-.3-1-1v-.8h-3.6c-.6,0-1-.4-1-.9s0-.3,.2-.5l4.5-8.7c.2-.4,.5-.5,.9-.5,.5,0,1,.4,1,.9s0,.3-.1,.5l-3.8,7.3h2v-1.7c0-.7,.5-1,1-1s1,.3,1,1v1.7h.4c.6,0,1,.5,1,1s-.3,1-1,1Z" style="fill: white;"/>
    </g>
    <g id="2.043">
      <polyline points="134.3 785.7 48.8 785.7 48.8 843.4 134.3 843.4 134.3 802.9 134.3 843.4 49.8 843.4 49.8 59.4 134.3 59.4 134.3 100.3" style="fill: none; stroke: #fff; stroke-miterlimit: 10; stroke-width: 2.8px;"/>
      <rect x="52.7" y="789.6" width="78.8" height="50.3" style="fill: none;"/>
      <path id="Name-14" data-name="Name" d="M77.8,821.6h-4.6c-.6,0-1-.4-1-.8s0-.4,.2-.6l4.2-7c.2-.3,.3-.6,.3-.8,0-.7-.6-1.3-1.3-1.3-1.4,0-1.3,1.6-2.3,1.6s-1-.4-1-1,0-.4,.2-.5c.4-.6,1.4-2,3.2-2s3.2,1.4,3.2,3.2-.3,1.3-.5,1.8l-3.3,5.5h2.9c.6,0,1,.5,1,1s-.3,1-1,1Zm4.3,0c-.8,0-1.4-.7-1.4-1.5s.6-1.5,1.4-1.5,1.5,.7,1.5,1.5-.7,1.5-1.5,1.5Zm7.1,.3c-3.6,0-3.6-4.3-3.6-6.8s.4-5.9,3.6-5.9,3.7,3.4,3.7,5.9,0,6.8-3.6,6.8Zm1.7-6.9c0-1.2,0-3.9-1.7-3.9s-1.7,2.5-1.7,3.7v1.1c0,1.6,.1,4,1.7,4s1.7-2.5,1.7-4.1v-.9Zm11,4.9h-.4v.8c0,.6-.5,1-1,1s-1-.3-1-1v-.8h-3.6c-.6,0-1-.4-1-.9s0-.3,.2-.5l4.5-8.7c.2-.4,.5-.5,.9-.5,.5,0,1,.4,1,.9s0,.3-.1,.5l-3.8,7.3h2v-1.7c0-.7,.5-1,1-1s1,.3,1,1v1.7h.4c.6,0,1,.5,1,1s-.3,1-1,1Zm5.6,2.1c-1.3,0-2.5-.7-3.1-1.7-.1-.2-.2-.4-.2-.5,0-.5,.5-1,1-1s.6,.1,.8,.5c.3,.5,.8,.8,1.4,.8,1.1,0,1.9-.9,1.9-1.9s-.9-1.9-1.9-1.9-1-.5-1-1,.3-1,1-1,1.5-.7,1.5-1.5-.7-1.5-1.5-1.5c-1.3,0-1.4,1.6-2.3,1.6s-1-.4-1-1,0-.4,.2-.5c.4-.6,1.4-2,3.2-2s3.4,1.5,3.4,3.4-.4,1.8-1,2.4c.9,.7,1.4,1.8,1.4,3,0,2.1-1.8,3.9-3.9,3.9Z" style="fill: white;"/>
    </g>
    <g id="2.040">
      <polyline points="161.9 734 212.6 734 212.6 651.4 164.1 651.4 164.1 709.7" style="fill: none; stroke: #fff; stroke-miterlimit: 10; stroke-width: 2.8px;"/>
      <rect x="167.1" y="654.1" width="42.5" height="76.9" style="fill: none;"/>
      <path id="Name-15" data-name="Name" d="M174.7,700.2h-4.6c-.6,0-1-.4-1-.8s0-.4,.2-.6l4.2-7c.2-.3,.3-.6,.3-.8,0-.7-.6-1.3-1.3-1.3-1.4,0-1.3,1.6-2.3,1.6s-1-.4-1-1,0-.4,.2-.5c.4-.6,1.4-2,3.2-2s3.2,1.4,3.2,3.2-.3,1.3-.5,1.8l-3.3,5.5h2.9c.6,0,1,.5,1,1s-.3,1-1,1Zm4.3,0c-.8,0-1.4-.7-1.4-1.5s.6-1.5,1.4-1.5,1.5,.7,1.5,1.5-.7,1.5-1.5,1.5Zm7.1,.3c-3.6,0-3.6-4.3-3.6-6.8s.4-5.9,3.6-5.9,3.7,3.4,3.7,5.9,0,6.8-3.6,6.8Zm1.7-6.9c0-1.2,0-3.9-1.7-3.9s-1.7,2.5-1.7,3.7v1.1c0,1.6,.1,4,1.7,4s1.7-2.5,1.7-4.1v-.9Zm11,4.9h-.4v.8c0,.6-.5,1-1,1s-1-.3-1-1v-.8h-3.6c-.6,0-1-.4-1-.9s0-.3,.2-.5l4.5-8.7c.2-.4,.5-.5,.9-.5,.5,0,1,.4,1,.9s0,.3-.1,.5l-3.8,7.3h2v-1.7c0-.7,.5-1,1-1s1,.3,1,1v1.7h.4c.6,0,1,.5,1,1s-.3,1-1,1Zm5.8,2.1c-3.6,0-3.6-4.3-3.6-6.8s.4-5.9,3.6-5.9,3.7,3.4,3.7,5.9,0,6.8-3.6,6.8Zm1.7-6.9c0-1.2,0-3.9-1.7-3.9s-1.7,2.5-1.7,3.7v1.1c0,1.6,.1,4,1.7,4s1.7-2.5,1.7-4.1v-.9Z" style="fill: white;"/>
    </g>
  </g>

  <g id="Grundriss_2_OG" data-name="Grundriss 2 OG">
    <polyline points="163.9 736 214.7 736 214.7 649.3 162 649.3 162 709.7" style="fill: none; stroke: #fff; stroke-miterlimit: 10; stroke-width: 2.8px;"/>
    <line x1="136.3" y1="581.4" x2="136.3" y2="618.4" style="fill: none; stroke: #fff; stroke-miterlimit: 10; stroke-width: 2.8px;"/>
    <line x1="218.6" y1="149.1" x2="163.8" y2="149.1" style="fill: none; stroke: #fff; stroke-miterlimit: 10; stroke-width: 2px;"/>
    <polyline points="166.1 452.9 162 452.9 162 357.9" style="fill: none; stroke: #fff; stroke-miterlimit: 10; stroke-width: 2.8px;"/>
    <polyline points="136.3 747.5 136.3 786.6 48.5 786.6" style="fill: none; stroke: #fff; stroke-miterlimit: 10; stroke-width: 2.8px;"/>
    <polyline points="136.3 699.7 136.3 731.2 49.8 731.2" style="fill: none; stroke: #fff; stroke-miterlimit: 10; stroke-width: 2.8px;"/>
    <polyline points="111.8 618.4 136.3 618.4 136.3 665" style="fill: none; stroke: #fff; stroke-miterlimit: 10; stroke-width: 2.8px;"/>
    <polyline points="136.3 526 136.3 565 111.8 565" style="fill: none; stroke: #fff; stroke-miterlimit: 10; stroke-width: 2.8px;"/>
    <polyline points="49.8 509.7 136.3 509.7 136.3 470.9 129.6 470.9" style="fill: none; stroke: #fff; stroke-miterlimit: 10; stroke-width: 2.8px;"/>
    <polyline points="47.7 507.7 134.3 507.7 134.3 473 129.6 473" style="fill: none; stroke: #fff; stroke-miterlimit: 10; stroke-width: 2.8px;"/>
    <polyline points="136.3 412.1 136.3 451.8 49.8 451.8" style="fill: none; stroke: #fff; stroke-miterlimit: 10; stroke-width: 2.8px;"/>
    <polyline points="136.3 356.7 136.3 395.7 49.8 395.7" style="fill: none; stroke: #fff; stroke-miterlimit: 10; stroke-width: 2.8px;"/>
    <polyline points="136.3 301.3 136.3 340.4 49.8 340.4" style="fill: none; stroke: #fff; stroke-miterlimit: 10; stroke-width: 2.8px;"/>
    <polyline points="136.3 245.9 136.3 285 49.8 285" style="fill: none; stroke: #fff; stroke-miterlimit: 10; stroke-width: 2.8px;"/>
    <polyline points="49.8 229.5 136.3 229.5 136.3 190.4" style="fill: none; stroke: #fff; stroke-miterlimit: 10; stroke-width: 2.8px;"/>
    <polyline points="49.8 174.1 136.3 174.1 136.3 135.1" style="fill: none; stroke: #fff; stroke-miterlimit: 10; stroke-width: 2.8px;"/>
    <polyline points="162 723 162 845.4 169.2 845.4 501.3 845.4 501.3 57.4 162 57.4 162 92.4" style="fill: none; stroke: #fff; stroke-miterlimit: 10; stroke-width: 2.8px;"/>
    <polyline points="136.3 802.9 136.3 845.4 47.7 845.4 47.7 57.4 136.3 57.4 136.3 100.3" style="fill: none; stroke: #fff; stroke-miterlimit: 10; stroke-width: 2.8px;"/>
    <polyline points="164.1 92.4 164.1 59.4 499.2 59.4 499.2 843.4 169.2 843.4 164.1 843.4 164.1 723" style="fill: none; stroke: #fff; stroke-miterlimit: 10; stroke-width: 2.8px;"/>
    <polyline points="163.8 114.8 191.3 114.8 191.3 149.1" style="fill: none; stroke: #fff; stroke-miterlimit: 10; stroke-width: 2.8px;"/>
    <polyline points="163.8 112.8 193.4 112.8 193.4 148.1" style="fill: none; stroke: #fff; stroke-miterlimit: 10; stroke-width: 2px;"/>
    <polyline points="180.5 106.1 180.5 77 191.3 77 191.3 118.8" style="fill: none; stroke: #fff; stroke-miterlimit: 10; stroke-width: 2px;"/>
    <polyline points="178.5 106.1 178.5 75 193.4 75 193.4 121" style="fill: none; stroke: #fff; stroke-miterlimit: 10; stroke-width: 2px;"/>
    <polyline points="111.5 507.7 111.5 473 115.7 473" style="fill: none; stroke: #fff; stroke-miterlimit: 10; stroke-width: 2.8px;"/>
    <g>
      <line x1="221.5" y1="184.2" x2="221.5" y2="167.1" style="fill: none; stroke: #fff; stroke-miterlimit: 10; stroke-width: 2px;"/>
      <line x1="225.2" y1="184.2" x2="225.2" y2="167.1" style="fill: none; stroke: #fff; stroke-miterlimit: 10; stroke-width: 2px;"/>
      <line x1="229" y1="184.2" x2="229" y2="167.1" style="fill: none; stroke: #fff; stroke-miterlimit: 10; stroke-width: 2px;"/>
      <line x1="232.8" y1="184.2" x2="232.8" y2="167.1" style="fill: none; stroke: #fff; stroke-miterlimit: 10; stroke-width: 2px;"/>
      <line x1="236.6" y1="184.2" x2="236.6" y2="167.1" style="fill: none; stroke: #fff; stroke-miterlimit: 10; stroke-width: 2px;"/>
      <line x1="240.4" y1="184.2" x2="240.4" y2="167.1" style="fill: none; stroke: #fff; stroke-miterlimit: 10; stroke-width: 2px;"/>
      <line x1="244.2" y1="184.2" x2="244.2" y2="167.1" style="fill: none; stroke: #fff; stroke-miterlimit: 10; stroke-width: 2px;"/>
      <line x1="248" y1="184.2" x2="248" y2="167.1" style="fill: none; stroke: #fff; stroke-miterlimit: 10; stroke-width: 2px;"/>
    </g>
    <g>
      <polyline points="164.1 651.4 164.1 615.8 220.1 615.8" style="fill: none; stroke: #fff; stroke-miterlimit: 10; stroke-width: 2.8px;"/>
      <polyline points="166.1 651.4 166.1 617.8 220.1 617.8" style="fill: none; stroke: #fff; stroke-miterlimit: 10; stroke-width: 2.8px;"/>
      <polyline points="164.1 357.9 164.1 596.4 220.1 596.4" style="fill: none; stroke: #fff; stroke-miterlimit: 10; stroke-width: 2.8px;"/>
      <polyline points="164.1 452.9 166.1 452.9 166.1 594.3 220.1 594.3" style="fill: none; stroke: #fff; stroke-miterlimit: 10; stroke-width: 2.8px;"/>
    </g>
    <g id="Treppe">
      <g>
        <line x1="192.8" y1="615.8" x2="192.8" y2="596.4" style="fill: none; stroke: #fff; stroke-miterlimit: 10; stroke-width: 2px;"/>
        <line x1="189" y1="615.8" x2="189" y2="596.4" style="fill: none; stroke: #fff; stroke-miterlimit: 10; stroke-width: 2px;"/>
        <line x1="196.6" y1="615.8" x2="196.6" y2="596.4" style="fill: none; stroke: #fff; stroke-miterlimit: 10; stroke-width: 2px;"/>
        <line x1="181.5" y1="615.8" x2="181.5" y2="596.4" style="fill: none; stroke: #fff; stroke-miterlimit: 10; stroke-width: 2px;"/>
        <line x1="185.3" y1="615.8" x2="185.3" y2="596.4" style="fill: none; stroke: #fff; stroke-miterlimit: 10; stroke-width: 2px;"/>
        <line x1="200.4" y1="615.8" x2="200.4" y2="596.4" style="fill: none; stroke: #fff; stroke-miterlimit: 10; stroke-width: 2px;"/>
        <line x1="204.2" y1="615.8" x2="204.2" y2="596.4" style="fill: none; stroke: #fff; stroke-miterlimit: 10; stroke-width: 2px;"/>
        <line x1="208" y1="615.8" x2="208" y2="596.4" style="fill: none; stroke: #fff; stroke-miterlimit: 10; stroke-width: 2px;"/>
        <line x1="211.7" y1="615.8" x2="211.7" y2="596.4" style="fill: none; stroke: #fff; stroke-miterlimit: 10; stroke-width: 2px;"/>
        <line x1="215.5" y1="615.8" x2="215.5" y2="596.4" style="fill: none; stroke: #fff; stroke-miterlimit: 10; stroke-width: 2px;"/>
      </g>
    </g>
    <polyline points="164.1 363.4 164.1 186.3 271.9 186.3" style="fill: none; stroke: #fff; stroke-miterlimit: 10; stroke-width: 2.8px;"/>
    <polyline points="271.9 184.3 162 184.3 162 359.4" style="fill: none; stroke: #fff; stroke-miterlimit: 10; stroke-width: 2.8px;"/>
    <g id="Treppe-2" data-name="Treppe">
      <g>
        <line x1="180.5" y1="84.6" x2="191.3" y2="84.6" style="fill: none; stroke: #fff; stroke-miterlimit: 10; stroke-width: 2px;"/>
        <line x1="180.5" y1="80.8" x2="191.3" y2="80.8" style="fill: none; stroke: #fff; stroke-miterlimit: 10; stroke-width: 2px;"/>
        <line x1="180.5" y1="88.3" x2="191.3" y2="88.3" style="fill: none; stroke: #fff; stroke-miterlimit: 10; stroke-width: 2px;"/>
        <line x1="180.5" y1="92.1" x2="191.3" y2="92.1" style="fill: none; stroke: #fff; stroke-miterlimit: 10; stroke-width: 2px;"/>
        <line x1="180.5" y1="95.8" x2="191.3" y2="95.8" style="fill: none; stroke: #fff; stroke-miterlimit: 10; stroke-width: 2px;"/>
        <line x1="180.5" y1="99.6" x2="191.3" y2="99.6" style="fill: none; stroke: #fff; stroke-miterlimit: 10; stroke-width: 2px;"/>
      </g>
    </g>
    <polyline points="252.5 167.1 215.6 167.1 215.6 166.8 215.6 148.1" style="fill: none; stroke: #fff; stroke-miterlimit: 10; stroke-width: 2px;"/>
    <polyline points="163.8 151.1 217.7 151.1 217.7 164.7 217.7 165 252.5 165" style="fill: none; stroke: #fff; stroke-miterlimit: 10; stroke-width: 2px;"/>
    <line x1="164.1" y1="59.4" x2="134.3" y2="59.4" style="fill: none; stroke: #fff; stroke-miterlimit: 10; stroke-width: 2.8px;"/>
    <line x1="162" y1="57.4" x2="136.3" y2="57.4" style="fill: none; stroke: #fff; stroke-miterlimit: 10; stroke-width: 2.8px;"/>
    <line x1="146.8" y1="450.6" x2="49.5" y2="450.6" style="fill: none; stroke: #fff; stroke-miterlimit: 10; stroke-width: 2.8px;"/>
    <line x1="173.4" y1="651.3" x2="157.1" y2="651.3" style="fill: none; stroke: #fff; stroke-miterlimit: 10; stroke-width: 2.8px;"/>
    <line x1="173.4" y1="649.3" x2="157.1" y2="649.3" style="fill: none; stroke: #fff; stroke-miterlimit: 10; stroke-width: 2.8px;"/>
    <line x1="171.4" y1="845.4" x2="155.1" y2="845.4" style="fill: none; stroke: #fff; stroke-miterlimit: 10; stroke-width: 2.8px;"/>
    <line x1="171.4" y1="843.4" x2="155.1" y2="843.4" style="fill: none; stroke: #fff; stroke-miterlimit: 10; stroke-width: 2.8px;"/>
    <line x1="177.7" y1="150" x2="177.7" y2="160.3" style="fill: none; stroke: #fff; stroke-miterlimit: 10; stroke-width: 2.8px;"/>
    <line x1="175.7" y1="150" x2="175.7" y2="160.3" style="fill: none; stroke: #fff; stroke-miterlimit: 10; stroke-width: 2.8px;"/>
    <line x1="177.7" y1="174.1" x2="177.7" y2="187.4" style="fill: none; stroke: #fff; stroke-miterlimit: 10; stroke-width: 2.8px;"/>
    <line x1="175.7" y1="174.1" x2="175.7" y2="187.4" style="fill: none; stroke: #fff; stroke-miterlimit: 10; stroke-width: 2.8px;"/>
    <g id="Treppe-3" data-name="Treppe">
      <polygon points="177.4 119.8 186 119.8 186 144.3 177.4 144.3 177.4 146.2 188.5 146.2 188.5 117.7 177.4 117.7 177.4 119.8" style="fill: #fff;"/>
      <rect x="168.6" y="121.7" width="6.7" height="20.6" style="fill: #fff;"/>
      <polygon points="175.3 144.3 166.6 144.3 166.6 119.8 175.3 119.8 175.3 117.7 164.1 117.7 164.1 146.2 175.3 146.2 175.3 144.3" style="fill: #fff;"/>
      <rect x="177.4" y="121.7" width="6.6" height="20.6" style="fill: #fff;"/>
    </g>
  </g>
</svg>